/h/167/acamacho/Experiments-ICAPS18-SynKit/L3/bigprob_48.tlsf.unrealizability.sas parsed.
Heuristic: FF-heuristic.
Algorithm: LAO*-search
INITIAL IS PROVEN!

Result: Strong cyclic plan found.

Time needed for preprocess (Parsing, PDBs, ...):    0.268 seconds.
Time needed for search:                             2.298 seconds.
Time needed:                                        2.566 seconds.
Total Garbage Collections: 2
Total Garbage Collection Time: 0 seconds.

Out of 311 nodes, 91 are proven
Number of node expansions: 88
Policy entries: 88
Number of sensing applications in policy: 0
