/h/167/acamacho/Experiments-ICAPS18-SynKit/L3/bigprob_57.compact.tlsf.unrealizability.sas parsed.
Heuristic: FF-heuristic.
Algorithm: LAO*-search
INITIAL IS PROVEN!

Result: Strong cyclic plan found.

Time needed for preprocess (Parsing, PDBs, ...):    0.5 seconds.
Time needed for search:                             0.678 seconds.
Time needed:                                        1.178 seconds.
Total Garbage Collections: 2
Total Garbage Collection Time: 0 seconds.

Out of 216 nodes, 130 are proven
Number of node expansions: 126
Policy entries: 126
Number of sensing applications in policy: 0
