/h/167/acamacho/Experiments-ICAPS18-SynKit/L3/bigprob_19.compact.tlsf.unrealizability.sas parsed.
Heuristic: FF-heuristic.
Algorithm: LAO*-search
INITIAL IS PROVEN!

Result: Strong cyclic plan found.

Time needed for preprocess (Parsing, PDBs, ...):    0.145 seconds.
Time needed for search:                             1.484 seconds.
Time needed:                                        1.629 seconds.
Total Garbage Collections: 2
Total Garbage Collection Time: 0 seconds.

Out of 795 nodes, 139 are proven
Number of node expansions: 553
Policy entries: 32
Number of sensing applications in policy: 0
