/h/167/acamacho/Experiments-ICAPS18-SynKit/L3/bigprob_28.compact.tlsf.unrealizability.sas parsed.
Heuristic: FF-heuristic.
Algorithm: LAO*-search
INITIAL IS PROVEN!

Result: Strong cyclic plan found.

Time needed for preprocess (Parsing, PDBs, ...):    0.767 seconds.
Time needed for search:                             1.406 seconds.
Time needed:                                        2.173 seconds.
Total Garbage Collections: 2
Total Garbage Collection Time: 0 seconds.

Out of 142 nodes, 106 are proven
Number of node expansions: 100
Policy entries: 100
Number of sensing applications in policy: 0
