/h/167/acamacho/Experiments-ICAPS18-SynKit/L3/bigprob_97.tlsf.unrealizability.sas parsed.
Heuristic: FF-heuristic.
Algorithm: LAO*-search
INITIAL IS PROVEN!

Result: Strong cyclic plan found.

Time needed for preprocess (Parsing, PDBs, ...):    0.177 seconds.
Time needed for search:                             1.456 seconds.
Time needed:                                        1.633 seconds.
Total Garbage Collections: 2
Total Garbage Collection Time: 0 seconds.

Out of 705 nodes, 138 are proven
Number of node expansions: 279
Policy entries: 118
Number of sensing applications in policy: 0
