/h/167/acamacho/Experiments-ICAPS18-SynKit/L3/bigprob_68.compact.tlsf.unrealizability.sas parsed.
Heuristic: FF-heuristic.
Algorithm: LAO*-search
INITIAL IS PROVEN!

Result: Strong cyclic plan found.

Time needed for preprocess (Parsing, PDBs, ...):    0.563 seconds.
Time needed for search:                             1.831 seconds.
Time needed:                                        2.394 seconds.
Total Garbage Collections: 2
Total Garbage Collection Time: 0 seconds.

Out of 245 nodes, 195 are proven
Number of node expansions: 192
Policy entries: 192
Number of sensing applications in policy: 0
