/h/167/acamacho/Experiments-ICAPS18-SynKit/L3/bigprob_43.tlsf.unrealizability.sas parsed.
Heuristic: FF-heuristic.
Algorithm: LAO*-search
INITIAL IS PROVEN!

Result: Strong cyclic plan found.

Time needed for preprocess (Parsing, PDBs, ...):    1.173 seconds.
Time needed for search:                             2.156 seconds.
Time needed:                                        3.329 seconds.
Total Garbage Collections: 2
Total Garbage Collection Time: 0 seconds.

Out of 249 nodes, 118 are proven
Number of node expansions: 113
Policy entries: 113
Number of sensing applications in policy: 0
