/h/167/acamacho/Experiments-ICAPS18-SynKit/L3/bigprob_23.tlsf.unrealizability.sas parsed.
Heuristic: FF-heuristic.
Algorithm: LAO*-search
INITIAL IS PROVEN!

Result: Strong cyclic plan found.

Time needed for preprocess (Parsing, PDBs, ...):    0.729 seconds.
Time needed for search:                             4.099 seconds.
Time needed:                                        4.828 seconds.
Total Garbage Collections: 3
Total Garbage Collection Time: 0 seconds.

Out of 1150 nodes, 246 are proven
Number of node expansions: 490
Policy entries: 211
Number of sensing applications in policy: 0
