/h/167/acamacho/Experiments-ICAPS18-SynKit/L3/bigprob_52.compact.tlsf.unrealizability.sas parsed.
Heuristic: FF-heuristic.
Algorithm: LAO*-search
INITIAL IS PROVEN!

Result: Strong cyclic plan found.

Time needed for preprocess (Parsing, PDBs, ...):    0.457 seconds.
Time needed for search:                             1.538 seconds.
Time needed:                                        1.995 seconds.
Total Garbage Collections: 2
Total Garbage Collection Time: 0 seconds.

Out of 605 nodes, 399 are proven
Number of node expansions: 396
Policy entries: 396
Number of sensing applications in policy: 0
