/h/167/acamacho/Experiments-ICAPS18-SynKit/L3/bigprob_14.tlsf.unrealizability.sas parsed.
Heuristic: FF-heuristic.
Algorithm: LAO*-search
INITIAL IS PROVEN!

Result: Strong cyclic plan found.

Time needed for preprocess (Parsing, PDBs, ...):    0.227 seconds.
Time needed for search:                             0.822 seconds.
Time needed:                                        1.049 seconds.
Total Garbage Collections: 2
Total Garbage Collection Time: 0 seconds.

Out of 358 nodes, 135 are proven
Number of node expansions: 130
Policy entries: 130
Number of sensing applications in policy: 0
