/h/167/acamacho/Experiments-ICAPS18-SynKit/L3/bigprob_21.tlsf.unrealizability.sas parsed.
Heuristic: FF-heuristic.
Algorithm: LAO*-search
INITIAL IS PROVEN!

Result: Strong cyclic plan found.

Time needed for preprocess (Parsing, PDBs, ...):    0.263 seconds.
Time needed for search:                             2.11 seconds.
Time needed:                                        2.373 seconds.
Total Garbage Collections: 2
Total Garbage Collection Time: 0 seconds.

Out of 291 nodes, 130 are proven
Number of node expansions: 125
Policy entries: 125
Number of sensing applications in policy: 0
