/h/167/acamacho/Experiments-ICAPS18-SynKit/L3/bigprob_46.tlsf.unrealizability.sas parsed.
Heuristic: FF-heuristic.
Algorithm: LAO*-search
INITIAL IS PROVEN!

Result: Strong cyclic plan found.

Time needed for preprocess (Parsing, PDBs, ...):    1.024 seconds.
Time needed for search:                             341.42 seconds.
Time needed:                                        342.444 seconds.
Total Garbage Collections: 12
Total Garbage Collection Time: 1 seconds.

Out of 8616 nodes, 411 are proven
Number of node expansions: 6279
Policy entries: 196
Number of sensing applications in policy: 0
