/h/167/acamacho/Experiments-ICAPS18-SynKit/L3/bigprob_54.compact.tlsf.unrealizability.sas parsed.
Heuristic: FF-heuristic.
Algorithm: LAO*-search
INITIAL IS PROVEN!

Result: Strong cyclic plan found.

Time needed for preprocess (Parsing, PDBs, ...):    0.565 seconds.
Time needed for search:                             6.154 seconds.
Time needed:                                        6.719 seconds.
Total Garbage Collections: 3
Total Garbage Collection Time: 0 seconds.

Out of 1272 nodes, 740 are proven
Number of node expansions: 963
Policy entries: 714
Number of sensing applications in policy: 0
