/h/167/acamacho/Experiments-ICAPS18-SynKit/L3/bigprob_60.compact.tlsf.unrealizability.sas parsed.
Heuristic: FF-heuristic.
Algorithm: LAO*-search
INITIAL IS PROVEN!

Result: Strong cyclic plan found.

Time needed for preprocess (Parsing, PDBs, ...):    0.402 seconds.
Time needed for search:                             0.975 seconds.
Time needed:                                        1.377 seconds.
Total Garbage Collections: 2
Total Garbage Collection Time: 0 seconds.

Out of 141 nodes, 100 are proven
Number of node expansions: 97
Policy entries: 97
Number of sensing applications in policy: 0
