/h/167/acamacho/Experiments-ICAPS18-SynKit/L3/bigprob_3.tlsf.unrealizability.sas parsed.
Heuristic: FF-heuristic.
Algorithm: LAO*-search
INITIAL IS PROVEN!

Result: Strong cyclic plan found.

Time needed for preprocess (Parsing, PDBs, ...):    0.874 seconds.
Time needed for search:                             12.311 seconds.
Time needed:                                        13.185 seconds.
Total Garbage Collections: 5
Total Garbage Collection Time: 0 seconds.

Out of 2615 nodes, 173 are proven
Number of node expansions: 1760
Policy entries: 130
Number of sensing applications in policy: 0
