/h/167/acamacho/Experiments-ICAPS18-SynKit/L3/bigprob_6.compact.tlsf.unrealizability.sas parsed.
Heuristic: FF-heuristic.
Algorithm: LAO*-search
INITIAL IS DISPROVEN!

Result: No strong cyclic plan found.

Time needed for preprocess (Parsing, PDBs, ...):    0.239 seconds.
Time needed for search:                             1.243 seconds.
Time needed:                                        1.482 seconds.
Total Garbage Collections: 2
Total Garbage Collection Time: 0 seconds.

