/h/167/acamacho/Experiments-ICAPS18-SynKit/L3/bigprob_43.compact.tlsf.unrealizability.sas parsed.
Heuristic: FF-heuristic.
Algorithm: LAO*-search
INITIAL IS PROVEN!

Result: Strong cyclic plan found.

Time needed for preprocess (Parsing, PDBs, ...):    1.153 seconds.
Time needed for search:                             1.94 seconds.
Time needed:                                        3.093 seconds.
Total Garbage Collections: 2
Total Garbage Collection Time: 0 seconds.

Out of 184 nodes, 133 are proven
Number of node expansions: 127
Policy entries: 127
Number of sensing applications in policy: 0
