/h/167/acamacho/Experiments-ICAPS18-SynKit/L3/bigprob_82.compact.tlsf.unrealizability.sas parsed.
Heuristic: FF-heuristic.
Algorithm: LAO*-search
INITIAL IS PROVEN!

Result: Strong cyclic plan found.

Time needed for preprocess (Parsing, PDBs, ...):    0.565 seconds.
Time needed for search:                             1.268 seconds.
Time needed:                                        1.833 seconds.
Total Garbage Collections: 2
Total Garbage Collection Time: 0 seconds.

Out of 138 nodes, 109 are proven
Number of node expansions: 103
Policy entries: 103
Number of sensing applications in policy: 0
