/h/167/acamacho/Experiments-ICAPS18-SynKit/L3/bigprob_67.tlsf.unrealizability.sas parsed.
Heuristic: FF-heuristic.
Algorithm: LAO*-search
INITIAL IS PROVEN!

Result: Strong cyclic plan found.

Time needed for preprocess (Parsing, PDBs, ...):    1.207 seconds.
Time needed for search:                             2.405 seconds.
Time needed:                                        3.612 seconds.
Total Garbage Collections: 2
Total Garbage Collection Time: 0 seconds.

Out of 219 nodes, 104 are proven
Number of node expansions: 99
Policy entries: 99
Number of sensing applications in policy: 0
