/h/167/acamacho/Experiments-ICAPS18-SynKit/L3/bigprob_49.tlsf.unrealizability.sas parsed.
Heuristic: FF-heuristic.
Algorithm: LAO*-search
INITIAL IS PROVEN!

Result: Strong cyclic plan found.

Time needed for preprocess (Parsing, PDBs, ...):    0.386 seconds.
Time needed for search:                             361.323 seconds.
Time needed:                                        361.709 seconds.
Total Garbage Collections: 9
Total Garbage Collection Time: 0 seconds.

Out of 11008 nodes, 1166 are proven
Number of node expansions: 3233
Policy entries: 815
Number of sensing applications in policy: 0
