/h/167/acamacho/Experiments-ICAPS18-SynKit/L3/bigprob_47.tlsf.unrealizability.sas parsed.
Heuristic: FF-heuristic.
Algorithm: LAO*-search
INITIAL IS PROVEN!

Result: Strong cyclic plan found.

Time needed for preprocess (Parsing, PDBs, ...):    0.57 seconds.
Time needed for search:                             51.575 seconds.
Time needed:                                        52.145 seconds.
Total Garbage Collections: 8
Total Garbage Collection Time: 0 seconds.

Out of 7020 nodes, 196 are proven
Number of node expansions: 4408
Policy entries: 133
Number of sensing applications in policy: 0
