/h/167/acamacho/Experiments-ICAPS18-SynKit/L3/bigprob_98.compact.tlsf.unrealizability.sas parsed.
Heuristic: FF-heuristic.
Algorithm: LAO*-search
INITIAL IS PROVEN!

Result: Strong cyclic plan found.

Time needed for preprocess (Parsing, PDBs, ...):    0.853 seconds.
Time needed for search:                             3.775 seconds.
Time needed:                                        4.628 seconds.
Total Garbage Collections: 2
Total Garbage Collection Time: 0 seconds.

Out of 583 nodes, 260 are proven
Number of node expansions: 444
Policy entries: 238
Number of sensing applications in policy: 0
