/h/167/acamacho/Experiments-ICAPS18-SynKit/L3/bigprob_37.compact.tlsf.unrealizability.sas parsed.
Heuristic: FF-heuristic.
Algorithm: LAO*-search
INITIAL IS PROVEN!

Result: Strong cyclic plan found.

Time needed for preprocess (Parsing, PDBs, ...):    0.557 seconds.
Time needed for search:                             2.053 seconds.
Time needed:                                        2.61 seconds.
Total Garbage Collections: 2
Total Garbage Collection Time: 0 seconds.

Out of 484 nodes, 222 are proven
Number of node expansions: 380
Policy entries: 209
Number of sensing applications in policy: 0
