/h/167/acamacho/Experiments-ICAPS18-SynKit/L3/bigprob_56.compact.tlsf.unrealizability.sas parsed.
Heuristic: FF-heuristic.
Algorithm: LAO*-search
INITIAL IS PROVEN!

Result: Strong cyclic plan found.

Time needed for preprocess (Parsing, PDBs, ...):    0.784 seconds.
Time needed for search:                             1.43 seconds.
Time needed:                                        2.214 seconds.
Total Garbage Collections: 2
Total Garbage Collection Time: 0 seconds.

Out of 198 nodes, 122 are proven
Number of node expansions: 119
Policy entries: 119
Number of sensing applications in policy: 0
