/h/167/acamacho/Experiments-ICAPS18-SynKit/L3/bigprob_99.compact.tlsf.unrealizability.sas parsed.
Heuristic: FF-heuristic.
Algorithm: LAO*-search
INITIAL IS PROVEN!

Result: Strong cyclic plan found.

Time needed for preprocess (Parsing, PDBs, ...):    0.272 seconds.
Time needed for search:                             3.448 seconds.
Time needed:                                        3.72 seconds.
Total Garbage Collections: 2
Total Garbage Collection Time: 0 seconds.

Out of 996 nodes, 318 are proven
Number of node expansions: 773
Policy entries: 287
Number of sensing applications in policy: 0
