/h/167/acamacho/Experiments-ICAPS18-SynKit/L3/bigprob_12.tlsf.unrealizability.sas parsed.
Heuristic: FF-heuristic.
Algorithm: LAO*-search
INITIAL IS PROVEN!

Result: Strong cyclic plan found.

Time needed for preprocess (Parsing, PDBs, ...):    0.286 seconds.
Time needed for search:                             3.26 seconds.
Time needed:                                        3.546 seconds.
Total Garbage Collections: 2
Total Garbage Collection Time: 0 seconds.

Out of 814 nodes, 164 are proven
Number of node expansions: 356
Policy entries: 138
Number of sensing applications in policy: 0
