/h/167/acamacho/Experiments-ICAPS18-SynKit/L3/bigprob_84.tlsf.unrealizability.sas parsed.
Heuristic: FF-heuristic.
Algorithm: LAO*-search
INITIAL IS PROVEN!

Result: Strong cyclic plan found.

Time needed for preprocess (Parsing, PDBs, ...):    0.35 seconds.
Time needed for search:                             572.504 seconds.
Time needed:                                        572.854 seconds.
Total Garbage Collections: 17
Total Garbage Collection Time: 1 seconds.

Out of 29388 nodes, 1563 are proven
Number of node expansions: 4859
Policy entries: 1164
Number of sensing applications in policy: 0
