/h/167/acamacho/Experiments-ICAPS18-SynKit/L3/bigprob_53.tlsf.unrealizability.sas parsed.
Heuristic: FF-heuristic.
Algorithm: LAO*-search
INITIAL IS PROVEN!

Result: Strong cyclic plan found.

Time needed for preprocess (Parsing, PDBs, ...):    0.165 seconds.
Time needed for search:                             28.125 seconds.
Time needed:                                        28.29 seconds.
Total Garbage Collections: 7
Total Garbage Collection Time: 0 seconds.

Out of 6329 nodes, 474 are proven
Number of node expansions: 1707
Policy entries: 359
Number of sensing applications in policy: 0
