/h/167/acamacho/Experiments-ICAPS18-SynKit/L3/bigprob_94.compact.tlsf.unrealizability.sas parsed.
Heuristic: FF-heuristic.
Algorithm: LAO*-search
INITIAL IS PROVEN!

Result: Strong cyclic plan found.

Time needed for preprocess (Parsing, PDBs, ...):    1.755 seconds.
Time needed for search:                             2.069 seconds.
Time needed:                                        3.824 seconds.
Total Garbage Collections: 2
Total Garbage Collection Time: 0 seconds.

Out of 155 nodes, 120 are proven
Number of node expansions: 114
Policy entries: 114
Number of sensing applications in policy: 0
