/h/167/acamacho/Experiments-ICAPS18-SynKit/L3/bigprob_67.compact.tlsf.unrealizability.sas parsed.
Heuristic: FF-heuristic.
Algorithm: LAO*-search
INITIAL IS PROVEN!

Result: Strong cyclic plan found.

Time needed for preprocess (Parsing, PDBs, ...):    0.789 seconds.
Time needed for search:                             1.208 seconds.
Time needed:                                        1.997 seconds.
Total Garbage Collections: 2
Total Garbage Collection Time: 0 seconds.

Out of 151 nodes, 115 are proven
Number of node expansions: 109
Policy entries: 109
Number of sensing applications in policy: 0
