/h/167/acamacho/Experiments-ICAPS18-SynKit/L3/bigprob_94.tlsf.unrealizability.sas parsed.
Heuristic: FF-heuristic.
Algorithm: LAO*-search
INITIAL IS PROVEN!

Result: Strong cyclic plan found.

Time needed for preprocess (Parsing, PDBs, ...):    0.623 seconds.
Time needed for search:                             1.549 seconds.
Time needed:                                        2.172 seconds.
Total Garbage Collections: 2
Total Garbage Collection Time: 0 seconds.

Out of 294 nodes, 112 are proven
Number of node expansions: 107
Policy entries: 107
Number of sensing applications in policy: 0
