/h/167/acamacho/Experiments-ICAPS18-SynKit/L3/bigprob_80.compact.tlsf.unrealizability.sas parsed.
Heuristic: FF-heuristic.
Algorithm: LAO*-search
INITIAL IS PROVEN!

Result: Strong cyclic plan found.

Time needed for preprocess (Parsing, PDBs, ...):    0.248 seconds.
Time needed for search:                             0.43 seconds.
Time needed:                                        0.678 seconds.
Total Garbage Collections: 2
Total Garbage Collection Time: 0 seconds.

Out of 194 nodes, 120 are proven
Number of node expansions: 115
Policy entries: 115
Number of sensing applications in policy: 0
