/h/167/acamacho/Experiments-ICAPS18-SynKit/L3/bigprob_28.tlsf.unrealizability.sas parsed.
Heuristic: FF-heuristic.
Algorithm: LAO*-search
INITIAL IS PROVEN!

Result: Strong cyclic plan found.

Time needed for preprocess (Parsing, PDBs, ...):    0.593 seconds.
Time needed for search:                             1.405 seconds.
Time needed:                                        1.998 seconds.
Total Garbage Collections: 2
Total Garbage Collection Time: 0 seconds.

Out of 172 nodes, 94 are proven
Number of node expansions: 89
Policy entries: 89
Number of sensing applications in policy: 0
