/h/167/acamacho/Experiments-ICAPS18-SynKit/L3/bigprob_59.tlsf.unrealizability.sas parsed.
Heuristic: FF-heuristic.
Algorithm: LAO*-search
INITIAL IS PROVEN!

Result: Strong cyclic plan found.

Time needed for preprocess (Parsing, PDBs, ...):    0.374 seconds.
Time needed for search:                             12.423 seconds.
Time needed:                                        12.797 seconds.
Total Garbage Collections: 5
Total Garbage Collection Time: 0 seconds.

Out of 3225 nodes, 408 are proven
Number of node expansions: 1149
Policy entries: 264
Number of sensing applications in policy: 0
