/h/167/acamacho/Experiments-ICAPS18-SynKit/L3/bigprob_77.compact.tlsf.unrealizability.sas parsed.
Heuristic: FF-heuristic.
Algorithm: LAO*-search
INITIAL IS PROVEN!

Result: Strong cyclic plan found.

Time needed for preprocess (Parsing, PDBs, ...):    1.244 seconds.
Time needed for search:                             4.076 seconds.
Time needed:                                        5.32 seconds.
Total Garbage Collections: 2
Total Garbage Collection Time: 0 seconds.

Out of 693 nodes, 245 are proven
Number of node expansions: 539
Policy entries: 222
Number of sensing applications in policy: 0
