/h/167/acamacho/Experiments-ICAPS18-SynKit/L3/bigprob_10.compact.tlsf.unrealizability.sas parsed.
Heuristic: FF-heuristic.
Algorithm: LAO*-search
INITIAL IS PROVEN!

Result: Strong cyclic plan found.

Time needed for preprocess (Parsing, PDBs, ...):    0.392 seconds.
Time needed for search:                             0.816 seconds.
Time needed:                                        1.208 seconds.
Total Garbage Collections: 2
Total Garbage Collection Time: 0 seconds.

Out of 278 nodes, 218 are proven
Number of node expansions: 215
Policy entries: 215
Number of sensing applications in policy: 0
