/h/167/acamacho/Experiments-ICAPS18-SynKit/L3/bigprob_65.compact.tlsf.unrealizability.sas parsed.
Heuristic: FF-heuristic.
Algorithm: LAO*-search
INITIAL IS PROVEN!

Result: Strong cyclic plan found.

Time needed for preprocess (Parsing, PDBs, ...):    1.201 seconds.
Time needed for search:                             2.065 seconds.
Time needed:                                        3.266 seconds.
Total Garbage Collections: 2
Total Garbage Collection Time: 0 seconds.

Out of 290 nodes, 180 are proven
Number of node expansions: 177
Policy entries: 177
Number of sensing applications in policy: 0
