/h/167/acamacho/Experiments-ICAPS18-SynKit/L3/bigprob_5.tlsf.unrealizability.sas parsed.
Heuristic: FF-heuristic.
Algorithm: LAO*-search
INITIAL IS PROVEN!

Result: Strong cyclic plan found.

Time needed for preprocess (Parsing, PDBs, ...):    2.916 seconds.
Time needed for search:                             357.598 seconds.
Time needed:                                        360.514 seconds.
Total Garbage Collections: 11
Total Garbage Collection Time: 3 seconds.

Out of 6426 nodes, 825 are proven
Number of node expansions: 3920
Policy entries: 633
Number of sensing applications in policy: 0
