/h/167/acamacho/Experiments-ICAPS18-SynKit/L3/bigprob_41.compact.tlsf.unrealizability.sas parsed.
Heuristic: FF-heuristic.
Algorithm: LAO*-search
INITIAL IS PROVEN!

Result: Strong cyclic plan found.

Time needed for preprocess (Parsing, PDBs, ...):    0.455 seconds.
Time needed for search:                             0.93 seconds.
Time needed:                                        1.385 seconds.
Total Garbage Collections: 2
Total Garbage Collection Time: 0 seconds.

Out of 117 nodes, 39 are proven
Number of node expansions: 69
Policy entries: 36
Number of sensing applications in policy: 0
