/h/167/acamacho/Experiments-ICAPS18-SynKit/L3/bigprob_15.compact.tlsf.unrealizability.sas parsed.
Heuristic: FF-heuristic.
Algorithm: LAO*-search
INITIAL IS PROVEN!

Result: Strong cyclic plan found.

Time needed for preprocess (Parsing, PDBs, ...):    1.19 seconds.
Time needed for search:                             1.914 seconds.
Time needed:                                        3.104 seconds.
Total Garbage Collections: 2
Total Garbage Collection Time: 0 seconds.

Out of 275 nodes, 127 are proven
Number of node expansions: 187
Policy entries: 120
Number of sensing applications in policy: 0
