/h/167/acamacho/Experiments-ICAPS18-SynKit/L3/bigprob_62.tlsf.unrealizability.sas parsed.
Heuristic: FF-heuristic.
Algorithm: LAO*-search
INITIAL IS PROVEN!

Result: Strong cyclic plan found.

Time needed for preprocess (Parsing, PDBs, ...):    0.63 seconds.
Time needed for search:                             906.714 seconds.
Time needed:                                        907.344 seconds.
Total Garbage Collections: 14
Total Garbage Collection Time: 1 seconds.

Out of 9851 nodes, 1607 are proven
Number of node expansions: 6007
Policy entries: 718
Number of sensing applications in policy: 0
