/h/167/acamacho/Experiments-ICAPS18-SynKit/L3/bigprob_27.compact.tlsf.unrealizability.sas parsed.
Heuristic: FF-heuristic.
Algorithm: LAO*-search
INITIAL IS PROVEN!

Result: Strong cyclic plan found.

Time needed for preprocess (Parsing, PDBs, ...):    0.985 seconds.
Time needed for search:                             2.429 seconds.
Time needed:                                        3.414 seconds.
Total Garbage Collections: 2
Total Garbage Collection Time: 0 seconds.

Out of 344 nodes, 195 are proven
Number of node expansions: 189
Policy entries: 189
Number of sensing applications in policy: 0
