/h/167/acamacho/Experiments-ICAPS18-SynKit/L3/bigprob_48.compact.tlsf.unrealizability.sas parsed.
Heuristic: FF-heuristic.
Algorithm: LAO*-search
INITIAL IS PROVEN!

Result: Strong cyclic plan found.

Time needed for preprocess (Parsing, PDBs, ...):    0.327 seconds.
Time needed for search:                             0.543 seconds.
Time needed:                                        0.87 seconds.
Total Garbage Collections: 2
Total Garbage Collection Time: 0 seconds.

Out of 68 nodes, 45 are proven
Number of node expansions: 43
Policy entries: 43
Number of sensing applications in policy: 0
