/h/167/acamacho/Experiments-ICAPS18-SynKit/L3/bigprob_87.tlsf.unrealizability.sas parsed.
Heuristic: FF-heuristic.
Algorithm: LAO*-search
INITIAL IS PROVEN!

Result: Strong cyclic plan found.

Time needed for preprocess (Parsing, PDBs, ...):    0.409 seconds.
Time needed for search:                             79.893 seconds.
Time needed:                                        80.302 seconds.
Total Garbage Collections: 7
Total Garbage Collection Time: 0 seconds.

Out of 5443 nodes, 689 are proven
Number of node expansions: 2645
Policy entries: 549
Number of sensing applications in policy: 0
