/h/167/acamacho/Experiments-ICAPS18-SynKit/L3/bigprob_61.tlsf.unrealizability.sas parsed.
Heuristic: FF-heuristic.
Algorithm: LAO*-search
INITIAL IS PROVEN!

Result: Strong cyclic plan found.

Time needed for preprocess (Parsing, PDBs, ...):    0.905 seconds.
Time needed for search:                             5.44 seconds.
Time needed:                                        6.345 seconds.
Total Garbage Collections: 3
Total Garbage Collection Time: 0 seconds.

Out of 830 nodes, 134 are proven
Number of node expansions: 468
Policy entries: 87
Number of sensing applications in policy: 0
