/h/167/acamacho/Experiments-ICAPS18-SynKit/L3/bigprob_12.compact.tlsf.unrealizability.sas parsed.
Heuristic: FF-heuristic.
Algorithm: LAO*-search
INITIAL IS PROVEN!

Result: Strong cyclic plan found.

Time needed for preprocess (Parsing, PDBs, ...):    0.312 seconds.
Time needed for search:                             0.669 seconds.
Time needed:                                        0.981 seconds.
Total Garbage Collections: 2
Total Garbage Collection Time: 0 seconds.

Out of 122 nodes, 71 are proven
Number of node expansions: 90
Policy entries: 65
Number of sensing applications in policy: 0
