/h/167/acamacho/Experiments-ICAPS18-SynKit/L3/bigprob_70.compact.tlsf.unrealizability.sas parsed.
Heuristic: FF-heuristic.
Algorithm: LAO*-search
INITIAL IS PROVEN!

Result: Strong cyclic plan found.

Time needed for preprocess (Parsing, PDBs, ...):    0.291 seconds.
Time needed for search:                             0.847 seconds.
Time needed:                                        1.138 seconds.
Total Garbage Collections: 2
Total Garbage Collection Time: 0 seconds.

Out of 444 nodes, 293 are proven
Number of node expansions: 317
Policy entries: 281
Number of sensing applications in policy: 0
