/h/167/acamacho/Experiments-ICAPS18-SynKit/L3/bigprob_35.tlsf.unrealizability.sas parsed.
Heuristic: FF-heuristic.
Algorithm: LAO*-search
INITIAL IS PROVEN!

Result: Strong cyclic plan found.

Time needed for preprocess (Parsing, PDBs, ...):    0.806 seconds.
Time needed for search:                             308.745 seconds.
Time needed:                                        309.551 seconds.
Total Garbage Collections: 16
Total Garbage Collection Time: 1 seconds.

Out of 13850 nodes, 223 are proven
Number of node expansions: 8801
Policy entries: 135
Number of sensing applications in policy: 0
