/h/167/acamacho/Experiments-ICAPS18-SynKit/L5/bigprob_33.tlsf.unrealizability.sas parsed.
Heuristic: FF-heuristic.
Algorithm: LAO*-search
INITIAL IS PROVEN!

Result: Strong cyclic plan found.

Time needed for preprocess (Parsing, PDBs, ...):    0.419 seconds.
Time needed for search:                             64.401 seconds.
Time needed:                                        64.82 seconds.
Total Garbage Collections: 8
Total Garbage Collection Time: 0 seconds.

Out of 8144 nodes, 572 are proven
Number of node expansions: 1465
Policy entries: 486
Number of sensing applications in policy: 0
