/h/167/acamacho/Experiments-ICAPS18-SynKit/L5/bigprob_19.compact.tlsf.unrealizability.sas parsed.
Heuristic: FF-heuristic.
Algorithm: LAO*-search
INITIAL IS PROVEN!

Result: Strong cyclic plan found.

Time needed for preprocess (Parsing, PDBs, ...):    1.544 seconds.
Time needed for search:                             33.937 seconds.
Time needed:                                        35.481 seconds.
Total Garbage Collections: 5
Total Garbage Collection Time: 0 seconds.

Out of 1362 nodes, 497 are proven
Number of node expansions: 491
Policy entries: 491
Number of sensing applications in policy: 0
