/h/167/acamacho/Experiments-ICAPS18-SynKit/L5/bigprob_99.tlsf.unrealizability.sas parsed.
Heuristic: FF-heuristic.
Algorithm: LAO*-search
INITIAL IS PROVEN!

Result: Strong cyclic plan found.

Time needed for preprocess (Parsing, PDBs, ...):    0.905 seconds.
Time needed for search:                             1700.937 seconds.
Time needed:                                        1701.842 seconds.
Total Garbage Collections: 22
Total Garbage Collection Time: 10 seconds.

Out of 30504 nodes, 957 are proven
Number of node expansions: 3936
Policy entries: 697
Number of sensing applications in policy: 0
