/h/167/acamacho/Experiments-ICAPS18-SynKit/L5/bigprob_83.compact.tlsf.unrealizability.sas parsed.
Heuristic: FF-heuristic.
Algorithm: LAO*-search
INITIAL IS PROVEN!

Result: Strong cyclic plan found.

Time needed for preprocess (Parsing, PDBs, ...):    0.87 seconds.
Time needed for search:                             4.851 seconds.
Time needed:                                        5.721 seconds.
Total Garbage Collections: 2
Total Garbage Collection Time: 0 seconds.

Out of 564 nodes, 197 are proven
Number of node expansions: 281
Policy entries: 185
Number of sensing applications in policy: 0
