/h/167/acamacho/Experiments-ICAPS18-SynKit/L5/bigprob_97.compact.tlsf.unrealizability.sas parsed.
Heuristic: FF-heuristic.
Algorithm: LAO*-search
INITIAL IS PROVEN!

Result: Strong cyclic plan found.

Time needed for preprocess (Parsing, PDBs, ...):    0.986 seconds.
Time needed for search:                             15.043 seconds.
Time needed:                                        16.029 seconds.
Total Garbage Collections: 4
Total Garbage Collection Time: 0 seconds.

Out of 1213 nodes, 494 are proven
Number of node expansions: 857
Policy entries: 437
Number of sensing applications in policy: 0
