/h/167/acamacho/Experiments-ICAPS18-SynKit/L5/bigprob_70.compact.tlsf.unrealizability.sas parsed.
Heuristic: FF-heuristic.
Algorithm: LAO*-search
INITIAL IS PROVEN!

Result: Strong cyclic plan found.

Time needed for preprocess (Parsing, PDBs, ...):    1.213 seconds.
Time needed for search:                             3.167 seconds.
Time needed:                                        4.38 seconds.
Total Garbage Collections: 2
Total Garbage Collection Time: 0 seconds.

Out of 295 nodes, 226 are proven
Number of node expansions: 223
Policy entries: 223
Number of sensing applications in policy: 0
