/h/167/acamacho/Experiments-ICAPS18-SynKit/L5/bigprob_35.tlsf.unrealizability.sas parsed.
Heuristic: FF-heuristic.
Algorithm: LAO*-search
INITIAL IS PROVEN!

Result: Strong cyclic plan found.

Time needed for preprocess (Parsing, PDBs, ...):    0.89 seconds.
Time needed for search:                             758.292 seconds.
Time needed:                                        759.182 seconds.
Total Garbage Collections: 42
Total Garbage Collection Time: 5 seconds.

Out of 24615 nodes, 247 are proven
Number of node expansions: 16809
Policy entries: 161
Number of sensing applications in policy: 0
