/h/167/acamacho/Experiments-ICAPS18-SynKit/L5/bigprob_43.tlsf.unrealizability.sas parsed.
Heuristic: FF-heuristic.
Algorithm: LAO*-search
INITIAL IS PROVEN!

Result: Strong cyclic plan found.

Time needed for preprocess (Parsing, PDBs, ...):    0.589 seconds.
Time needed for search:                             138.077 seconds.
Time needed:                                        138.666 seconds.
Total Garbage Collections: 9
Total Garbage Collection Time: 1 seconds.

Out of 14283 nodes, 741 are proven
Number of node expansions: 2700
Policy entries: 569
Number of sensing applications in policy: 0
