/h/167/acamacho/Experiments-ICAPS18-SynKit/L5/bigprob_75.compact.tlsf.unrealizability.sas parsed.
Heuristic: FF-heuristic.
Algorithm: LAO*-search
INITIAL IS PROVEN!

Result: Strong cyclic plan found.

Time needed for preprocess (Parsing, PDBs, ...):    1.508 seconds.
Time needed for search:                             3.935 seconds.
Time needed:                                        5.443 seconds.
Total Garbage Collections: 2
Total Garbage Collection Time: 0 seconds.

Out of 286 nodes, 196 are proven
Number of node expansions: 190
Policy entries: 190
Number of sensing applications in policy: 0
