/h/167/acamacho/Experiments-ICAPS18-SynKit/L5/bigprob_78.compact.tlsf.unrealizability.sas parsed.
Heuristic: FF-heuristic.
Algorithm: LAO*-search
INITIAL IS PROVEN!

Result: Strong cyclic plan found.

Time needed for preprocess (Parsing, PDBs, ...):    0.895 seconds.
Time needed for search:                             2.852 seconds.
Time needed:                                        3.747 seconds.
Total Garbage Collections: 2
Total Garbage Collection Time: 0 seconds.

Out of 343 nodes, 145 are proven
Number of node expansions: 143
Policy entries: 143
Number of sensing applications in policy: 0
