/h/167/acamacho/Experiments-ICAPS18-SynKit/L5/bigprob_61.tlsf.unrealizability.sas parsed.
Heuristic: FF-heuristic.
Algorithm: LAO*-search
INITIAL IS PROVEN!

Result: Strong cyclic plan found.

Time needed for preprocess (Parsing, PDBs, ...):    1.359 seconds.
Time needed for search:                             396.959 seconds.
Time needed:                                        398.318 seconds.
Total Garbage Collections: 18
Total Garbage Collection Time: 9 seconds.

Out of 13994 nodes, 876 are proven
Number of node expansions: 3235
Policy entries: 541
Number of sensing applications in policy: 0
