/h/167/acamacho/Experiments-ICAPS18-SynKit/L5/bigprob_28.tlsf.unrealizability.sas parsed.
Heuristic: FF-heuristic.
Algorithm: LAO*-search
INITIAL IS PROVEN!

Result: Strong cyclic plan found.

Time needed for preprocess (Parsing, PDBs, ...):    0.89 seconds.
Time needed for search:                             15.452 seconds.
Time needed:                                        16.342 seconds.
Total Garbage Collections: 5
Total Garbage Collection Time: 0 seconds.

Out of 2443 nodes, 390 are proven
Number of node expansions: 385
Policy entries: 385
Number of sensing applications in policy: 0
