/h/167/acamacho/Experiments-ICAPS18-SynKit/L5/bigprob_57.compact.tlsf.unrealizability.sas parsed.
Heuristic: FF-heuristic.
Algorithm: LAO*-search
INITIAL IS PROVEN!

Result: Strong cyclic plan found.

Time needed for preprocess (Parsing, PDBs, ...):    1.658 seconds.
Time needed for search:                             25.34 seconds.
Time needed:                                        26.998 seconds.
Total Garbage Collections: 3
Total Garbage Collection Time: 0 seconds.

Out of 1067 nodes, 468 are proven
Number of node expansions: 462
Policy entries: 462
Number of sensing applications in policy: 0
