/h/167/acamacho/Experiments-ICAPS18-SynKit/L5/bigprob_87.tlsf.unrealizability.sas parsed.
Heuristic: FF-heuristic.
Algorithm: LAO*-search
INITIAL IS PROVEN!

Result: Strong cyclic plan found.

Time needed for preprocess (Parsing, PDBs, ...):    0.613 seconds.
Time needed for search:                             78.016 seconds.
Time needed:                                        78.629 seconds.
Total Garbage Collections: 9
Total Garbage Collection Time: 1 seconds.

Out of 12480 nodes, 507 are proven
Number of node expansions: 1845
Policy entries: 368
Number of sensing applications in policy: 0
