/h/167/acamacho/Experiments-ICAPS18-SynKit/L5/bigprob_16.tlsf.unrealizability.sas parsed.
Heuristic: FF-heuristic.
Algorithm: LAO*-search
INITIAL IS PROVEN!

Result: Strong cyclic plan found.

Time needed for preprocess (Parsing, PDBs, ...):    0.9 seconds.
Time needed for search:                             723.614 seconds.
Time needed:                                        724.514 seconds.
Total Garbage Collections: 11
Total Garbage Collection Time: 1 seconds.

Out of 8819 nodes, 1093 are proven
Number of node expansions: 2983
Policy entries: 908
Number of sensing applications in policy: 0
