/h/167/acamacho/Experiments-ICAPS18-SynKit/L5/bigprob_69.compact.tlsf.unrealizability.sas parsed.
Heuristic: FF-heuristic.
Algorithm: LAO*-search
INITIAL IS PROVEN!

Result: Strong cyclic plan found.

Time needed for preprocess (Parsing, PDBs, ...):    0.535 seconds.
Time needed for search:                             2.827 seconds.
Time needed:                                        3.362 seconds.
Total Garbage Collections: 2
Total Garbage Collection Time: 0 seconds.

Out of 1261 nodes, 538 are proven
Number of node expansions: 535
Policy entries: 535
Number of sensing applications in policy: 0
