/h/167/acamacho/Experiments-ICAPS18-SynKit/L5/bigprob_47.tlsf.unrealizability.sas parsed.
Heuristic: FF-heuristic.
Algorithm: LAO*-search
INITIAL IS PROVEN!

Result: Strong cyclic plan found.

Time needed for preprocess (Parsing, PDBs, ...):    1.254 seconds.
Time needed for search:                             562.698 seconds.
Time needed:                                        563.952 seconds.
Total Garbage Collections: 13
Total Garbage Collection Time: 2 seconds.

Out of 7584 nodes, 485 are proven
Number of node expansions: 1687
Policy entries: 360
Number of sensing applications in policy: 0
