/h/167/acamacho/Experiments-ICAPS18-SynKit/L5/bigprob_28.compact.tlsf.unrealizability.sas parsed.
Heuristic: FF-heuristic.
Algorithm: LAO*-search
INITIAL IS PROVEN!

Result: Strong cyclic plan found.

Time needed for preprocess (Parsing, PDBs, ...):    0.644 seconds.
Time needed for search:                             4.48 seconds.
Time needed:                                        5.124 seconds.
Total Garbage Collections: 3
Total Garbage Collection Time: 0 seconds.

Out of 694 nodes, 343 are proven
Number of node expansions: 337
Policy entries: 337
Number of sensing applications in policy: 0
