/h/167/acamacho/Experiments-ICAPS18-SynKit/L5/bigprob_18.tlsf.unrealizability.sas parsed.
Heuristic: FF-heuristic.
Algorithm: LAO*-search
INITIAL IS PROVEN!

Result: Strong cyclic plan found.

Time needed for preprocess (Parsing, PDBs, ...):    0.863 seconds.
Time needed for search:                             13.26 seconds.
Time needed:                                        14.123 seconds.
Total Garbage Collections: 4
Total Garbage Collection Time: 0 seconds.

Out of 2081 nodes, 314 are proven
Number of node expansions: 309
Policy entries: 309
Number of sensing applications in policy: 0
