/h/167/acamacho/Experiments-ICAPS18-SynKit/L5/bigprob_34.tlsf.unrealizability.sas parsed.
Heuristic: FF-heuristic.
Algorithm: LAO*-search
INITIAL IS PROVEN!

Result: Strong cyclic plan found.

Time needed for preprocess (Parsing, PDBs, ...):    0.813 seconds.
Time needed for search:                             1131.931 seconds.
Time needed:                                        1132.744 seconds.
Total Garbage Collections: 20
Total Garbage Collection Time: 2 seconds.

Out of 12346 nodes, 1450 are proven
Number of node expansions: 4776
Policy entries: 882
Number of sensing applications in policy: 0
