/h/167/acamacho/Experiments-ICAPS18-SynKit/L5/bigprob_46.compact.tlsf.unrealizability.sas parsed.
Heuristic: FF-heuristic.
Algorithm: LAO*-search
INITIAL IS PROVEN!

Result: Strong cyclic plan found.

Time needed for preprocess (Parsing, PDBs, ...):    0.801 seconds.
Time needed for search:                             1.739 seconds.
Time needed:                                        2.54 seconds.
Total Garbage Collections: 2
Total Garbage Collection Time: 0 seconds.

Out of 429 nodes, 225 are proven
Number of node expansions: 219
Policy entries: 219
Number of sensing applications in policy: 0
