/h/167/acamacho/Experiments-ICAPS18-SynKit/L5/bigprob_8.compact.tlsf.unrealizability.sas parsed.
Heuristic: FF-heuristic.
Algorithm: LAO*-search
INITIAL IS PROVEN!

Result: Strong cyclic plan found.

Time needed for preprocess (Parsing, PDBs, ...):    0.705 seconds.
Time needed for search:                             2.229 seconds.
Time needed:                                        2.934 seconds.
Total Garbage Collections: 2
Total Garbage Collection Time: 0 seconds.

Out of 401 nodes, 187 are proven
Number of node expansions: 183
Policy entries: 183
Number of sensing applications in policy: 0
