/h/167/acamacho/Experiments-ICAPS18-SynKit/L5/bigprob_12.tlsf.unrealizability.sas parsed.
Heuristic: FF-heuristic.
Algorithm: LAO*-search
INITIAL IS PROVEN!

Result: Strong cyclic plan found.

Time needed for preprocess (Parsing, PDBs, ...):    0.297 seconds.
Time needed for search:                             5.764 seconds.
Time needed:                                        6.061 seconds.
Total Garbage Collections: 3
Total Garbage Collection Time: 0 seconds.

Out of 1835 nodes, 328 are proven
Number of node expansions: 323
Policy entries: 323
Number of sensing applications in policy: 0
