/h/167/acamacho/Experiments-ICAPS18-SynKit/L5/bigprob_59.tlsf.unrealizability.sas parsed.
Heuristic: FF-heuristic.
Algorithm: LAO*-search
INITIAL IS PROVEN!

Result: Strong cyclic plan found.

Time needed for preprocess (Parsing, PDBs, ...):    1.297 seconds.
Time needed for search:                             56.981 seconds.
Time needed:                                        58.278 seconds.
Total Garbage Collections: 7
Total Garbage Collection Time: 1 seconds.

Out of 4211 nodes, 625 are proven
Number of node expansions: 1010
Policy entries: 596
Number of sensing applications in policy: 0
