/h/167/acamacho/Experiments-ICAPS18-SynKit/L5/bigprob_65.compact.tlsf.unrealizability.sas parsed.
Heuristic: FF-heuristic.
Algorithm: LAO*-search
INITIAL IS PROVEN!

Result: Strong cyclic plan found.

Time needed for preprocess (Parsing, PDBs, ...):    0.958 seconds.
Time needed for search:                             1.934 seconds.
Time needed:                                        2.892 seconds.
Total Garbage Collections: 2
Total Garbage Collection Time: 0 seconds.

Out of 259 nodes, 165 are proven
Number of node expansions: 159
Policy entries: 159
Number of sensing applications in policy: 0
