/h/167/acamacho/Experiments-ICAPS18-SynKit/L5/bigprob_75.tlsf.unrealizability.sas parsed.
Heuristic: FF-heuristic.
Algorithm: LAO*-search
INITIAL IS PROVEN!

Result: Strong cyclic plan found.

Time needed for preprocess (Parsing, PDBs, ...):    1.407 seconds.
Time needed for search:                             7.82 seconds.
Time needed:                                        9.227 seconds.
Total Garbage Collections: 3
Total Garbage Collection Time: 0 seconds.

Out of 589 nodes, 182 are proven
Number of node expansions: 177
Policy entries: 177
Number of sensing applications in policy: 0
