/h/167/acamacho/Experiments-ICAPS18-SynKit/L5/bigprob_68.tlsf.unrealizability.sas parsed.
Heuristic: FF-heuristic.
Algorithm: LAO*-search
INITIAL IS PROVEN!

Result: Strong cyclic plan found.

Time needed for preprocess (Parsing, PDBs, ...):    1.567 seconds.
Time needed for search:                             1773.476 seconds.
Time needed:                                        1775.043 seconds.
Total Garbage Collections: 22
Total Garbage Collection Time: 3 seconds.

Out of 11403 nodes, 1089 are proven
Number of node expansions: 3848
Policy entries: 738
Number of sensing applications in policy: 0
