/h/167/acamacho/Experiments-ICAPS18-SynKit/L5/bigprob_81.compact.tlsf.unrealizability.sas parsed.
Heuristic: FF-heuristic.
Algorithm: LAO*-search
INITIAL IS PROVEN!

Result: Strong cyclic plan found.

Time needed for preprocess (Parsing, PDBs, ...):    0.922 seconds.
Time needed for search:                             9.068 seconds.
Time needed:                                        9.99 seconds.
Total Garbage Collections: 4
Total Garbage Collection Time: 0 seconds.

Out of 1065 nodes, 513 are proven
Number of node expansions: 625
Policy entries: 473
Number of sensing applications in policy: 0
