/h/167/acamacho/Experiments-ICAPS18-SynKit/L5/bigprob_10.compact.tlsf.unrealizability.sas parsed.
Heuristic: FF-heuristic.
Algorithm: LAO*-search
INITIAL IS PROVEN!

Result: Strong cyclic plan found.

Time needed for preprocess (Parsing, PDBs, ...):    0.961 seconds.
Time needed for search:                             4.906 seconds.
Time needed:                                        5.867 seconds.
Total Garbage Collections: 2
Total Garbage Collection Time: 0 seconds.

Out of 480 nodes, 202 are proven
Number of node expansions: 199
Policy entries: 199
Number of sensing applications in policy: 0
