/h/167/acamacho/Experiments-ICAPS18-SynKit/L5/bigprob_40.tlsf.unrealizability.sas parsed.
Heuristic: FF-heuristic.
Algorithm: LAO*-search
INITIAL IS PROVEN!

Result: Strong cyclic plan found.

Time needed for preprocess (Parsing, PDBs, ...):    1.379 seconds.
Time needed for search:                             1247.907 seconds.
Time needed:                                        1249.286 seconds.
Total Garbage Collections: 36
Total Garbage Collection Time: 10 seconds.

Out of 25871 nodes, 1489 are proven
Number of node expansions: 5319
Policy entries: 1064
Number of sensing applications in policy: 0
