/h/167/acamacho/Experiments-ICAPS18-SynKit/L5/bigprob_52.tlsf.unrealizability.sas parsed.
Heuristic: FF-heuristic.
Algorithm: LAO*-search
INITIAL IS PROVEN!

Result: Strong cyclic plan found.

Time needed for preprocess (Parsing, PDBs, ...):    0.54 seconds.
Time needed for search:                             2386.789 seconds.
Time needed:                                        2387.329 seconds.
Total Garbage Collections: 56
Total Garbage Collection Time: 4 seconds.

Out of 22308 nodes, 1560 are proven
Number of node expansions: 6300
Policy entries: 1148
Number of sensing applications in policy: 0
