/h/167/acamacho/Experiments-ICAPS18-SynKit/L5/bigprob_6.compact.tlsf.unrealizability.sas parsed.
Heuristic: FF-heuristic.
Algorithm: LAO*-search
INITIAL IS PROVEN!

Result: Strong cyclic plan found.

Time needed for preprocess (Parsing, PDBs, ...):    1.017 seconds.
Time needed for search:                             42.418 seconds.
Time needed:                                        43.435 seconds.
Total Garbage Collections: 6
Total Garbage Collection Time: 0 seconds.

Out of 3956 nodes, 1204 are proven
Number of node expansions: 2691
Policy entries: 924
Number of sensing applications in policy: 0
