/h/167/acamacho/Experiments-ICAPS18-SynKit/L5/bigprob_47.compact.tlsf.unrealizability.sas parsed.
Heuristic: FF-heuristic.
Algorithm: LAO*-search
INITIAL IS PROVEN!

Result: Strong cyclic plan found.

Time needed for preprocess (Parsing, PDBs, ...):    1.444 seconds.
Time needed for search:                             10.448 seconds.
Time needed:                                        11.892 seconds.
Total Garbage Collections: 3
Total Garbage Collection Time: 0 seconds.

Out of 529 nodes, 246 are proven
Number of node expansions: 240
Policy entries: 240
Number of sensing applications in policy: 0
