/h/167/acamacho/Experiments-ICAPS18-SynKit/L5/bigprob_21.tlsf.unrealizability.sas parsed.
Heuristic: FF-heuristic.
Algorithm: LAO*-search
INITIAL IS PROVEN!

Result: Strong cyclic plan found.

Time needed for preprocess (Parsing, PDBs, ...):    3.419 seconds.
Time needed for search:                             338.774 seconds.
Time needed:                                        342.193 seconds.
Total Garbage Collections: 10
Total Garbage Collection Time: 3 seconds.

Out of 6099 nodes, 559 are proven
Number of node expansions: 2013
Policy entries: 403
Number of sensing applications in policy: 0
