/h/167/acamacho/Experiments-ICAPS18-SynKit/L5/bigprob_59.compact.tlsf.unrealizability.sas parsed.
Heuristic: FF-heuristic.
Algorithm: LAO*-search
INITIAL IS PROVEN!

Result: Strong cyclic plan found.

Time needed for preprocess (Parsing, PDBs, ...):    1.021 seconds.
Time needed for search:                             22.307 seconds.
Time needed:                                        23.328 seconds.
Total Garbage Collections: 5
Total Garbage Collection Time: 0 seconds.

Out of 1840 nodes, 674 are proven
Number of node expansions: 892
Policy entries: 650
Number of sensing applications in policy: 0
