/h/167/acamacho/Experiments-ICAPS18-SynKit/L5/bigprob_23.tlsf.unrealizability.sas parsed.
Heuristic: FF-heuristic.
Algorithm: LAO*-search
INITIAL IS PROVEN!

Result: Strong cyclic plan found.

Time needed for preprocess (Parsing, PDBs, ...):    1.646 seconds.
Time needed for search:                             43.013 seconds.
Time needed:                                        44.659 seconds.
Total Garbage Collections: 5
Total Garbage Collection Time: 1 seconds.

Out of 2493 nodes, 459 are proven
Number of node expansions: 495
Policy entries: 446
Number of sensing applications in policy: 0
