/h/167/acamacho/Experiments-ICAPS18-SynKit/L5/bigprob_40.compact.tlsf.unrealizability.sas parsed.
Heuristic: FF-heuristic.
Algorithm: LAO*-search
INITIAL IS PROVEN!

Result: Strong cyclic plan found.

Time needed for preprocess (Parsing, PDBs, ...):    1.381 seconds.
Time needed for search:                             6.892 seconds.
Time needed:                                        8.273 seconds.
Total Garbage Collections: 2
Total Garbage Collection Time: 0 seconds.

Out of 662 nodes, 288 are proven
Number of node expansions: 285
Policy entries: 285
Number of sensing applications in policy: 0
