/h/167/acamacho/Experiments-ICAPS18-SynKit/L5/bigprob_95.compact.tlsf.unrealizability.sas parsed.
Heuristic: FF-heuristic.
Algorithm: LAO*-search
INITIAL IS PROVEN!

Result: Strong cyclic plan found.

Time needed for preprocess (Parsing, PDBs, ...):    0.721 seconds.
Time needed for search:                             1.982 seconds.
Time needed:                                        2.703 seconds.
Total Garbage Collections: 2
Total Garbage Collection Time: 0 seconds.

Out of 158 nodes, 76 are proven
Number of node expansions: 74
Policy entries: 74
Number of sensing applications in policy: 0
