/h/167/acamacho/Experiments-ICAPS18-SynKit/L5/bigprob_13.tlsf.unrealizability.sas parsed.
Heuristic: FF-heuristic.
Algorithm: LAO*-search
INITIAL IS PROVEN!

Result: Strong cyclic plan found.

Time needed for preprocess (Parsing, PDBs, ...):    3.028 seconds.
Time needed for search:                             186.212 seconds.
Time needed:                                        189.24 seconds.
Total Garbage Collections: 7
Total Garbage Collection Time: 3 seconds.

Out of 5588 nodes, 416 are proven
Number of node expansions: 860
Policy entries: 379
Number of sensing applications in policy: 0
