/h/167/acamacho/Experiments-ICAPS18-SynKit/L5/bigprob_32.compact.tlsf.unrealizability.sas parsed.
Heuristic: FF-heuristic.
Algorithm: LAO*-search
INITIAL IS PROVEN!

Result: Strong cyclic plan found.

Time needed for preprocess (Parsing, PDBs, ...):    0.715 seconds.
Time needed for search:                             3.279 seconds.
Time needed:                                        3.994 seconds.
Total Garbage Collections: 2
Total Garbage Collection Time: 0 seconds.

Out of 269 nodes, 176 are proven
Number of node expansions: 170
Policy entries: 170
Number of sensing applications in policy: 0
