/h/167/acamacho/Experiments-ICAPS18-SynKit/L5/bigprob_67.compact.tlsf.unrealizability.sas parsed.
Heuristic: FF-heuristic.
Algorithm: LAO*-search
INITIAL IS PROVEN!

Result: Strong cyclic plan found.

Time needed for preprocess (Parsing, PDBs, ...):    1.129 seconds.
Time needed for search:                             1.71 seconds.
Time needed:                                        2.839 seconds.
Total Garbage Collections: 2
Total Garbage Collection Time: 0 seconds.

Out of 122 nodes, 73 are proven
Number of node expansions: 71
Policy entries: 71
Number of sensing applications in policy: 0
