/h/167/acamacho/Experiments-ICAPS18-SynKit/L5/bigprob_78.tlsf.unrealizability.sas parsed.
Heuristic: FF-heuristic.
Algorithm: LAO*-search
INITIAL IS PROVEN!

Result: Strong cyclic plan found.

Time needed for preprocess (Parsing, PDBs, ...):    0.743 seconds.
Time needed for search:                             13.485 seconds.
Time needed:                                        14.228 seconds.
Total Garbage Collections: 4
Total Garbage Collection Time: 0 seconds.

Out of 1898 nodes, 271 are proven
Number of node expansions: 268
Policy entries: 268
Number of sensing applications in policy: 0
