/h/167/acamacho/Experiments-ICAPS18-SynKit/L6/bigprob_39.compact.tlsf.realizability.sas parsed.
Heuristic: FF-heuristic.
Algorithm: AO*-search
The protagonist does not have a winning strategy.
INITIAL IS DISPROVEN!

Result: No strong plan found.

Time needed for preprocess (Parsing, PDBs, ...):    0.798 seconds.
Time needed for search:                             4.565 seconds.
Time needed:                                        5.363 seconds.
Total Garbage Collections: 2
Total Garbage Collection Time: 0 seconds.

