/h/167/acamacho/Experiments-ICAPS18-SynKit/L4/bigprob_98.tlsf.realizability.sas parsed.
Heuristic: FF-heuristic.
Algorithm: AO*-search
The protagonist does not have a winning strategy.
INITIAL IS DISPROVEN!

Result: No strong plan found.

Time needed for preprocess (Parsing, PDBs, ...):    0.565 seconds.
Time needed for search:                             520.469 seconds.
Time needed:                                        521.034 seconds.
Total Garbage Collections: 25
Total Garbage Collection Time: 26 seconds.

