/h/167/acamacho/Experiments-ICAPS18-SynKit/L4/bigprob_53.compact.tlsf.realizability.sas parsed.
Heuristic: FF-heuristic.
Algorithm: AO*-search
The protagonist does not have a winning strategy.
INITIAL IS DISPROVEN!

Result: No strong plan found.

Time needed for preprocess (Parsing, PDBs, ...):    4.244 seconds.
Time needed for search:                             2.17 seconds.
Time needed:                                        6.414 seconds.
Total Garbage Collections: 3
Total Garbage Collection Time: 2 seconds.

