/h/167/acamacho/Experiments-ICAPS18-SynKit/L4/bigprob_26.tlsf.realizability.sas parsed.
Heuristic: FF-heuristic.
Algorithm: AO*-search
The protagonist does not have a winning strategy.
INITIAL IS DISPROVEN!

Result: No strong plan found.

Time needed for preprocess (Parsing, PDBs, ...):    0.988 seconds.
Time needed for search:                             338.168 seconds.
Time needed:                                        339.156 seconds.
Total Garbage Collections: 29
Total Garbage Collection Time: 36 seconds.

