/h/167/acamacho/Experiments-ICAPS18-SynKit/L4/bigprob_56.compact.tlsf.realizability.sas parsed.
Heuristic: FF-heuristic.
Algorithm: AO*-search
The protagonist does not have a winning strategy.
INITIAL IS DISPROVEN!

Result: No strong plan found.

Time needed for preprocess (Parsing, PDBs, ...):    0.629 seconds.
Time needed for search:                             1216.294 seconds.
Time needed:                                        1216.923 seconds.
Total Garbage Collections: 36
Total Garbage Collection Time: 14 seconds.

