/h/167/acamacho/Experiments-ICAPS18-SynKit/L4/bigprob_74.compact.tlsf.realizability.sas parsed.
Heuristic: FF-heuristic.
Algorithm: AO*-search
The protagonist does not have a winning strategy.
INITIAL IS DISPROVEN!

Result: No strong plan found.

Time needed for preprocess (Parsing, PDBs, ...):    1.063 seconds.
Time needed for search:                             156.317 seconds.
Time needed:                                        157.38 seconds.
Total Garbage Collections: 10
Total Garbage Collection Time: 1 seconds.

