/h/167/acamacho/Experiments-ICAPS18-SynKit/L4/bigprob_41.compact.tlsf.realizability.sas parsed.
Heuristic: FF-heuristic.
Algorithm: AO*-search
The protagonist does not have a winning strategy.
INITIAL IS DISPROVEN!

Result: No strong plan found.

Time needed for preprocess (Parsing, PDBs, ...):    0.834 seconds.
Time needed for search:                             839.586 seconds.
Time needed:                                        840.42 seconds.
Total Garbage Collections: 18
Total Garbage Collection Time: 2 seconds.

