/h/167/acamacho/Experiments-ICAPS18-SynKit/L4/bigprob_33.compact.tlsf.realizability.sas parsed.
Heuristic: FF-heuristic.
Algorithm: AO*-search
The protagonist does not have a winning strategy.
INITIAL IS DISPROVEN!

Result: No strong plan found.

Time needed for preprocess (Parsing, PDBs, ...):    1.347 seconds.
Time needed for search:                             0.738 seconds.
Time needed:                                        2.085 seconds.
Total Garbage Collections: 2
Total Garbage Collection Time: 0 seconds.

