/h/167/acamacho/Experiments-ICAPS18-SynKit/L4/bigprob_59.compact.tlsf.realizability.sas parsed.
Heuristic: FF-heuristic.
Algorithm: AO*-search
The protagonist has got a winning strategy.
INITIAL IS PROVEN!

Result: Strong plan found.

Time needed for preprocess (Parsing, PDBs, ...):    0.376 seconds.
Time needed for search:                             0.626 seconds.
Time needed:                                        1.002 seconds.
Total Garbage Collections: 2
Total Garbage Collection Time: 0 seconds.

Out of 180 nodes, 62 are proven
Number of node expansions: 54
Policy entries: 54
Number of sensing applications in policy: 0
