/h/167/acamacho/Experiments-ICAPS18-SynKit/L4/bigprob_40.compact.tlsf.realizability.sas parsed.
Heuristic: FF-heuristic.
Algorithm: AO*-search
The protagonist does not have a winning strategy.
INITIAL IS DISPROVEN!

Result: No strong plan found.

Time needed for preprocess (Parsing, PDBs, ...):    0.602 seconds.
Time needed for search:                             229.589 seconds.
Time needed:                                        230.191 seconds.
Total Garbage Collections: 8
Total Garbage Collection Time: 1 seconds.

