/h/167/acamacho/Experiments-ICAPS18-SynKit/L3/bigprob_32.tlsf.realizability.sas parsed.
Heuristic: FF-heuristic.
Algorithm: AO*-search
The protagonist does not have a winning strategy.
INITIAL IS DISPROVEN!

Result: No strong plan found.

Time needed for preprocess (Parsing, PDBs, ...):    0.479 seconds.
Time needed for search:                             528.863 seconds.
Time needed:                                        529.342 seconds.
Total Garbage Collections: 52
Total Garbage Collection Time: 28 seconds.

