/h/167/acamacho/Experiments-ICAPS18-SynKit/L3/bigprob_6.tlsf.realizability.sas parsed.
Heuristic: FF-heuristic.
Algorithm: AO*-search
The protagonist has got a winning strategy.
INITIAL IS PROVEN!

Result: Strong plan found.

Time needed for preprocess (Parsing, PDBs, ...):    0.617 seconds.
Time needed for search:                             0.595 seconds.
Time needed:                                        1.212 seconds.
Total Garbage Collections: 2
Total Garbage Collection Time: 0 seconds.

Out of 171 nodes, 58 are proven
Number of node expansions: 50
Policy entries: 50
Number of sensing applications in policy: 0
