/h/167/acamacho/Experiments-ICAPS18-SynKit/L3/bigprob_48.tlsf.realizability.sas parsed.
Heuristic: FF-heuristic.
Algorithm: AO*-search
The protagonist does not have a winning strategy.
INITIAL IS DISPROVEN!

Result: No strong plan found.

Time needed for preprocess (Parsing, PDBs, ...):    0.25 seconds.
Time needed for search:                             65.585 seconds.
Time needed:                                        65.835 seconds.
Total Garbage Collections: 13
Total Garbage Collection Time: 2 seconds.

