/h/167/acamacho/Experiments-ICAPS18-SynKit/L3/bigprob_10.compact.tlsf.realizability.sas parsed.
Heuristic: FF-heuristic.
Algorithm: AO*-search
The protagonist does not have a winning strategy.
INITIAL IS DISPROVEN!

Result: No strong plan found.

Time needed for preprocess (Parsing, PDBs, ...):    0.557 seconds.
Time needed for search:                             8.648 seconds.
Time needed:                                        9.205 seconds.
Total Garbage Collections: 3
Total Garbage Collection Time: 0 seconds.

