/h/167/acamacho/Experiments-ICAPS18-SynKit/L3/bigprob_1.compact.tlsf.realizability.sas parsed.
Heuristic: FF-heuristic.
Algorithm: AO*-search
The protagonist does not have a winning strategy.
INITIAL IS DISPROVEN!

Result: No strong plan found.

Time needed for preprocess (Parsing, PDBs, ...):    1.097 seconds.
Time needed for search:                             201.802 seconds.
Time needed:                                        202.899 seconds.
Total Garbage Collections: 9
Total Garbage Collection Time: 1 seconds.

