/h/167/acamacho/Experiments-ICAPS18-SynKit/L3/bigprob_85.compact.tlsf.realizability.sas parsed.
Heuristic: FF-heuristic.
Algorithm: AO*-search
The protagonist has got a winning strategy.
INITIAL IS PROVEN!

Result: Strong plan found.

Time needed for preprocess (Parsing, PDBs, ...):    0.072 seconds.
Time needed for search:                             0.092 seconds.
Time needed:                                        0.164 seconds.
Total Garbage Collections: 2
Total Garbage Collection Time: 0 seconds.

Out of 37 nodes, 24 are proven
Number of node expansions: 23
Policy entries: 23
Number of sensing applications in policy: 0
