/h/167/acamacho/Experiments-ICAPS18-SynKit/L3/bigprob_93.tlsf.realizability.sas parsed.
Heuristic: FF-heuristic.
Algorithm: AO*-search
The protagonist does not have a winning strategy.
INITIAL IS DISPROVEN!

Result: No strong plan found.

Time needed for preprocess (Parsing, PDBs, ...):    0.77 seconds.
Time needed for search:                             83.155 seconds.
Time needed:                                        83.925 seconds.
Total Garbage Collections: 10
Total Garbage Collection Time: 1 seconds.

