/h/167/acamacho/Experiments-ICAPS18-SynKit/L3/bigprob_97.tlsf.realizability.sas parsed.
Heuristic: FF-heuristic.
Algorithm: AO*-search
The protagonist does not have a winning strategy.
INITIAL IS DISPROVEN!

Result: No strong plan found.

Time needed for preprocess (Parsing, PDBs, ...):    0.235 seconds.
Time needed for search:                             277.486 seconds.
Time needed:                                        277.721 seconds.
Total Garbage Collections: 22
Total Garbage Collection Time: 15 seconds.

