/h/167/acamacho/Experiments-ICAPS18-SynKit/L3/bigprob_69.tlsf.realizability.sas parsed.
Heuristic: FF-heuristic.
Algorithm: AO*-search
The protagonist has got a winning strategy.
INITIAL IS PROVEN!

Result: Strong plan found.

Time needed for preprocess (Parsing, PDBs, ...):    0.964 seconds.
Time needed for search:                             3.152 seconds.
Time needed:                                        4.116 seconds.
Total Garbage Collections: 2
Total Garbage Collection Time: 0 seconds.

Out of 560 nodes, 123 are proven
Number of node expansions: 121
Policy entries: 121
Number of sensing applications in policy: 0
