/h/167/acamacho/Experiments-ICAPS18-SynKit/L3/bigprob_73.compact.tlsf.realizability.sas parsed.
Heuristic: FF-heuristic.
Algorithm: AO*-search
The protagonist does not have a winning strategy.
INITIAL IS DISPROVEN!

Result: No strong plan found.

Time needed for preprocess (Parsing, PDBs, ...):    0.272 seconds.
Time needed for search:                             2.161 seconds.
Time needed:                                        2.433 seconds.
Total Garbage Collections: 2
Total Garbage Collection Time: 0 seconds.

