/h/167/acamacho/Experiments-ICAPS18-SynKit/L3/bigprob_0.tlsf.realizability.sas parsed.
Heuristic: FF-heuristic.
Algorithm: AO*-search
The protagonist does not have a winning strategy.
INITIAL IS DISPROVEN!

Result: No strong plan found.

Time needed for preprocess (Parsing, PDBs, ...):    0.345 seconds.
Time needed for search:                             46.696 seconds.
Time needed:                                        47.041 seconds.
Total Garbage Collections: 8
Total Garbage Collection Time: 1 seconds.

