/h/167/acamacho/Experiments-ICAPS18-SynKit/L3/bigprob_61.compact.tlsf.realizability.sas parsed.
Heuristic: FF-heuristic.
Algorithm: AO*-search
The protagonist does not have a winning strategy.
INITIAL IS DISPROVEN!

Result: No strong plan found.

Time needed for preprocess (Parsing, PDBs, ...):    0.839 seconds.
Time needed for search:                             694.326 seconds.
Time needed:                                        695.165 seconds.
Total Garbage Collections: 39
Total Garbage Collection Time: 32 seconds.

