/h/167/acamacho/Experiments-ICAPS18-SynKit/L3/bigprob_27.tlsf.realizability.sas parsed.
Heuristic: FF-heuristic.
Algorithm: AO*-search
The protagonist does not have a winning strategy.
INITIAL IS DISPROVEN!

Result: No strong plan found.

Time needed for preprocess (Parsing, PDBs, ...):    0.502 seconds.
Time needed for search:                             11.636 seconds.
Time needed:                                        12.138 seconds.
Total Garbage Collections: 4
Total Garbage Collection Time: 0 seconds.

