/h/167/acamacho/Experiments-ICAPS18-SynKit/L3/bigprob_74.compact.tlsf.realizability.sas parsed.
Heuristic: FF-heuristic.
Algorithm: AO*-search
The protagonist does not have a winning strategy.
INITIAL IS DISPROVEN!

Result: No strong plan found.

Time needed for preprocess (Parsing, PDBs, ...):    0.888 seconds.
Time needed for search:                             540.935 seconds.
Time needed:                                        541.823 seconds.
Total Garbage Collections: 19
Total Garbage Collection Time: 4 seconds.

