/h/167/acamacho/Experiments-ICAPS18-SynKit/L3/bigprob_73.tlsf.realizability.sas parsed.
Heuristic: FF-heuristic.
Algorithm: AO*-search
The protagonist does not have a winning strategy.
INITIAL IS DISPROVEN!

Result: No strong plan found.

Time needed for preprocess (Parsing, PDBs, ...):    0.323 seconds.
Time needed for search:                             25.199 seconds.
Time needed:                                        25.522 seconds.
Total Garbage Collections: 8
Total Garbage Collection Time: 1 seconds.

