/h/167/acamacho/Experiments-ICAPS18-SynKit/L3/bigprob_84.compact.tlsf.realizability.sas parsed.
Heuristic: FF-heuristic.
Algorithm: AO*-search
The protagonist does not have a winning strategy.
INITIAL IS DISPROVEN!

Result: No strong plan found.

Time needed for preprocess (Parsing, PDBs, ...):    0.698 seconds.
Time needed for search:                             3.664 seconds.
Time needed:                                        4.362 seconds.
Total Garbage Collections: 2
Total Garbage Collection Time: 0 seconds.

