/h/167/acamacho/Experiments-ICAPS18-SynKit/L3/bigprob_20.tlsf.realizability.sas parsed.
Heuristic: FF-heuristic.
Algorithm: AO*-search
The protagonist does not have a winning strategy.
INITIAL IS DISPROVEN!

Result: No strong plan found.

Time needed for preprocess (Parsing, PDBs, ...):    1.268 seconds.
Time needed for search:                             225.454 seconds.
Time needed:                                        226.722 seconds.
Total Garbage Collections: 12
Total Garbage Collection Time: 4 seconds.

