/h/167/acamacho/Experiments-ICAPS18-SynKit/L3/bigprob_35.compact.tlsf.realizability.sas parsed.
Heuristic: FF-heuristic.
Algorithm: AO*-search
The protagonist does not have a winning strategy.
INITIAL IS DISPROVEN!

Result: No strong plan found.

Time needed for preprocess (Parsing, PDBs, ...):    1.169 seconds.
Time needed for search:                             32.281 seconds.
Time needed:                                        33.45 seconds.
Total Garbage Collections: 5
Total Garbage Collection Time: 0 seconds.

