/h/167/acamacho/Experiments-ICAPS18-SynKit/L3/bigprob_65.compact.tlsf.realizability.sas parsed.
Heuristic: FF-heuristic.
Algorithm: AO*-search
The protagonist does not have a winning strategy.
INITIAL IS DISPROVEN!

Result: No strong plan found.

Time needed for preprocess (Parsing, PDBs, ...):    0.685 seconds.
Time needed for search:                             56.351 seconds.
Time needed:                                        57.036 seconds.
Total Garbage Collections: 7
Total Garbage Collection Time: 0 seconds.

