/h/167/acamacho/Experiments-ICAPS18-SynKit/L3/bigprob_98.compact.tlsf.realizability.sas parsed.
Heuristic: FF-heuristic.
Algorithm: AO*-search
The protagonist does not have a winning strategy.
INITIAL IS DISPROVEN!

Result: No strong plan found.

Time needed for preprocess (Parsing, PDBs, ...):    0.827 seconds.
Time needed for search:                             357.684 seconds.
Time needed:                                        358.511 seconds.
Total Garbage Collections: 8
Total Garbage Collection Time: 2 seconds.

