/h/167/acamacho/Experiments-ICAPS18-SynKit/L3/bigprob_89.compact.tlsf.realizability.sas parsed.
Heuristic: FF-heuristic.
Algorithm: AO*-search
The protagonist does not have a winning strategy.
INITIAL IS DISPROVEN!

Result: No strong plan found.

Time needed for preprocess (Parsing, PDBs, ...):    0.985 seconds.
Time needed for search:                             313.983 seconds.
Time needed:                                        314.968 seconds.
Total Garbage Collections: 15
Total Garbage Collection Time: 2 seconds.

