/h/167/acamacho/Experiments-ICAPS18-SynKit/L1/bigprob_34.tlsf.realizability.sas parsed.
Heuristic: FF-heuristic.
Algorithm: AO*-search
The protagonist does not have a winning strategy.
INITIAL IS DISPROVEN!

Result: No strong plan found.

Time needed for preprocess (Parsing, PDBs, ...):    0.199 seconds.
Time needed for search:                             0.451 seconds.
Time needed:                                        0.65 seconds.
Total Garbage Collections: 2
Total Garbage Collection Time: 0 seconds.

