/h/167/acamacho/Experiments-ICAPS18-SynKit/L1/bigprob_58.compact.tlsf.realizability.sas parsed.
Heuristic: FF-heuristic.
Algorithm: AO*-search
The protagonist has got a winning strategy.
INITIAL IS PROVEN!

Result: Strong plan found.

Time needed for preprocess (Parsing, PDBs, ...):    0.172 seconds.
Time needed for search:                             0.136 seconds.
Time needed:                                        0.308 seconds.
Total Garbage Collections: 2
Total Garbage Collection Time: 0 seconds.

Out of 21 nodes, 14 are proven
Number of node expansions: 15
Policy entries: 11
Number of sensing applications in policy: 0
