/h/167/acamacho/Experiments-ICAPS18-SynKit/L1/bigprob_58.tlsf.realizability.sas parsed.
Heuristic: FF-heuristic.
Algorithm: AO*-search
The protagonist has got a winning strategy.
INITIAL IS PROVEN!

Result: Strong plan found.

Time needed for preprocess (Parsing, PDBs, ...):    0.385 seconds.
Time needed for search:                             0.741 seconds.
Time needed:                                        1.126 seconds.
Total Garbage Collections: 2
Total Garbage Collection Time: 0 seconds.

Out of 151 nodes, 60 are proven
Number of node expansions: 89
Policy entries: 28
Number of sensing applications in policy: 0
