/h/167/acamacho/Experiments-ICAPS18-SynKit/L1/bigprob_8.tlsf.realizability.sas parsed.
Heuristic: FF-heuristic.
Algorithm: AO*-search
The protagonist does not have a winning strategy.
INITIAL IS DISPROVEN!

Result: No strong plan found.

Time needed for preprocess (Parsing, PDBs, ...):    0.442 seconds.
Time needed for search:                             517.626 seconds.
Time needed:                                        518.068 seconds.
Total Garbage Collections: 84
Total Garbage Collection Time: 36 seconds.

