/h/167/acamacho/Experiments-ICAPS18-SynKit/L1/bigprob_40.compact.tlsf.realizability.sas parsed.
Heuristic: FF-heuristic.
Algorithm: AO*-search
The protagonist does not have a winning strategy.
INITIAL IS DISPROVEN!

Result: No strong plan found.

Time needed for preprocess (Parsing, PDBs, ...):    0.896 seconds.
Time needed for search:                             1.051 seconds.
Time needed:                                        1.947 seconds.
Total Garbage Collections: 2
Total Garbage Collection Time: 0 seconds.

