/h/167/acamacho/Experiments-ICAPS18-SynKit/L1/bigprob_48.tlsf.realizability.sas parsed.
Heuristic: FF-heuristic.
Algorithm: AO*-search
The protagonist does not have a winning strategy.
INITIAL IS DISPROVEN!

Result: No strong plan found.

Time needed for preprocess (Parsing, PDBs, ...):    0.338 seconds.
Time needed for search:                             430.143 seconds.
Time needed:                                        430.481 seconds.
Total Garbage Collections: 82
Total Garbage Collection Time: 50 seconds.

