/h/167/acamacho/Experiments-ICAPS18-SynKit/L1/bigprob_61.compact.tlsf.realizability.sas parsed.
Heuristic: FF-heuristic.
Algorithm: AO*-search
The protagonist has got a winning strategy.
INITIAL IS PROVEN!

Result: Strong plan found.

Time needed for preprocess (Parsing, PDBs, ...):    0.911 seconds.
Time needed for search:                             0.512 seconds.
Time needed:                                        1.423 seconds.
Total Garbage Collections: 2
Total Garbage Collection Time: 0 seconds.

Out of 16 nodes, 15 are proven
Number of node expansions: 12
Policy entries: 12
Number of sensing applications in policy: 0
