/h/167/acamacho/Experiments-ICAPS18-SynKit/L1/bigprob_20.tlsf.realizability.sas parsed.
Heuristic: FF-heuristic.
Algorithm: AO*-search
The protagonist has got a winning strategy.
INITIAL IS PROVEN!

Result: Strong plan found.

Time needed for preprocess (Parsing, PDBs, ...):    0.197 seconds.
Time needed for search:                             0.239 seconds.
Time needed:                                        0.436 seconds.
Total Garbage Collections: 2
Total Garbage Collection Time: 0 seconds.

Out of 12 nodes, 11 are proven
Number of node expansions: 7
Policy entries: 7
Number of sensing applications in policy: 0
