/h/167/acamacho/Experiments-ICAPS18-SynKit/L1/bigprob_40.tlsf.realizability.sas parsed.
Heuristic: FF-heuristic.
Algorithm: AO*-search
The protagonist does not have a winning strategy.
INITIAL IS DISPROVEN!

Result: No strong plan found.

Time needed for preprocess (Parsing, PDBs, ...):    1.137 seconds.
Time needed for search:                             2.713 seconds.
Time needed:                                        3.85 seconds.
Total Garbage Collections: 2
Total Garbage Collection Time: 0 seconds.

