/h/167/acamacho/Experiments-ICAPS18-SynKit/L1/bigprob_61.tlsf.realizability.sas parsed.
Heuristic: FF-heuristic.
Algorithm: AO*-search
The protagonist has got a winning strategy.
INITIAL IS PROVEN!

Result: Strong plan found.

Time needed for preprocess (Parsing, PDBs, ...):    0.977 seconds.
Time needed for search:                             0.787 seconds.
Time needed:                                        1.764 seconds.
Total Garbage Collections: 2
Total Garbage Collection Time: 0 seconds.

Out of 44 nodes, 24 are proven
Number of node expansions: 22
Policy entries: 22
Number of sensing applications in policy: 0
