/h/167/acamacho/Experiments-ICAPS18-SynKit/L1/bigprob_88.compact.tlsf.realizability.sas parsed.
Heuristic: FF-heuristic.
Algorithm: AO*-search
The protagonist has got a winning strategy.
INITIAL IS PROVEN!

Result: Strong plan found.

Time needed for preprocess (Parsing, PDBs, ...):    0.188 seconds.
Time needed for search:                             0.027 seconds.
Time needed:                                        0.215 seconds.
Total Garbage Collections: 2
Total Garbage Collection Time: 0 seconds.

Out of 8 nodes, 6 are proven
Number of node expansions: 5
Policy entries: 5
Number of sensing applications in policy: 0
