/h/167/acamacho/Experiments-ICAPS18-SynKit/L1/bigprob_68.tlsf.realizability.sas parsed.
Heuristic: FF-heuristic.
Algorithm: AO*-search
The protagonist does not have a winning strategy.
INITIAL IS DISPROVEN!

Result: No strong plan found.

Time needed for preprocess (Parsing, PDBs, ...):    0.259 seconds.
Time needed for search:                             3.461 seconds.
Time needed:                                        3.72 seconds.
Total Garbage Collections: 3
Total Garbage Collection Time: 0 seconds.

