/h/167/acamacho/Experiments-ICAPS18-SynKit/L1/bigprob_33.tlsf.realizability.sas parsed.
Heuristic: FF-heuristic.
Algorithm: AO*-search
The protagonist has got a winning strategy.
INITIAL IS PROVEN!

Result: Strong plan found.

Time needed for preprocess (Parsing, PDBs, ...):    0.135 seconds.
Time needed for search:                             0.339 seconds.
Time needed:                                        0.474 seconds.
Total Garbage Collections: 2
Total Garbage Collection Time: 0 seconds.

Out of 67 nodes, 18 are proven
Number of node expansions: 17
Policy entries: 17
Number of sensing applications in policy: 0
