/h/167/acamacho/Experiments-ICAPS18-SynKit/L2/bigprob_51.compact.tlsf.realizability.sas parsed.
Heuristic: FF-heuristic.
Algorithm: AO*-search
The protagonist does not have a winning strategy.
INITIAL IS DISPROVEN!

Result: No strong plan found.

Time needed for preprocess (Parsing, PDBs, ...):    0.711 seconds.
Time needed for search:                             66.961 seconds.
Time needed:                                        67.672 seconds.
Total Garbage Collections: 7
Total Garbage Collection Time: 1 seconds.

