/h/167/acamacho/Experiments-ICAPS18-SynKit/L2/bigprob_19.tlsf.realizability.sas parsed.
Heuristic: FF-heuristic.
Algorithm: AO*-search
The protagonist has got a winning strategy.
INITIAL IS PROVEN!

Result: Strong plan found.

Time needed for preprocess (Parsing, PDBs, ...):    1.19 seconds.
Time needed for search:                             1.16 seconds.
Time needed:                                        2.35 seconds.
Total Garbage Collections: 2
Total Garbage Collection Time: 0 seconds.

Out of 151 nodes, 46 are proven
Number of node expansions: 44
Policy entries: 44
Number of sensing applications in policy: 0
