/h/167/acamacho/Experiments-ICAPS18-SynKit/L2/bigprob_77.compact.tlsf.realizability.sas parsed.
Heuristic: FF-heuristic.
Algorithm: AO*-search
The protagonist has got a winning strategy.
INITIAL IS PROVEN!

Result: Strong plan found.

Time needed for preprocess (Parsing, PDBs, ...):    0.123 seconds.
Time needed for search:                             0.097 seconds.
Time needed:                                        0.22 seconds.
Total Garbage Collections: 2
Total Garbage Collection Time: 0 seconds.

Out of 18 nodes, 12 are proven
Number of node expansions: 11
Policy entries: 11
Number of sensing applications in policy: 0
