/h/167/acamacho/Experiments-ICAPS18-SynKit/L2/bigprob_94.compact.tlsf.realizability.sas parsed.
Heuristic: FF-heuristic.
Algorithm: AO*-search
The protagonist does not have a winning strategy.
INITIAL IS DISPROVEN!

Result: No strong plan found.

Time needed for preprocess (Parsing, PDBs, ...):    0.619 seconds.
Time needed for search:                             5.841 seconds.
Time needed:                                        6.46 seconds.
Total Garbage Collections: 3
Total Garbage Collection Time: 0 seconds.

