/h/167/acamacho/Experiments-ICAPS18-SynKit/L2/bigprob_2.tlsf.realizability.sas parsed.
Heuristic: FF-heuristic.
Algorithm: AO*-search
The protagonist has got a winning strategy.
INITIAL IS PROVEN!

Result: Strong plan found.

Time needed for preprocess (Parsing, PDBs, ...):    0.22 seconds.
Time needed for search:                             0.859 seconds.
Time needed:                                        1.079 seconds.
Total Garbage Collections: 2
Total Garbage Collection Time: 0 seconds.

Out of 230 nodes, 34 are proven
Number of node expansions: 33
Policy entries: 33
Number of sensing applications in policy: 0
