/h/167/acamacho/Experiments-ICAPS18-SynKit/L2/bigprob_12.compact.tlsf.realizability.sas parsed.
Heuristic: FF-heuristic.
Algorithm: AO*-search
The protagonist does not have a winning strategy.
INITIAL IS DISPROVEN!

Result: No strong plan found.

Time needed for preprocess (Parsing, PDBs, ...):    0.446 seconds.
Time needed for search:                             1.156 seconds.
Time needed:                                        1.602 seconds.
Total Garbage Collections: 2
Total Garbage Collection Time: 0 seconds.

