/h/167/acamacho/Experiments-ICAPS18-SynKit/L2/bigprob_13.tlsf.realizability.sas parsed.
Heuristic: FF-heuristic.
Algorithm: AO*-search
The protagonist does not have a winning strategy.
INITIAL IS DISPROVEN!

Result: No strong plan found.

Time needed for preprocess (Parsing, PDBs, ...):    0.484 seconds.
Time needed for search:                             69.023 seconds.
Time needed:                                        69.507 seconds.
Total Garbage Collections: 19
Total Garbage Collection Time: 6 seconds.

