/h/167/acamacho/Experiments-ICAPS18-SynKit/L2/bigprob_41.tlsf.realizability.sas parsed.
Heuristic: FF-heuristic.
Algorithm: AO*-search
The protagonist does not have a winning strategy.
INITIAL IS DISPROVEN!

Result: No strong plan found.

Time needed for preprocess (Parsing, PDBs, ...):    0.365 seconds.
Time needed for search:                             8.428 seconds.
Time needed:                                        8.793 seconds.
Total Garbage Collections: 4
Total Garbage Collection Time: 0 seconds.

