/h/167/acamacho/Experiments-ICAPS18-SynKit/L2/bigprob_91.tlsf.realizability.sas parsed.
Heuristic: FF-heuristic.
Algorithm: AO*-search
The protagonist does not have a winning strategy.
INITIAL IS DISPROVEN!

Result: No strong plan found.

Time needed for preprocess (Parsing, PDBs, ...):    0.538 seconds.
Time needed for search:                             33.739 seconds.
Time needed:                                        34.277 seconds.
Total Garbage Collections: 7
Total Garbage Collection Time: 0 seconds.

