/h/167/acamacho/Experiments-ICAPS18-SynKit/L2/bigprob_77.tlsf.realizability.sas parsed.
Heuristic: FF-heuristic.
Algorithm: AO*-search
The protagonist has got a winning strategy.
INITIAL IS PROVEN!

Result: Strong plan found.

Time needed for preprocess (Parsing, PDBs, ...):    0.155 seconds.
Time needed for search:                             0.266 seconds.
Time needed:                                        0.421 seconds.
Total Garbage Collections: 2
Total Garbage Collection Time: 0 seconds.

Out of 78 nodes, 22 are proven
Number of node expansions: 21
Policy entries: 21
Number of sensing applications in policy: 0
