/h/167/acamacho/Experiments-ICAPS18-SynKit/L2/bigprob_85.compact.tlsf.realizability.sas parsed.
Heuristic: FF-heuristic.
Algorithm: AO*-search
The protagonist does not have a winning strategy.
INITIAL IS DISPROVEN!

Result: No strong plan found.

Time needed for preprocess (Parsing, PDBs, ...):    1.201 seconds.
Time needed for search:                             7.024 seconds.
Time needed:                                        8.225 seconds.
Total Garbage Collections: 3
Total Garbage Collection Time: 0 seconds.

