/h/167/acamacho/Experiments-ICAPS18-SynKit/L2/bigprob_62.tlsf.realizability.sas parsed.
Heuristic: FF-heuristic.
Algorithm: AO*-search
The protagonist has got a winning strategy.
INITIAL IS PROVEN!

Result: Strong plan found.

Time needed for preprocess (Parsing, PDBs, ...):    0.126 seconds.
Time needed for search:                             0.536 seconds.
Time needed:                                        0.662 seconds.
Total Garbage Collections: 2
Total Garbage Collection Time: 0 seconds.

Out of 142 nodes, 35 are proven
Number of node expansions: 34
Policy entries: 34
Number of sensing applications in policy: 0
