/h/167/acamacho/Experiments-ICAPS18-SynKit/L2/bigprob_88.tlsf.realizability.sas parsed.
Heuristic: FF-heuristic.
Algorithm: AO*-search
The protagonist does not have a winning strategy.
INITIAL IS DISPROVEN!

Result: No strong plan found.

Time needed for preprocess (Parsing, PDBs, ...):    0.702 seconds.
Time needed for search:                             66.288 seconds.
Time needed:                                        66.99 seconds.
Total Garbage Collections: 10
Total Garbage Collection Time: 2 seconds.

