/h/167/acamacho/Experiments-ICAPS18-SynKit/L2/bigprob_10.tlsf.realizability.sas parsed.
Heuristic: FF-heuristic.
Algorithm: AO*-search
The protagonist does not have a winning strategy.
INITIAL IS DISPROVEN!

Result: No strong plan found.

Time needed for preprocess (Parsing, PDBs, ...):    0.428 seconds.
Time needed for search:                             134.694 seconds.
Time needed:                                        135.122 seconds.
Total Garbage Collections: 21
Total Garbage Collection Time: 10 seconds.

