/h/167/acamacho/Experiments-ICAPS18-SynKit/L2/bigprob_7.tlsf.realizability.sas parsed.
Heuristic: FF-heuristic.
Algorithm: AO*-search
The protagonist does not have a winning strategy.
INITIAL IS DISPROVEN!

Result: No strong plan found.

Time needed for preprocess (Parsing, PDBs, ...):    0.613 seconds.
Time needed for search:                             13.347 seconds.
Time needed:                                        13.96 seconds.
Total Garbage Collections: 5
Total Garbage Collection Time: 0 seconds.

