/h/167/acamacho/Experiments-ICAPS18-SynKit/L2/bigprob_59.compact.tlsf.realizability.sas parsed.
Heuristic: FF-heuristic.
Algorithm: AO*-search
The protagonist has got a winning strategy.
INITIAL IS PROVEN!

Result: Strong plan found.

Time needed for preprocess (Parsing, PDBs, ...):    0.27 seconds.
Time needed for search:                             0.362 seconds.
Time needed:                                        0.632 seconds.
Total Garbage Collections: 2
Total Garbage Collection Time: 0 seconds.

Out of 162 nodes, 65 are proven
Number of node expansions: 104
Policy entries: 55
Number of sensing applications in policy: 0
