/h/167/acamacho/Experiments-ICAPS18-SynKit/L2/bigprob_26.compact.tlsf.realizability.sas parsed.
Heuristic: FF-heuristic.
Algorithm: AO*-search
The protagonist does not have a winning strategy.
INITIAL IS DISPROVEN!

Result: No strong plan found.

Time needed for preprocess (Parsing, PDBs, ...):    0.769 seconds.
Time needed for search:                             4.057 seconds.
Time needed:                                        4.826 seconds.
Total Garbage Collections: 2
Total Garbage Collection Time: 0 seconds.

