/h/167/acamacho/Experiments-ICAPS18-SynKit/L2/bigprob_96.tlsf.realizability.sas parsed.
Heuristic: FF-heuristic.
Algorithm: AO*-search
The protagonist does not have a winning strategy.
INITIAL IS DISPROVEN!

Result: No strong plan found.

Time needed for preprocess (Parsing, PDBs, ...):    0.205 seconds.
Time needed for search:                             2.223 seconds.
Time needed:                                        2.428 seconds.
Total Garbage Collections: 2
Total Garbage Collection Time: 0 seconds.

