/h/167/acamacho/Experiments-ICAPS18-SynKit/L2/bigprob_78.compact.tlsf.realizability.sas parsed.
Heuristic: FF-heuristic.
Algorithm: AO*-search
The protagonist has got a winning strategy.
INITIAL IS PROVEN!

Result: Strong plan found.

Time needed for preprocess (Parsing, PDBs, ...):    0.131 seconds.
Time needed for search:                             0.084 seconds.
Time needed:                                        0.215 seconds.
Total Garbage Collections: 2
Total Garbage Collection Time: 0 seconds.

Out of 19 nodes, 13 are proven
Number of node expansions: 12
Policy entries: 12
Number of sensing applications in policy: 0
