/h/167/acamacho/Experiments-ICAPS18-SynKit/L2/bigprob_81.tlsf.realizability.sas parsed.
Heuristic: FF-heuristic.
Algorithm: AO*-search
The protagonist does not have a winning strategy.
INITIAL IS DISPROVEN!

Result: No strong plan found.

Time needed for preprocess (Parsing, PDBs, ...):    0.212 seconds.
Time needed for search:                             5.537 seconds.
Time needed:                                        5.749 seconds.
Total Garbage Collections: 4
Total Garbage Collection Time: 0 seconds.

