/h/167/acamacho/Experiments-ICAPS18-SynKit/L2/bigprob_74.tlsf.realizability.sas parsed.
Heuristic: FF-heuristic.
Algorithm: AO*-search
The protagonist does not have a winning strategy.
INITIAL IS DISPROVEN!

Result: No strong plan found.

Time needed for preprocess (Parsing, PDBs, ...):    0.292 seconds.
Time needed for search:                             4.282 seconds.
Time needed:                                        4.574 seconds.
Total Garbage Collections: 3
Total Garbage Collection Time: 0 seconds.

