/h/167/acamacho/Experiments-ICAPS18-SynKit/L2/bigprob_3.tlsf.realizability.sas parsed.
Heuristic: FF-heuristic.
Algorithm: AO*-search
The protagonist does not have a winning strategy.
INITIAL IS DISPROVEN!

Result: No strong plan found.

Time needed for preprocess (Parsing, PDBs, ...):    0.837 seconds.
Time needed for search:                             192.309 seconds.
Time needed:                                        193.146 seconds.
Total Garbage Collections: 15
Total Garbage Collection Time: 7 seconds.

