/h/167/acamacho/Experiments-ICAPS18-SynKit/L2/bigprob_63.compact.tlsf.realizability.sas parsed.
Heuristic: FF-heuristic.
Algorithm: AO*-search
The protagonist does not have a winning strategy.
INITIAL IS DISPROVEN!

Result: No strong plan found.

Time needed for preprocess (Parsing, PDBs, ...):    0.184 seconds.
Time needed for search:                             0.247 seconds.
Time needed:                                        0.431 seconds.
Total Garbage Collections: 2
Total Garbage Collection Time: 0 seconds.

