/h/167/acamacho/Experiments-ICAPS18-SynKit/L5/bigprob_20.compact.tlsf.realizability.sas parsed.
Heuristic: FF-heuristic.
Algorithm: AO*-search
The protagonist does not have a winning strategy.
INITIAL IS DISPROVEN!

Result: No strong plan found.

Time needed for preprocess (Parsing, PDBs, ...):    0.97 seconds.
Time needed for search:                             6.225 seconds.
Time needed:                                        7.195 seconds.
Total Garbage Collections: 2
Total Garbage Collection Time: 0 seconds.

