/h/167/acamacho/Experiments-ICAPS18-SynKit/L5/bigprob_98.compact.tlsf.realizability.sas parsed.
Heuristic: FF-heuristic.
Algorithm: AO*-search
The protagonist does not have a winning strategy.
INITIAL IS DISPROVEN!

Result: No strong plan found.

Time needed for preprocess (Parsing, PDBs, ...):    1.94 seconds.
Time needed for search:                             1.684 seconds.
Time needed:                                        3.624 seconds.
Total Garbage Collections: 3
Total Garbage Collection Time: 1 seconds.

