/h/167/acamacho/Experiments-ICAPS18-SynKit/L5/bigprob_55.compact.tlsf.realizability.sas parsed.
Heuristic: FF-heuristic.
Algorithm: AO*-search
The protagonist does not have a winning strategy.
INITIAL IS DISPROVEN!

Result: No strong plan found.

Time needed for preprocess (Parsing, PDBs, ...):    0.522 seconds.
Time needed for search:                             101.391 seconds.
Time needed:                                        101.913 seconds.
Total Garbage Collections: 11
Total Garbage Collection Time: 1 seconds.

