/h/167/acamacho/Experiments-ICAPS18-SynKit/L2/bigprob_9.compact.tlsf.unrealizability.sas parsed.
Heuristic: FF-heuristic.
Algorithm: LAO*-search
INITIAL IS PROVEN!

Result: Strong cyclic plan found.

Time needed for preprocess (Parsing, PDBs, ...):    0.52 seconds.
Time needed for search:                             1.045 seconds.
Time needed:                                        1.565 seconds.
Total Garbage Collections: 2
Total Garbage Collection Time: 0 seconds.

Out of 230 nodes, 172 are proven
Number of node expansions: 179
Policy entries: 164
Number of sensing applications in policy: 0
