/h/167/acamacho/Experiments-ICAPS18-SynKit/L2/bigprob_90.compact.tlsf.unrealizability.sas parsed.
Heuristic: FF-heuristic.
Algorithm: LAO*-search
INITIAL IS PROVEN!

Result: Strong cyclic plan found.

Time needed for preprocess (Parsing, PDBs, ...):    0.546 seconds.
Time needed for search:                             1.01 seconds.
Time needed:                                        1.556 seconds.
Total Garbage Collections: 2
Total Garbage Collection Time: 0 seconds.

Out of 129 nodes, 105 are proven
Number of node expansions: 100
Policy entries: 100
Number of sensing applications in policy: 0
