/h/167/acamacho/Experiments-ICAPS18-SynKit/L2/bigprob_98.compact.tlsf.unrealizability.sas parsed.
Heuristic: FF-heuristic.
Algorithm: LAO*-search
INITIAL IS PROVEN!

Result: Strong cyclic plan found.

Time needed for preprocess (Parsing, PDBs, ...):    1.221 seconds.
Time needed for search:                             1.66 seconds.
Time needed:                                        2.881 seconds.
Total Garbage Collections: 2
Total Garbage Collection Time: 0 seconds.

Out of 132 nodes, 100 are proven
Number of node expansions: 94
Policy entries: 94
Number of sensing applications in policy: 0
