/h/167/acamacho/Experiments-ICAPS18-SynKit/L2/bigprob_86.tlsf.unrealizability.sas parsed.
Heuristic: FF-heuristic.
Algorithm: LAO*-search
INITIAL IS PROVEN!

Result: Strong cyclic plan found.

Time needed for preprocess (Parsing, PDBs, ...):    0.25 seconds.
Time needed for search:                             0.959 seconds.
Time needed:                                        1.209 seconds.
Total Garbage Collections: 2
Total Garbage Collection Time: 0 seconds.

Out of 226 nodes, 60 are proven
Number of node expansions: 182
Policy entries: 38
Number of sensing applications in policy: 0
