/h/167/acamacho/Experiments-ICAPS18-SynKit/L2/bigprob_56.tlsf.unrealizability.sas parsed.
Heuristic: FF-heuristic.
Algorithm: LAO*-search
INITIAL IS PROVEN!

Result: Strong cyclic plan found.

Time needed for preprocess (Parsing, PDBs, ...):    0.117 seconds.
Time needed for search:                             1.689 seconds.
Time needed:                                        1.806 seconds.
Total Garbage Collections: 2
Total Garbage Collection Time: 0 seconds.

Out of 617 nodes, 172 are proven
Number of node expansions: 334
Policy entries: 134
Number of sensing applications in policy: 0
