/h/167/acamacho/Experiments-ICAPS18-SynKit/L2/bigprob_95.compact.tlsf.unrealizability.sas parsed.
Heuristic: FF-heuristic.
Algorithm: LAO*-search
INITIAL IS PROVEN!

Result: Strong cyclic plan found.

Time needed for preprocess (Parsing, PDBs, ...):    0.483 seconds.
Time needed for search:                             1.3 seconds.
Time needed:                                        1.783 seconds.
Total Garbage Collections: 2
Total Garbage Collection Time: 0 seconds.

Out of 274 nodes, 135 are proven
Number of node expansions: 201
Policy entries: 118
Number of sensing applications in policy: 0
