/h/167/acamacho/Experiments-ICAPS18-SynKit/L2/bigprob_55.compact.tlsf.unrealizability.sas parsed.
Heuristic: FF-heuristic.
Algorithm: LAO*-search
INITIAL IS PROVEN!

Result: Strong cyclic plan found.

Time needed for preprocess (Parsing, PDBs, ...):    0.39 seconds.
Time needed for search:                             0.894 seconds.
Time needed:                                        1.284 seconds.
Total Garbage Collections: 2
Total Garbage Collection Time: 0 seconds.

Out of 258 nodes, 195 are proven
Number of node expansions: 201
Policy entries: 185
Number of sensing applications in policy: 0
