/h/167/acamacho/Experiments-ICAPS18-SynKit/L2/bigprob_71.compact.tlsf.unrealizability.sas parsed.
Heuristic: FF-heuristic.
Algorithm: LAO*-search
INITIAL IS PROVEN!

Result: Strong cyclic plan found.

Time needed for preprocess (Parsing, PDBs, ...):    0.222 seconds.
Time needed for search:                             0.528 seconds.
Time needed:                                        0.75 seconds.
Total Garbage Collections: 2
Total Garbage Collection Time: 0 seconds.

Out of 128 nodes, 91 are proven
Number of node expansions: 93
Policy entries: 85
Number of sensing applications in policy: 0
