/h/167/acamacho/Experiments-ICAPS18-SynKit/L2/bigprob_14.tlsf.unrealizability.sas parsed.
Heuristic: FF-heuristic.
Algorithm: LAO*-search
INITIAL IS DISPROVEN!

Result: No strong cyclic plan found.

Time needed for preprocess (Parsing, PDBs, ...):    1.128 seconds.
Time needed for search:                             3.916 seconds.
Time needed:                                        5.044 seconds.
Total Garbage Collections: 2
Total Garbage Collection Time: 0 seconds.

