/h/167/acamacho/Experiments-ICAPS18-SynKit/L2/bigprob_21.tlsf.unrealizability.sas parsed.
Heuristic: FF-heuristic.
Algorithm: LAO*-search
INITIAL IS DISPROVEN!

Result: No strong cyclic plan found.

Time needed for preprocess (Parsing, PDBs, ...):    0.291 seconds.
Time needed for search:                             6.405 seconds.
Time needed:                                        6.696 seconds.
Total Garbage Collections: 3
Total Garbage Collection Time: 0 seconds.

