/h/167/acamacho/Experiments-ICAPS18-SynKit/L2/bigprob_34.compact.tlsf.unrealizability.sas parsed.
Heuristic: FF-heuristic.
Algorithm: LAO*-search
INITIAL IS PROVEN!

Result: Strong cyclic plan found.

Time needed for preprocess (Parsing, PDBs, ...):    0.599 seconds.
Time needed for search:                             0.73 seconds.
Time needed:                                        1.329 seconds.
Total Garbage Collections: 2
Total Garbage Collection Time: 0 seconds.

Out of 104 nodes, 80 are proven
Number of node expansions: 77
Policy entries: 77
Number of sensing applications in policy: 0
