/h/167/acamacho/Experiments-ICAPS18-SynKit/L2/bigprob_10.tlsf.unrealizability.sas parsed.
Heuristic: FF-heuristic.
Algorithm: LAO*-search
INITIAL IS PROVEN!

Result: Strong cyclic plan found.

Time needed for preprocess (Parsing, PDBs, ...):    0.426 seconds.
Time needed for search:                             18.977 seconds.
Time needed:                                        19.403 seconds.
Total Garbage Collections: 5
Total Garbage Collection Time: 0 seconds.

Out of 3197 nodes, 222 are proven
Number of node expansions: 2487
Policy entries: 146
Number of sensing applications in policy: 0
