/h/167/acamacho/Experiments-ICAPS18-SynKit/L2/bigprob_18.tlsf.unrealizability.sas parsed.
Heuristic: FF-heuristic.
Algorithm: LAO*-search
INITIAL IS PROVEN!

Result: Strong cyclic plan found.

Time needed for preprocess (Parsing, PDBs, ...):    0.782 seconds.
Time needed for search:                             1.304 seconds.
Time needed:                                        2.086 seconds.
Total Garbage Collections: 2
Total Garbage Collection Time: 0 seconds.

Out of 175 nodes, 84 are proven
Number of node expansions: 79
Policy entries: 79
Number of sensing applications in policy: 0
