/h/167/acamacho/Experiments-ICAPS18-SynKit/L2/bigprob_99.compact.tlsf.unrealizability.sas parsed.
Heuristic: FF-heuristic.
Algorithm: LAO*-search
INITIAL IS PROVEN!

Result: Strong cyclic plan found.

Time needed for preprocess (Parsing, PDBs, ...):    0.195 seconds.
Time needed for search:                             0.531 seconds.
Time needed:                                        0.726 seconds.
Total Garbage Collections: 2
Total Garbage Collection Time: 0 seconds.

Out of 64 nodes, 41 are proven
Number of node expansions: 45
Policy entries: 37
Number of sensing applications in policy: 0
