/h/167/acamacho/Experiments-ICAPS18-SynKit/L2/bigprob_72.tlsf.unrealizability.sas parsed.
Heuristic: FF-heuristic.
Algorithm: LAO*-search
INITIAL IS PROVEN!

Result: Strong cyclic plan found.

Time needed for preprocess (Parsing, PDBs, ...):    1.017 seconds.
Time needed for search:                             6.171 seconds.
Time needed:                                        7.188 seconds.
Total Garbage Collections: 3
Total Garbage Collection Time: 0 seconds.

Out of 1047 nodes, 245 are proven
Number of node expansions: 461
Policy entries: 209
Number of sensing applications in policy: 0
