/h/167/acamacho/Experiments-ICAPS18-SynKit/L2/bigprob_0.tlsf.unrealizability.sas parsed.
Heuristic: FF-heuristic.
Algorithm: LAO*-search
INITIAL IS PROVEN!

Result: Strong cyclic plan found.

Time needed for preprocess (Parsing, PDBs, ...):    1.122 seconds.
Time needed for search:                             75.092 seconds.
Time needed:                                        76.214 seconds.
Total Garbage Collections: 6
Total Garbage Collection Time: 0 seconds.

Out of 2555 nodes, 176 are proven
Number of node expansions: 1993
Policy entries: 113
Number of sensing applications in policy: 0
