/h/167/acamacho/Experiments-ICAPS18-SynKit/L2/bigprob_60.tlsf.unrealizability.sas parsed.
Heuristic: FF-heuristic.
Algorithm: LAO*-search
INITIAL IS PROVEN!

Result: Strong cyclic plan found.

Time needed for preprocess (Parsing, PDBs, ...):    0.151 seconds.
Time needed for search:                             0.234 seconds.
Time needed:                                        0.385 seconds.
Total Garbage Collections: 2
Total Garbage Collection Time: 0 seconds.

Out of 48 nodes, 23 are proven
Number of node expansions: 31
Policy entries: 20
Number of sensing applications in policy: 0
