/h/167/acamacho/Experiments-ICAPS18-SynKit/L2/bigprob_24.tlsf.unrealizability.sas parsed.
Heuristic: FF-heuristic.
Algorithm: LAO*-search
INITIAL IS PROVEN!

Result: Strong cyclic plan found.

Time needed for preprocess (Parsing, PDBs, ...):    0.229 seconds.
Time needed for search:                             5.197 seconds.
Time needed:                                        5.426 seconds.
Total Garbage Collections: 2
Total Garbage Collection Time: 0 seconds.

Out of 979 nodes, 72 are proven
Number of node expansions: 670
Policy entries: 38
Number of sensing applications in policy: 0
