/h/167/acamacho/Experiments-ICAPS18-SynKit/L2/bigprob_66.compact.tlsf.unrealizability.sas parsed.
Heuristic: FF-heuristic.
Algorithm: LAO*-search
INITIAL IS PROVEN!

Result: Strong cyclic plan found.

Time needed for preprocess (Parsing, PDBs, ...):    0.553 seconds.
Time needed for search:                             1.633 seconds.
Time needed:                                        2.186 seconds.
Total Garbage Collections: 2
Total Garbage Collection Time: 0 seconds.

Out of 385 nodes, 172 are proven
Number of node expansions: 291
Policy entries: 160
Number of sensing applications in policy: 0
