/h/167/acamacho/Experiments-ICAPS18-SynKit/L2/bigprob_97.tlsf.unrealizability.sas parsed.
Heuristic: FF-heuristic.
Algorithm: LAO*-search
INITIAL IS PROVEN!

Result: Strong cyclic plan found.

Time needed for preprocess (Parsing, PDBs, ...):    0.627 seconds.
Time needed for search:                             3.595 seconds.
Time needed:                                        4.222 seconds.
Total Garbage Collections: 2
Total Garbage Collection Time: 0 seconds.

Out of 568 nodes, 192 are proven
Number of node expansions: 379
Policy entries: 165
Number of sensing applications in policy: 0
