/h/167/acamacho/Experiments-ICAPS18-SynKit/L2/bigprob_75.tlsf.unrealizability.sas parsed.
Heuristic: FF-heuristic.
Algorithm: LAO*-search
INITIAL IS PROVEN!

Result: Strong cyclic plan found.

Time needed for preprocess (Parsing, PDBs, ...):    0.487 seconds.
Time needed for search:                             55.417 seconds.
Time needed:                                        55.904 seconds.
Total Garbage Collections: 9
Total Garbage Collection Time: 1 seconds.

Out of 14465 nodes, 868 are proven
Number of node expansions: 2300
Policy entries: 671
Number of sensing applications in policy: 0
