/h/167/acamacho/Experiments-ICAPS18-SynKit/L2/bigprob_91.tlsf.unrealizability.sas parsed.
Heuristic: FF-heuristic.
Algorithm: LAO*-search
INITIAL IS PROVEN!

Result: Strong cyclic plan found.

Time needed for preprocess (Parsing, PDBs, ...):    0.889 seconds.
Time needed for search:                             1.336 seconds.
Time needed:                                        2.225 seconds.
Total Garbage Collections: 2
Total Garbage Collection Time: 0 seconds.

Out of 143 nodes, 80 are proven
Number of node expansions: 75
Policy entries: 75
Number of sensing applications in policy: 0
