/h/167/acamacho/Experiments-ICAPS18-SynKit/L2/bigprob_39.compact.tlsf.unrealizability.sas parsed.
Heuristic: FF-heuristic.
Algorithm: LAO*-search
INITIAL IS PROVEN!

Result: Strong cyclic plan found.

Time needed for preprocess (Parsing, PDBs, ...):    0.568 seconds.
Time needed for search:                             1.33 seconds.
Time needed:                                        1.898 seconds.
Total Garbage Collections: 2
Total Garbage Collection Time: 0 seconds.

Out of 144 nodes, 128 are proven
Number of node expansions: 122
Policy entries: 122
Number of sensing applications in policy: 0
