/h/167/acamacho/Experiments-ICAPS18-SynKit/L2/bigprob_1.compact.tlsf.unrealizability.sas parsed.
Heuristic: FF-heuristic.
Algorithm: LAO*-search
INITIAL IS PROVEN!

Result: Strong cyclic plan found.

Time needed for preprocess (Parsing, PDBs, ...):    0.38 seconds.
Time needed for search:                             0.908 seconds.
Time needed:                                        1.288 seconds.
Total Garbage Collections: 2
Total Garbage Collection Time: 0 seconds.

Out of 241 nodes, 216 are proven
Number of node expansions: 213
Policy entries: 213
Number of sensing applications in policy: 0
