/h/167/acamacho/Experiments-ICAPS18-SynKit/L2/bigprob_54.compact.tlsf.unrealizability.sas parsed.
Heuristic: FF-heuristic.
Algorithm: LAO*-search
INITIAL IS DISPROVEN!

Result: No strong cyclic plan found.

Time needed for preprocess (Parsing, PDBs, ...):    1.031 seconds.
Time needed for search:                             0.521 seconds.
Time needed:                                        1.552 seconds.
Total Garbage Collections: 2
Total Garbage Collection Time: 0 seconds.

