/h/167/acamacho/Experiments-ICAPS18-SynKit/L2/bigprob_25.compact.tlsf.unrealizability.sas parsed.
Heuristic: FF-heuristic.
Algorithm: LAO*-search
INITIAL IS PROVEN!

Result: Strong cyclic plan found.

Time needed for preprocess (Parsing, PDBs, ...):    0.718 seconds.
Time needed for search:                             0.888 seconds.
Time needed:                                        1.606 seconds.
Total Garbage Collections: 2
Total Garbage Collection Time: 0 seconds.

Out of 111 nodes, 89 are proven
Number of node expansions: 83
Policy entries: 83
Number of sensing applications in policy: 0
