/h/167/acamacho/Experiments-ICAPS18-SynKit/L2/bigprob_16.tlsf.unrealizability.sas parsed.
Heuristic: FF-heuristic.
Algorithm: LAO*-search
INITIAL IS PROVEN!

Result: Strong cyclic plan found.

Time needed for preprocess (Parsing, PDBs, ...):    0.404 seconds.
Time needed for search:                             39.487 seconds.
Time needed:                                        39.891 seconds.
Total Garbage Collections: 7
Total Garbage Collection Time: 0 seconds.

Out of 6862 nodes, 731 are proven
Number of node expansions: 1931
Policy entries: 438
Number of sensing applications in policy: 0
