/h/167/acamacho/Experiments-ICAPS18-SynKit/L2/bigprob_88.compact.tlsf.unrealizability.sas parsed.
Heuristic: FF-heuristic.
Algorithm: LAO*-search
INITIAL IS PROVEN!

Result: Strong cyclic plan found.

Time needed for preprocess (Parsing, PDBs, ...):    0.844 seconds.
Time needed for search:                             2.549 seconds.
Time needed:                                        3.393 seconds.
Total Garbage Collections: 2
Total Garbage Collection Time: 0 seconds.

Out of 477 nodes, 219 are proven
Number of node expansions: 385
Policy entries: 206
Number of sensing applications in policy: 0
