/h/167/acamacho/Experiments-ICAPS18-SynKit/L2/bigprob_15.tlsf.unrealizability.sas parsed.
Heuristic: FF-heuristic.
Algorithm: LAO*-search
INITIAL IS PROVEN!

Result: Strong cyclic plan found.

Time needed for preprocess (Parsing, PDBs, ...):    1.41 seconds.
Time needed for search:                             2.069 seconds.
Time needed:                                        3.479 seconds.
Total Garbage Collections: 2
Total Garbage Collection Time: 0 seconds.

Out of 123 nodes, 75 are proven
Number of node expansions: 70
Policy entries: 70
Number of sensing applications in policy: 0
