/h/167/acamacho/Experiments-ICAPS18-SynKit/L2/bigprob_94.compact.tlsf.unrealizability.sas parsed.
Heuristic: FF-heuristic.
Algorithm: LAO*-search
INITIAL IS PROVEN!

Result: Strong cyclic plan found.

Time needed for preprocess (Parsing, PDBs, ...):    0.473 seconds.
Time needed for search:                             0.931 seconds.
Time needed:                                        1.404 seconds.
Total Garbage Collections: 2
Total Garbage Collection Time: 0 seconds.

Out of 129 nodes, 100 are proven
Number of node expansions: 94
Policy entries: 94
Number of sensing applications in policy: 0
