/h/167/acamacho/Experiments-ICAPS18-SynKit/L2/bigprob_62.tlsf.unrealizability.sas parsed.
Heuristic: FF-heuristic.
Algorithm: LAO*-search
INITIAL IS DISPROVEN!

Result: No strong cyclic plan found.

Time needed for preprocess (Parsing, PDBs, ...):    0.138 seconds.
Time needed for search:                             1.224 seconds.
Time needed:                                        1.362 seconds.
Total Garbage Collections: 2
Total Garbage Collection Time: 0 seconds.

