/h/167/acamacho/Experiments-ICAPS18-SynKit/L2/bigprob_11.tlsf.unrealizability.sas parsed.
Heuristic: FF-heuristic.
Algorithm: LAO*-search
INITIAL IS PROVEN!

Result: Strong cyclic plan found.

Time needed for preprocess (Parsing, PDBs, ...):    0.233 seconds.
Time needed for search:                             28.175 seconds.
Time needed:                                        28.408 seconds.
Total Garbage Collections: 6
Total Garbage Collection Time: 0 seconds.

Out of 3570 nodes, 571 are proven
Number of node expansions: 2384
Policy entries: 242
Number of sensing applications in policy: 0
