/h/167/acamacho/Experiments-ICAPS18-SynKit/L2/bigprob_24.compact.tlsf.unrealizability.sas parsed.
Heuristic: FF-heuristic.
Algorithm: LAO*-search
INITIAL IS PROVEN!

Result: Strong cyclic plan found.

Time needed for preprocess (Parsing, PDBs, ...):    0.178 seconds.
Time needed for search:                             1.927 seconds.
Time needed:                                        2.105 seconds.
Total Garbage Collections: 2
Total Garbage Collection Time: 0 seconds.

Out of 185 nodes, 67 are proven
Number of node expansions: 169
Policy entries: 33
Number of sensing applications in policy: 0
