/h/167/acamacho/Experiments-ICAPS18-SynKit/L2/bigprob_45.compact.tlsf.unrealizability.sas parsed.
Heuristic: FF-heuristic.
Algorithm: LAO*-search
INITIAL IS PROVEN!

Result: Strong cyclic plan found.

Time needed for preprocess (Parsing, PDBs, ...):    0.242 seconds.
Time needed for search:                             0.283 seconds.
Time needed:                                        0.525 seconds.
Total Garbage Collections: 2
Total Garbage Collection Time: 0 seconds.

Out of 66 nodes, 49 are proven
Number of node expansions: 46
Policy entries: 46
Number of sensing applications in policy: 0
