/h/167/acamacho/Experiments-ICAPS18-SynKit/L2/bigprob_93.tlsf.unrealizability.sas parsed.
Heuristic: FF-heuristic.
Algorithm: LAO*-search
INITIAL IS PROVEN!

Result: Strong cyclic plan found.

Time needed for preprocess (Parsing, PDBs, ...):    1.097 seconds.
Time needed for search:                             9.8 seconds.
Time needed:                                        10.897 seconds.
Total Garbage Collections: 4
Total Garbage Collection Time: 0 seconds.

Out of 2183 nodes, 384 are proven
Number of node expansions: 648
Policy entries: 329
Number of sensing applications in policy: 0
