/h/167/acamacho/Experiments-ICAPS18-SynKit/L2/bigprob_8.compact.tlsf.unrealizability.sas parsed.
Heuristic: FF-heuristic.
Algorithm: LAO*-search
INITIAL IS PROVEN!

Result: Strong cyclic plan found.

Time needed for preprocess (Parsing, PDBs, ...):    1.05 seconds.
Time needed for search:                             0.858 seconds.
Time needed:                                        1.908 seconds.
Total Garbage Collections: 2
Total Garbage Collection Time: 0 seconds.

Out of 104 nodes, 84 are proven
Number of node expansions: 78
Policy entries: 78
Number of sensing applications in policy: 0
