/h/167/acamacho/Experiments-ICAPS18-SynKit/L2/bigprob_48.compact.tlsf.unrealizability.sas parsed.
Heuristic: FF-heuristic.
Algorithm: LAO*-search
INITIAL IS PROVEN!

Result: Strong cyclic plan found.

Time needed for preprocess (Parsing, PDBs, ...):    0.697 seconds.
Time needed for search:                             0.756 seconds.
Time needed:                                        1.453 seconds.
Total Garbage Collections: 2
Total Garbage Collection Time: 0 seconds.

Out of 118 nodes, 93 are proven
Number of node expansions: 87
Policy entries: 87
Number of sensing applications in policy: 0
