/h/167/acamacho/Experiments-ICAPS18-SynKit/L2/bigprob_32.compact.tlsf.unrealizability.sas parsed.
Heuristic: FF-heuristic.
Algorithm: LAO*-search
INITIAL IS PROVEN!

Result: Strong cyclic plan found.

Time needed for preprocess (Parsing, PDBs, ...):    0.474 seconds.
Time needed for search:                             0.642 seconds.
Time needed:                                        1.116 seconds.
Total Garbage Collections: 2
Total Garbage Collection Time: 0 seconds.

Out of 111 nodes, 91 are proven
Number of node expansions: 88
Policy entries: 88
Number of sensing applications in policy: 0
