/h/167/acamacho/Experiments-ICAPS18-SynKit/L2/bigprob_29.tlsf.unrealizability.sas parsed.
Heuristic: FF-heuristic.
Algorithm: LAO*-search
INITIAL IS PROVEN!

Result: Strong cyclic plan found.

Time needed for preprocess (Parsing, PDBs, ...):    0.236 seconds.
Time needed for search:                             22.512 seconds.
Time needed:                                        22.748 seconds.
Total Garbage Collections: 7
Total Garbage Collection Time: 0 seconds.

Out of 7071 nodes, 563 are proven
Number of node expansions: 1447
Policy entries: 408
Number of sensing applications in policy: 0
