/h/167/acamacho/Experiments-ICAPS18-SynKit/L2/bigprob_69.tlsf.unrealizability.sas parsed.
Heuristic: FF-heuristic.
Algorithm: LAO*-search
INITIAL IS PROVEN!

Result: Strong cyclic plan found.

Time needed for preprocess (Parsing, PDBs, ...):    0.501 seconds.
Time needed for search:                             221.538 seconds.
Time needed:                                        222.039 seconds.
Total Garbage Collections: 14
Total Garbage Collection Time: 1 seconds.

Out of 4699 nodes, 447 are proven
Number of node expansions: 3687
Policy entries: 278
Number of sensing applications in policy: 0
