/h/167/acamacho/Experiments-ICAPS18-SynKit/L2/bigprob_74.tlsf.unrealizability.sas parsed.
Heuristic: FF-heuristic.
Algorithm: LAO*-search
INITIAL IS PROVEN!

Result: Strong cyclic plan found.

Time needed for preprocess (Parsing, PDBs, ...):    0.292 seconds.
Time needed for search:                             1.253 seconds.
Time needed:                                        1.545 seconds.
Total Garbage Collections: 2
Total Garbage Collection Time: 0 seconds.

Out of 134 nodes, 62 are proven
Number of node expansions: 59
Policy entries: 59
Number of sensing applications in policy: 0
