/h/167/acamacho/Experiments-ICAPS18-SynKit/L2/bigprob_68.tlsf.unrealizability.sas parsed.
Heuristic: FF-heuristic.
Algorithm: LAO*-search
INITIAL IS DISPROVEN!

Result: No strong cyclic plan found.

Time needed for preprocess (Parsing, PDBs, ...):    0.258 seconds.
Time needed for search:                             331.798 seconds.
Time needed:                                        332.056 seconds.
Total Garbage Collections: 15
Total Garbage Collection Time: 1 seconds.

