/h/167/acamacho/Experiments-ICAPS18-SynKit/L2/bigprob_93.compact.tlsf.unrealizability.sas parsed.
Heuristic: FF-heuristic.
Algorithm: LAO*-search
INITIAL IS PROVEN!

Result: Strong cyclic plan found.

Time needed for preprocess (Parsing, PDBs, ...):    1.053 seconds.
Time needed for search:                             1.6 seconds.
Time needed:                                        2.653 seconds.
Total Garbage Collections: 2
Total Garbage Collection Time: 0 seconds.

Out of 152 nodes, 118 are proven
Number of node expansions: 115
Policy entries: 115
Number of sensing applications in policy: 0
