/h/167/acamacho/Experiments-ICAPS18-SynKit/L2/bigprob_41.tlsf.unrealizability.sas parsed.
Heuristic: FF-heuristic.
Algorithm: LAO*-search
INITIAL IS PROVEN!

Result: Strong cyclic plan found.

Time needed for preprocess (Parsing, PDBs, ...):    0.667 seconds.
Time needed for search:                             3.195 seconds.
Time needed:                                        3.862 seconds.
Total Garbage Collections: 2
Total Garbage Collection Time: 0 seconds.

Out of 446 nodes, 149 are proven
Number of node expansions: 306
Policy entries: 136
Number of sensing applications in policy: 0
