/h/167/acamacho/Experiments-ICAPS18-SynKit/L2/bigprob_63.compact.tlsf.unrealizability.sas parsed.
Heuristic: FF-heuristic.
Algorithm: LAO*-search
INITIAL IS PROVEN!

Result: Strong cyclic plan found.

Time needed for preprocess (Parsing, PDBs, ...):    0.224 seconds.
Time needed for search:                             0.573 seconds.
Time needed:                                        0.797 seconds.
Total Garbage Collections: 2
Total Garbage Collection Time: 0 seconds.

Out of 73 nodes, 62 are proven
Number of node expansions: 59
Policy entries: 59
Number of sensing applications in policy: 0
