/h/167/acamacho/Experiments-ICAPS18-SynKit/L2/bigprob_70.compact.tlsf.unrealizability.sas parsed.
Heuristic: FF-heuristic.
Algorithm: LAO*-search
INITIAL IS PROVEN!

Result: Strong cyclic plan found.

Time needed for preprocess (Parsing, PDBs, ...):    0.528 seconds.
Time needed for search:                             0.773 seconds.
Time needed:                                        1.301 seconds.
Total Garbage Collections: 2
Total Garbage Collection Time: 0 seconds.

Out of 109 nodes, 86 are proven
Number of node expansions: 81
Policy entries: 81
Number of sensing applications in policy: 0
