/h/167/acamacho/Experiments-ICAPS18-SynKit/L2/bigprob_94.tlsf.unrealizability.sas parsed.
Heuristic: FF-heuristic.
Algorithm: LAO*-search
INITIAL IS PROVEN!

Result: Strong cyclic plan found.

Time needed for preprocess (Parsing, PDBs, ...):    1.004 seconds.
Time needed for search:                             1.784 seconds.
Time needed:                                        2.788 seconds.
Total Garbage Collections: 2
Total Garbage Collection Time: 0 seconds.

Out of 154 nodes, 89 are proven
Number of node expansions: 84
Policy entries: 84
Number of sensing applications in policy: 0
