/h/167/acamacho/Experiments-ICAPS18-SynKit/L2/bigprob_58.compact.tlsf.unrealizability.sas parsed.
Heuristic: FF-heuristic.
Algorithm: LAO*-search
INITIAL IS PROVEN!

Result: Strong cyclic plan found.

Time needed for preprocess (Parsing, PDBs, ...):    0.433 seconds.
Time needed for search:                             0.804 seconds.
Time needed:                                        1.237 seconds.
Total Garbage Collections: 2
Total Garbage Collection Time: 0 seconds.

Out of 175 nodes, 141 are proven
Number of node expansions: 138
Policy entries: 138
Number of sensing applications in policy: 0
