/h/167/acamacho/Experiments-ICAPS18-SynKit/L1/bigprob_95.compact.tlsf.unrealizability.sas parsed.
Heuristic: FF-heuristic.
Algorithm: LAO*-search
INITIAL IS PROVEN!

Result: Strong cyclic plan found.

Time needed for preprocess (Parsing, PDBs, ...):    1.314 seconds.
Time needed for search:                             1.32 seconds.
Time needed:                                        2.634 seconds.
Total Garbage Collections: 2
Total Garbage Collection Time: 0 seconds.

Out of 122 nodes, 115 are proven
Number of node expansions: 109
Policy entries: 109
Number of sensing applications in policy: 0
