/h/167/acamacho/Experiments-ICAPS18-SynKit/L1/bigprob_66.compact.tlsf.unrealizability.sas parsed.
Heuristic: FF-heuristic.
Algorithm: LAO*-search
INITIAL IS PROVEN!

Result: Strong cyclic plan found.

Time needed for preprocess (Parsing, PDBs, ...):    0.296 seconds.
Time needed for search:                             0.165 seconds.
Time needed:                                        0.461 seconds.
Total Garbage Collections: 2
Total Garbage Collection Time: 0 seconds.

Out of 20 nodes, 17 are proven
Number of node expansions: 15
Policy entries: 15
Number of sensing applications in policy: 0
