/h/167/acamacho/Experiments-ICAPS18-SynKit/L1/bigprob_26.tlsf.unrealizability.sas parsed.
Heuristic: FF-heuristic.
Algorithm: LAO*-search
INITIAL IS PROVEN!

Result: Strong cyclic plan found.

Time needed for preprocess (Parsing, PDBs, ...):    0.116 seconds.
Time needed for search:                             1.355 seconds.
Time needed:                                        1.471 seconds.
Total Garbage Collections: 2
Total Garbage Collection Time: 0 seconds.

Out of 344 nodes, 99 are proven
Number of node expansions: 262
Policy entries: 79
Number of sensing applications in policy: 0
