/h/167/acamacho/Experiments-ICAPS18-SynKit/L1/bigprob_72.compact.tlsf.unrealizability.sas parsed.
Heuristic: FF-heuristic.
Algorithm: LAO*-search
INITIAL IS DISPROVEN!

Result: No strong cyclic plan found.

Time needed for preprocess (Parsing, PDBs, ...):    0.13 seconds.
Time needed for search:                             0.084 seconds.
Time needed:                                        0.214 seconds.
Total Garbage Collections: 2
Total Garbage Collection Time: 0 seconds.

