/h/167/acamacho/Experiments-ICAPS18-SynKit/L1/bigprob_77.tlsf.unrealizability.sas parsed.
Heuristic: FF-heuristic.
Algorithm: LAO*-search
INITIAL IS PROVEN!

Result: Strong cyclic plan found.

Time needed for preprocess (Parsing, PDBs, ...):    3.125 seconds.
Time needed for search:                             9.132 seconds.
Time needed:                                        12.257 seconds.
Total Garbage Collections: 3
Total Garbage Collection Time: 2 seconds.

Out of 459 nodes, 125 are proven
Number of node expansions: 120
Policy entries: 120
Number of sensing applications in policy: 0
