/h/167/acamacho/Experiments-ICAPS18-SynKit/L1/bigprob_56.tlsf.unrealizability.sas parsed.
Heuristic: FF-heuristic.
Algorithm: LAO*-search
INITIAL IS PROVEN!

Result: Strong cyclic plan found.

Time needed for preprocess (Parsing, PDBs, ...):    0.288 seconds.
Time needed for search:                             0.61 seconds.
Time needed:                                        0.898 seconds.
Total Garbage Collections: 2
Total Garbage Collection Time: 0 seconds.

Out of 69 nodes, 52 are proven
Number of node expansions: 47
Policy entries: 47
Number of sensing applications in policy: 0
