/h/167/acamacho/Experiments-ICAPS18-SynKit/L1/bigprob_25.tlsf.unrealizability.sas parsed.
Heuristic: FF-heuristic.
Algorithm: LAO*-search
INITIAL IS PROVEN!

Result: Strong cyclic plan found.

Time needed for preprocess (Parsing, PDBs, ...):    0.147 seconds.
Time needed for search:                             1.987 seconds.
Time needed:                                        2.134 seconds.
Total Garbage Collections: 2
Total Garbage Collection Time: 0 seconds.

Out of 422 nodes, 115 are proven
Number of node expansions: 289
Policy entries: 87
Number of sensing applications in policy: 0
