/h/167/acamacho/Experiments-ICAPS18-SynKit/L1/bigprob_11.tlsf.unrealizability.sas parsed.
Heuristic: FF-heuristic.
Algorithm: LAO*-search
INITIAL IS PROVEN!

Result: Strong cyclic plan found.

Time needed for preprocess (Parsing, PDBs, ...):    0.233 seconds.
Time needed for search:                             0.424 seconds.
Time needed:                                        0.657 seconds.
Total Garbage Collections: 2
Total Garbage Collection Time: 0 seconds.

Out of 58 nodes, 25 are proven
Number of node expansions: 52
Policy entries: 15
Number of sensing applications in policy: 0
