/h/167/acamacho/Experiments-ICAPS18-SynKit/L1/bigprob_33.tlsf.unrealizability.sas parsed.
Heuristic: FF-heuristic.
Algorithm: LAO*-search
INITIAL IS DISPROVEN!

Result: No strong cyclic plan found.

Time needed for preprocess (Parsing, PDBs, ...):    0.125 seconds.
Time needed for search:                             1.109 seconds.
Time needed:                                        1.234 seconds.
Total Garbage Collections: 2
Total Garbage Collection Time: 0 seconds.

