/h/167/acamacho/Experiments-ICAPS18-SynKit/L1/bigprob_23.tlsf.unrealizability.sas parsed.
Heuristic: FF-heuristic.
Algorithm: LAO*-search
INITIAL IS DISPROVEN!

Result: No strong cyclic plan found.

Time needed for preprocess (Parsing, PDBs, ...):    0.115 seconds.
Time needed for search:                             0.286 seconds.
Time needed:                                        0.401 seconds.
Total Garbage Collections: 2
Total Garbage Collection Time: 0 seconds.

