/h/167/acamacho/Experiments-ICAPS18-SynKit/L1/bigprob_42.compact.tlsf.unrealizability.sas parsed.
Heuristic: FF-heuristic.
Algorithm: LAO*-search
INITIAL IS PROVEN!

Result: Strong cyclic plan found.

Time needed for preprocess (Parsing, PDBs, ...):    0.974 seconds.
Time needed for search:                             0.735 seconds.
Time needed:                                        1.709 seconds.
Total Garbage Collections: 2
Total Garbage Collection Time: 0 seconds.

Out of 72 nodes, 58 are proven
Number of node expansions: 52
Policy entries: 52
Number of sensing applications in policy: 0
