/h/167/acamacho/Experiments-ICAPS18-SynKit/L1/bigprob_47.compact.tlsf.unrealizability.sas parsed.
Heuristic: FF-heuristic.
Algorithm: LAO*-search
INITIAL IS DISPROVEN!

Result: No strong cyclic plan found.

Time needed for preprocess (Parsing, PDBs, ...):    1.127 seconds.
Time needed for search:                             0.252 seconds.
Time needed:                                        1.379 seconds.
Total Garbage Collections: 2
Total Garbage Collection Time: 0 seconds.

