/h/167/acamacho/Experiments-ICAPS18-SynKit/L1/bigprob_5.tlsf.unrealizability.sas parsed.
Heuristic: FF-heuristic.
Algorithm: LAO*-search
INITIAL IS PROVEN!

Result: Strong cyclic plan found.

Time needed for preprocess (Parsing, PDBs, ...):    0.525 seconds.
Time needed for search:                             1.364 seconds.
Time needed:                                        1.889 seconds.
Total Garbage Collections: 2
Total Garbage Collection Time: 0 seconds.

Out of 236 nodes, 95 are proven
Number of node expansions: 175
Policy entries: 78
Number of sensing applications in policy: 0
