/h/167/acamacho/Experiments-ICAPS18-SynKit/L4/bigprob_28.tlsf.unrealizability.sas parsed.
Heuristic: FF-heuristic.
Algorithm: LAO*-search
INITIAL IS PROVEN!

Result: Strong cyclic plan found.

Time needed for preprocess (Parsing, PDBs, ...):    1.0 seconds.
Time needed for search:                             1019.96 seconds.
Time needed:                                        1020.96 seconds.
Total Garbage Collections: 20
Total Garbage Collection Time: 3 seconds.

Out of 17107 nodes, 935 are proven
Number of node expansions: 3743
Policy entries: 637
Number of sensing applications in policy: 0
