/h/167/acamacho/Experiments-ICAPS18-SynKit/L4/bigprob_78.tlsf.unrealizability.sas parsed.
Heuristic: FF-heuristic.
Algorithm: LAO*-search
INITIAL IS PROVEN!

Result: Strong cyclic plan found.

Time needed for preprocess (Parsing, PDBs, ...):    0.249 seconds.
Time needed for search:                             93.725 seconds.
Time needed:                                        93.974 seconds.
Total Garbage Collections: 10
Total Garbage Collection Time: 1 seconds.

Out of 18564 nodes, 902 are proven
Number of node expansions: 3340
Policy entries: 707
Number of sensing applications in policy: 0
