/h/167/acamacho/Experiments-ICAPS18-SynKit/L4/bigprob_4.tlsf.unrealizability.sas parsed.
Heuristic: FF-heuristic.
Algorithm: LAO*-search
INITIAL IS PROVEN!

Result: Strong cyclic plan found.

Time needed for preprocess (Parsing, PDBs, ...):    0.226 seconds.
Time needed for search:                             2.163 seconds.
Time needed:                                        2.389 seconds.
Total Garbage Collections: 2
Total Garbage Collection Time: 0 seconds.

Out of 407 nodes, 101 are proven
Number of node expansions: 98
Policy entries: 98
Number of sensing applications in policy: 0
