/h/167/acamacho/Experiments-ICAPS18-SynKit/L4/bigprob_30.compact.tlsf.unrealizability.sas parsed.
Heuristic: FF-heuristic.
Algorithm: LAO*-search
INITIAL IS PROVEN!

Result: Strong cyclic plan found.

Time needed for preprocess (Parsing, PDBs, ...):    1.092 seconds.
Time needed for search:                             3.192 seconds.
Time needed:                                        4.284 seconds.
Total Garbage Collections: 2
Total Garbage Collection Time: 0 seconds.

Out of 286 nodes, 243 are proven
Number of node expansions: 237
Policy entries: 237
Number of sensing applications in policy: 0
