/h/167/acamacho/Experiments-ICAPS18-SynKit/L4/bigprob_84.tlsf.unrealizability.sas parsed.
Heuristic: FF-heuristic.
Algorithm: LAO*-search
INITIAL IS PROVEN!

Result: Strong cyclic plan found.

Time needed for preprocess (Parsing, PDBs, ...):    0.377 seconds.
Time needed for search:                             46.148 seconds.
Time needed:                                        46.525 seconds.
Total Garbage Collections: 7
Total Garbage Collection Time: 0 seconds.

Out of 3111 nodes, 532 are proven
Number of node expansions: 1228
Policy entries: 447
Number of sensing applications in policy: 0
