/h/167/acamacho/Experiments-ICAPS18-SynKit/L4/bigprob_94.compact.tlsf.unrealizability.sas parsed.
Heuristic: FF-heuristic.
Algorithm: LAO*-search
INITIAL IS PROVEN!

Result: Strong cyclic plan found.

Time needed for preprocess (Parsing, PDBs, ...):    0.772 seconds.
Time needed for search:                             3.916 seconds.
Time needed:                                        4.688 seconds.
Total Garbage Collections: 2
Total Garbage Collection Time: 0 seconds.

Out of 938 nodes, 658 are proven
Number of node expansions: 655
Policy entries: 655
Number of sensing applications in policy: 0
