/h/167/acamacho/Experiments-ICAPS18-SynKit/L4/bigprob_83.compact.tlsf.unrealizability.sas parsed.
Heuristic: FF-heuristic.
Algorithm: LAO*-search
INITIAL IS PROVEN!

Result: Strong cyclic plan found.

Time needed for preprocess (Parsing, PDBs, ...):    0.935 seconds.
Time needed for search:                             3.826 seconds.
Time needed:                                        4.761 seconds.
Total Garbage Collections: 2
Total Garbage Collection Time: 0 seconds.

Out of 543 nodes, 263 are proven
Number of node expansions: 257
Policy entries: 257
Number of sensing applications in policy: 0
