/h/167/acamacho/Experiments-ICAPS18-SynKit/L4/bigprob_89.tlsf.unrealizability.sas parsed.
Heuristic: FF-heuristic.
Algorithm: LAO*-search
INITIAL IS PROVEN!

Result: Strong cyclic plan found.

Time needed for preprocess (Parsing, PDBs, ...):    1.245 seconds.
Time needed for search:                             277.135 seconds.
Time needed:                                        278.38 seconds.
Total Garbage Collections: 9
Total Garbage Collection Time: 1 seconds.

Out of 4801 nodes, 306 are proven
Number of node expansions: 3480
Policy entries: 154
Number of sensing applications in policy: 0
