/h/167/acamacho/Experiments-ICAPS18-SynKit/L4/bigprob_20.tlsf.unrealizability.sas parsed.
Heuristic: FF-heuristic.
Algorithm: LAO*-search
INITIAL IS PROVEN!

Result: Strong cyclic plan found.

Time needed for preprocess (Parsing, PDBs, ...):    1.242 seconds.
Time needed for search:                             8.915 seconds.
Time needed:                                        10.157 seconds.
Total Garbage Collections: 3
Total Garbage Collection Time: 0 seconds.

Out of 838 nodes, 205 are proven
Number of node expansions: 200
Policy entries: 200
Number of sensing applications in policy: 0
