/h/167/acamacho/Experiments-ICAPS18-SynKit/L4/bigprob_64.compact.tlsf.unrealizability.sas parsed.
Heuristic: FF-heuristic.
Algorithm: LAO*-search
INITIAL IS PROVEN!

Result: Strong cyclic plan found.

Time needed for preprocess (Parsing, PDBs, ...):    1.509 seconds.
Time needed for search:                             10.481 seconds.
Time needed:                                        11.99 seconds.
Total Garbage Collections: 2
Total Garbage Collection Time: 0 seconds.

Out of 629 nodes, 169 are proven
Number of node expansions: 404
Policy entries: 162
Number of sensing applications in policy: 0
