/h/167/acamacho/Experiments-ICAPS18-SynKit/L4/bigprob_14.compact.tlsf.unrealizability.sas parsed.
Heuristic: FF-heuristic.
Algorithm: LAO*-search
INITIAL IS PROVEN!

Result: Strong cyclic plan found.

Time needed for preprocess (Parsing, PDBs, ...):    1.344 seconds.
Time needed for search:                             1927.651 seconds.
Time needed:                                        1928.995 seconds.
Total Garbage Collections: 32
Total Garbage Collection Time: 3 seconds.

Out of 14120 nodes, 8208 are proven
Number of node expansions: 9379
Policy entries: 7536
Number of sensing applications in policy: 0
