/h/167/acamacho/Experiments-ICAPS18-SynKit/L4/bigprob_9.tlsf.unrealizability.sas parsed.
Heuristic: FF-heuristic.
Algorithm: LAO*-search
INITIAL IS PROVEN!

Result: Strong cyclic plan found.

Time needed for preprocess (Parsing, PDBs, ...):    1.234 seconds.
Time needed for search:                             38.346 seconds.
Time needed:                                        39.58 seconds.
Total Garbage Collections: 5
Total Garbage Collection Time: 0 seconds.

Out of 3661 nodes, 499 are proven
Number of node expansions: 494
Policy entries: 494
Number of sensing applications in policy: 0
