/h/167/acamacho/Experiments-ICAPS18-SynKit/L4/bigprob_25.compact.tlsf.unrealizability.sas parsed.
Heuristic: FF-heuristic.
Algorithm: LAO*-search
INITIAL IS PROVEN!

Result: Strong cyclic plan found.

Time needed for preprocess (Parsing, PDBs, ...):    1.065 seconds.
Time needed for search:                             4.239 seconds.
Time needed:                                        5.304 seconds.
Total Garbage Collections: 2
Total Garbage Collection Time: 0 seconds.

Out of 877 nodes, 112 are proven
Number of node expansions: 546
Policy entries: 71
Number of sensing applications in policy: 0
