/h/167/acamacho/Experiments-ICAPS18-SynKit/L4/bigprob_8.tlsf.unrealizability.sas parsed.
Heuristic: FF-heuristic.
Algorithm: LAO*-search
INITIAL IS PROVEN!

Result: Strong cyclic plan found.

Time needed for preprocess (Parsing, PDBs, ...):    0.974 seconds.
Time needed for search:                             2045.883 seconds.
Time needed:                                        2046.857 seconds.
Total Garbage Collections: 39
Total Garbage Collection Time: 14 seconds.

Out of 35203 nodes, 1689 are proven
Number of node expansions: 8049
Policy entries: 1244
Number of sensing applications in policy: 0
