/h/167/acamacho/Experiments-ICAPS18-SynKit/L4/bigprob_71.tlsf.unrealizability.sas parsed.
Heuristic: FF-heuristic.
Algorithm: LAO*-search
INITIAL IS PROVEN!

Result: Strong cyclic plan found.

Time needed for preprocess (Parsing, PDBs, ...):    1.375 seconds.
Time needed for search:                             363.918 seconds.
Time needed:                                        365.293 seconds.
Total Garbage Collections: 8
Total Garbage Collection Time: 1 seconds.

Out of 4036 nodes, 318 are proven
Number of node expansions: 2898
Policy entries: 51
Number of sensing applications in policy: 0
