/h/167/acamacho/Experiments-ICAPS18-SynKit/L4/bigprob_63.compact.tlsf.unrealizability.sas parsed.
Heuristic: FF-heuristic.
Algorithm: LAO*-search
INITIAL IS PROVEN!

Result: Strong cyclic plan found.

Time needed for preprocess (Parsing, PDBs, ...):    1.68 seconds.
Time needed for search:                             6.062 seconds.
Time needed:                                        7.742 seconds.
Total Garbage Collections: 2
Total Garbage Collection Time: 0 seconds.

Out of 367 nodes, 170 are proven
Number of node expansions: 167
Policy entries: 167
Number of sensing applications in policy: 0
