/h/167/acamacho/Experiments-ICAPS18-SynKit/L4/bigprob_56.compact.tlsf.unrealizability.sas parsed.
Heuristic: FF-heuristic.
Algorithm: LAO*-search
INITIAL IS PROVEN!

Result: Strong cyclic plan found.

Time needed for preprocess (Parsing, PDBs, ...):    0.58 seconds.
Time needed for search:                             1.62 seconds.
Time needed:                                        2.2 seconds.
Total Garbage Collections: 2
Total Garbage Collection Time: 0 seconds.

Out of 415 nodes, 209 are proven
Number of node expansions: 206
Policy entries: 206
Number of sensing applications in policy: 0
