/h/167/acamacho/Experiments-ICAPS18-SynKit/L4/bigprob_92.tlsf.unrealizability.sas parsed.
Heuristic: FF-heuristic.
Algorithm: LAO*-search
INITIAL IS PROVEN!

Result: Strong cyclic plan found.

Time needed for preprocess (Parsing, PDBs, ...):    0.545 seconds.
Time needed for search:                             536.256 seconds.
Time needed:                                        536.801 seconds.
Total Garbage Collections: 14
Total Garbage Collection Time: 1 seconds.

Out of 17547 nodes, 1131 are proven
Number of node expansions: 3622
Policy entries: 608
Number of sensing applications in policy: 0
