/h/167/acamacho/Experiments-ICAPS18-SynKit/L4/bigprob_3.tlsf.unrealizability.sas parsed.
Heuristic: FF-heuristic.
Algorithm: LAO*-search
INITIAL IS PROVEN!

Result: Strong cyclic plan found.

Time needed for preprocess (Parsing, PDBs, ...):    0.657 seconds.
Time needed for search:                             15.78 seconds.
Time needed:                                        16.437 seconds.
Total Garbage Collections: 6
Total Garbage Collection Time: 0 seconds.

Out of 3957 nodes, 675 are proven
Number of node expansions: 1431
Policy entries: 606
Number of sensing applications in policy: 0
