/h/167/acamacho/Experiments-ICAPS18-SynKit/L4/bigprob_84.compact.tlsf.unrealizability.sas parsed.
Heuristic: FF-heuristic.
Algorithm: LAO*-search
INITIAL IS PROVEN!

Result: Strong cyclic plan found.

Time needed for preprocess (Parsing, PDBs, ...):    0.92 seconds.
Time needed for search:                             10.555 seconds.
Time needed:                                        11.475 seconds.
Total Garbage Collections: 3
Total Garbage Collection Time: 0 seconds.

Out of 1193 nodes, 466 are proven
Number of node expansions: 770
Policy entries: 428
Number of sensing applications in policy: 0
