/h/167/acamacho/Experiments-ICAPS18-SynKit/L4/bigprob_31.tlsf.unrealizability.sas parsed.
Heuristic: FF-heuristic.
Algorithm: LAO*-search
INITIAL IS PROVEN!

Result: Strong cyclic plan found.

Time needed for preprocess (Parsing, PDBs, ...):    1.179 seconds.
Time needed for search:                             563.438 seconds.
Time needed:                                        564.617 seconds.
Total Garbage Collections: 26
Total Garbage Collection Time: 4 seconds.

Out of 27229 nodes, 609 are proven
Number of node expansions: 21787
Policy entries: 401
Number of sensing applications in policy: 0
