/h/167/acamacho/Experiments-ICAPS18-SynKit/L4/bigprob_35.compact.tlsf.unrealizability.sas parsed.
Heuristic: FF-heuristic.
Algorithm: LAO*-search
INITIAL IS PROVEN!

Result: Strong cyclic plan found.

Time needed for preprocess (Parsing, PDBs, ...):    0.699 seconds.
Time needed for search:                             8.308 seconds.
Time needed:                                        9.007 seconds.
Total Garbage Collections: 3
Total Garbage Collection Time: 0 seconds.

Out of 1075 nodes, 450 are proven
Number of node expansions: 445
Policy entries: 445
Number of sensing applications in policy: 0
