/h/167/acamacho/Experiments-ICAPS18-SynKit/L4/bigprob_23.tlsf.unrealizability.sas parsed.
Heuristic: FF-heuristic.
Algorithm: LAO*-search
INITIAL IS PROVEN!

Result: Strong cyclic plan found.

Time needed for preprocess (Parsing, PDBs, ...):    4.246 seconds.
Time needed for search:                             566.305 seconds.
Time needed:                                        570.551 seconds.
Total Garbage Collections: 7
Total Garbage Collection Time: 4 seconds.

Out of 7104 nodes, 417 are proven
Number of node expansions: 1361
Policy entries: 280
Number of sensing applications in policy: 0
