/h/167/acamacho/Experiments-ICAPS18-SynKit/L4/bigprob_71.compact.tlsf.unrealizability.sas parsed.
Heuristic: FF-heuristic.
Algorithm: LAO*-search
INITIAL IS PROVEN!

Result: Strong cyclic plan found.

Time needed for preprocess (Parsing, PDBs, ...):    0.537 seconds.
Time needed for search:                             1.318 seconds.
Time needed:                                        1.855 seconds.
Total Garbage Collections: 2
Total Garbage Collection Time: 0 seconds.

Out of 498 nodes, 76 are proven
Number of node expansions: 291
Policy entries: 48
Number of sensing applications in policy: 0
