/h/167/acamacho/Experiments-ICAPS18-SynKit/L4/bigprob_74.compact.tlsf.unrealizability.sas parsed.
Heuristic: FF-heuristic.
Algorithm: LAO*-search
INITIAL IS PROVEN!

Result: Strong cyclic plan found.

Time needed for preprocess (Parsing, PDBs, ...):    1.412 seconds.
Time needed for search:                             4.539 seconds.
Time needed:                                        5.951 seconds.
Total Garbage Collections: 2
Total Garbage Collection Time: 0 seconds.

Out of 606 nodes, 199 are proven
Number of node expansions: 368
Policy entries: 191
Number of sensing applications in policy: 0
