/h/167/acamacho/Experiments-ICAPS18-SynKit/L4/bigprob_80.compact.tlsf.unrealizability.sas parsed.
Heuristic: FF-heuristic.
Algorithm: LAO*-search
INITIAL IS PROVEN!

Result: Strong cyclic plan found.

Time needed for preprocess (Parsing, PDBs, ...):    0.909 seconds.
Time needed for search:                             8.369 seconds.
Time needed:                                        9.278 seconds.
Total Garbage Collections: 3
Total Garbage Collection Time: 0 seconds.

Out of 866 nodes, 414 are proven
Number of node expansions: 640
Policy entries: 364
Number of sensing applications in policy: 0
