/h/167/acamacho/Experiments-ICAPS18-SynKit/L4/bigprob_62.tlsf.unrealizability.sas parsed.
Heuristic: FF-heuristic.
Algorithm: LAO*-search
INITIAL IS PROVEN!

Result: Strong cyclic plan found.

Time needed for preprocess (Parsing, PDBs, ...):    0.451 seconds.
Time needed for search:                             18.138 seconds.
Time needed:                                        18.589 seconds.
Total Garbage Collections: 6
Total Garbage Collection Time: 0 seconds.

Out of 5902 nodes, 372 are proven
Number of node expansions: 887
Policy entries: 344
Number of sensing applications in policy: 0
