/h/167/acamacho/Experiments-ICAPS18-SynKit/L4/bigprob_67.compact.tlsf.unrealizability.sas parsed.
Heuristic: FF-heuristic.
Algorithm: LAO*-search
INITIAL IS PROVEN!

Result: Strong cyclic plan found.

Time needed for preprocess (Parsing, PDBs, ...):    1.296 seconds.
Time needed for search:                             2.107 seconds.
Time needed:                                        3.403 seconds.
Total Garbage Collections: 2
Total Garbage Collection Time: 0 seconds.

Out of 261 nodes, 125 are proven
Number of node expansions: 122
Policy entries: 122
Number of sensing applications in policy: 0
