/h/167/acamacho/Experiments-ICAPS18-SynKit/L4/bigprob_11.compact.tlsf.unrealizability.sas parsed.
Heuristic: FF-heuristic.
Algorithm: LAO*-search
INITIAL IS PROVEN!

Result: Strong cyclic plan found.

Time needed for preprocess (Parsing, PDBs, ...):    0.97 seconds.
Time needed for search:                             14.23 seconds.
Time needed:                                        15.2 seconds.
Total Garbage Collections: 3
Total Garbage Collection Time: 0 seconds.

Out of 1938 nodes, 732 are proven
Number of node expansions: 760
Policy entries: 722
Number of sensing applications in policy: 0
