/h/167/acamacho/Experiments-ICAPS18-SynKit/L4/bigprob_45.tlsf.unrealizability.sas parsed.
Heuristic: FF-heuristic.
Algorithm: LAO*-search
INITIAL IS PROVEN!

Result: Strong cyclic plan found.

Time needed for preprocess (Parsing, PDBs, ...):    1.154 seconds.
Time needed for search:                             62.003 seconds.
Time needed:                                        63.157 seconds.
Total Garbage Collections: 6
Total Garbage Collection Time: 1 seconds.

Out of 3562 nodes, 549 are proven
Number of node expansions: 1279
Policy entries: 434
Number of sensing applications in policy: 0
