/h/167/acamacho/Experiments-ICAPS18-SynKit/L4/bigprob_12.compact.tlsf.unrealizability.sas parsed.
Heuristic: FF-heuristic.
Algorithm: LAO*-search
INITIAL IS PROVEN!

Result: Strong cyclic plan found.

Time needed for preprocess (Parsing, PDBs, ...):    1.315 seconds.
Time needed for search:                             3.276 seconds.
Time needed:                                        4.591 seconds.
Total Garbage Collections: 2
Total Garbage Collection Time: 0 seconds.

Out of 319 nodes, 157 are proven
Number of node expansions: 153
Policy entries: 153
Number of sensing applications in policy: 0
