/h/167/acamacho/Experiments-ICAPS18-SynKit/L4/bigprob_83.tlsf.unrealizability.sas parsed.
Heuristic: FF-heuristic.
Algorithm: LAO*-search
INITIAL IS PROVEN!

Result: Strong cyclic plan found.

Time needed for preprocess (Parsing, PDBs, ...):    0.343 seconds.
Time needed for search:                             6.72 seconds.
Time needed:                                        7.063 seconds.
Total Garbage Collections: 3
Total Garbage Collection Time: 0 seconds.

Out of 1222 nodes, 288 are proven
Number of node expansions: 283
Policy entries: 283
Number of sensing applications in policy: 0
