/h/167/acamacho/Experiments-ICAPS18-SynKit/L4/bigprob_4.compact.tlsf.unrealizability.sas parsed.
Heuristic: FF-heuristic.
Algorithm: LAO*-search
INITIAL IS PROVEN!

Result: Strong cyclic plan found.

Time needed for preprocess (Parsing, PDBs, ...):    0.182 seconds.
Time needed for search:                             0.311 seconds.
Time needed:                                        0.493 seconds.
Total Garbage Collections: 2
Total Garbage Collection Time: 0 seconds.

Out of 74 nodes, 50 are proven
Number of node expansions: 48
Policy entries: 48
Number of sensing applications in policy: 0
