/h/167/acamacho/Experiments-ICAPS18-SynKit/L4/bigprob_66.compact.tlsf.unrealizability.sas parsed.
Heuristic: FF-heuristic.
Algorithm: LAO*-search
INITIAL IS PROVEN!

Result: Strong cyclic plan found.

Time needed for preprocess (Parsing, PDBs, ...):    0.85 seconds.
Time needed for search:                             4.029 seconds.
Time needed:                                        4.879 seconds.
Total Garbage Collections: 2
Total Garbage Collection Time: 0 seconds.

Out of 612 nodes, 337 are proven
Number of node expansions: 375
Policy entries: 320
Number of sensing applications in policy: 0
