/h/167/acamacho/Experiments-ICAPS18-SynKit/L4/bigprob_6.compact.tlsf.unrealizability.sas parsed.
Heuristic: FF-heuristic.
Algorithm: LAO*-search
INITIAL IS PROVEN!

Result: Strong cyclic plan found.

Time needed for preprocess (Parsing, PDBs, ...):    1.167 seconds.
Time needed for search:                             3.545 seconds.
Time needed:                                        4.712 seconds.
Total Garbage Collections: 2
Total Garbage Collection Time: 0 seconds.

Out of 319 nodes, 152 are proven
Number of node expansions: 150
Policy entries: 150
Number of sensing applications in policy: 0
