/h/167/acamacho/Experiments-ICAPS18-SynKit/L4/bigprob_49.tlsf.unrealizability.sas parsed.
Heuristic: FF-heuristic.
Algorithm: LAO*-search
INITIAL IS PROVEN!

Result: Strong cyclic plan found.

Time needed for preprocess (Parsing, PDBs, ...):    0.173 seconds.
Time needed for search:                             16.402 seconds.
Time needed:                                        16.575 seconds.
Total Garbage Collections: 5
Total Garbage Collection Time: 0 seconds.

Out of 2597 nodes, 427 are proven
Number of node expansions: 1524
Policy entries: 329
Number of sensing applications in policy: 0
