/h/167/acamacho/Experiments-ICAPS18-SynKit/L4/bigprob_33.tlsf.unrealizability.sas parsed.
Heuristic: FF-heuristic.
Algorithm: LAO*-search
INITIAL IS PROVEN!

Result: Strong cyclic plan found.

Time needed for preprocess (Parsing, PDBs, ...):    1.448 seconds.
Time needed for search:                             243.402 seconds.
Time needed:                                        244.85 seconds.
Total Garbage Collections: 8
Total Garbage Collection Time: 1 seconds.

Out of 8418 nodes, 545 are proven
Number of node expansions: 1783
Policy entries: 414
Number of sensing applications in policy: 0
