/h/167/acamacho/Experiments-ICAPS18-SynKit/L4/bigprob_44.tlsf.unrealizability.sas parsed.
Heuristic: FF-heuristic.
Algorithm: LAO*-search
INITIAL IS PROVEN!

Result: Strong cyclic plan found.

Time needed for preprocess (Parsing, PDBs, ...):    6.817 seconds.
Time needed for search:                             19.738 seconds.
Time needed:                                        26.555 seconds.
Total Garbage Collections: 3
Total Garbage Collection Time: 5 seconds.

Out of 587 nodes, 177 are proven
Number of node expansions: 172
Policy entries: 172
Number of sensing applications in policy: 0
