/h/167/acamacho/Experiments-ICAPS18-SynKit/L4/bigprob_65.tlsf.unrealizability.sas parsed.
Heuristic: FF-heuristic.
Algorithm: LAO*-search
INITIAL IS PROVEN!

Result: Strong cyclic plan found.

Time needed for preprocess (Parsing, PDBs, ...):    1.349 seconds.
Time needed for search:                             7.223 seconds.
Time needed:                                        8.572 seconds.
Total Garbage Collections: 2
Total Garbage Collection Time: 0 seconds.

Out of 549 nodes, 120 are proven
Number of node expansions: 117
Policy entries: 117
Number of sensing applications in policy: 0
