/h/167/acamacho/Experiments-ICAPS18-SynKit/L4/bigprob_21.compact.tlsf.unrealizability.sas parsed.
Heuristic: FF-heuristic.
Algorithm: LAO*-search
INITIAL IS PROVEN!

Result: Strong cyclic plan found.

Time needed for preprocess (Parsing, PDBs, ...):    0.666 seconds.
Time needed for search:                             2.513 seconds.
Time needed:                                        3.179 seconds.
Total Garbage Collections: 2
Total Garbage Collection Time: 0 seconds.

Out of 571 nodes, 292 are proven
Number of node expansions: 290
Policy entries: 290
Number of sensing applications in policy: 0
