/h/167/acamacho/Experiments-ICAPS18-SynKit/L4/bigprob_33.compact.tlsf.unrealizability.sas parsed.
Heuristic: FF-heuristic.
Algorithm: LAO*-search
INITIAL IS PROVEN!

Result: Strong cyclic plan found.

Time needed for preprocess (Parsing, PDBs, ...):    1.194 seconds.
Time needed for search:                             3.982 seconds.
Time needed:                                        5.176 seconds.
Total Garbage Collections: 2
Total Garbage Collection Time: 0 seconds.

Out of 454 nodes, 198 are proven
Number of node expansions: 195
Policy entries: 195
Number of sensing applications in policy: 0
