/h/167/acamacho/Experiments-ICAPS18-SynKit/L4/bigprob_34.tlsf.unrealizability.sas parsed.
Heuristic: FF-heuristic.
Algorithm: LAO*-search
INITIAL IS PROVEN!

Result: Strong cyclic plan found.

Time needed for preprocess (Parsing, PDBs, ...):    2.076 seconds.
Time needed for search:                             17.038 seconds.
Time needed:                                        19.114 seconds.
Total Garbage Collections: 3
Total Garbage Collection Time: 1 seconds.

Out of 990 nodes, 202 are proven
Number of node expansions: 199
Policy entries: 199
Number of sensing applications in policy: 0
