/h/167/acamacho/Experiments-ICAPS18-SynKit/L4/bigprob_96.compact.tlsf.unrealizability.sas parsed.
Heuristic: FF-heuristic.
Algorithm: LAO*-search
INITIAL IS PROVEN!

Result: Strong cyclic plan found.

Time needed for preprocess (Parsing, PDBs, ...):    1.006 seconds.
Time needed for search:                             5.33 seconds.
Time needed:                                        6.336 seconds.
Total Garbage Collections: 2
Total Garbage Collection Time: 0 seconds.

Out of 719 nodes, 321 are proven
Number of node expansions: 318
Policy entries: 318
Number of sensing applications in policy: 0
