domain,sasp_file,search_time,status
bigprobs,bigprob_3.tlsf.unrealizability.sas,1.927000,U,-
bigprobs,bigprob_98.compact.tlsf.unrealizability.sas,1.660000,U,-
bigprobs,bigprob_12.compact.tlsf.unrealizability.sas,1.822000,U,-
bigprobs,bigprob_97.tlsf.unrealizability.sas,3.595000,U,-
bigprobs,bigprob_68.tlsf.unrealizability.sas,331.798000,R,-
bigprobs,bigprob_91.compact.tlsf.unrealizability.sas,1.434000,U,-
bigprobs,bigprob_4.compact.tlsf.unrealizability.sas,1.234000,U,-
bigprobs,bigprob_86.compact.tlsf.unrealizability.sas,1.210000,U,-
bigprobs,bigprob_96.tlsf.unrealizability.sas,0.878000,U,-
bigprobs,bigprob_69.tlsf.unrealizability.sas,221.538000,U,-
bigprobs,bigprob_35.compact.tlsf.unrealizability.sas,1.024000,U,-
bigprobs,bigprob_2.tlsf.unrealizability.sas,-1.000000,E,-
bigprobs,bigprob_22.compact.tlsf.unrealizability.sas,0.447000,R,-
bigprobs,bigprob_94.tlsf.unrealizability.sas,1.784000,U,-
bigprobs,bigprob_58.tlsf.unrealizability.sas,43.017000,U,-
bigprobs,bigprob_72.compact.tlsf.unrealizability.sas,1.401000,U,-
bigprobs,bigprob_0.tlsf.unrealizability.sas,75.092000,U,-
bigprobs,bigprob_65.compact.tlsf.unrealizability.sas,-1.000000,E,-
bigprobs,bigprob_1.tlsf.unrealizability.sas,71.239000,U,-
bigprobs,bigprob_42.compact.tlsf.unrealizability.sas,0.774000,R,-
bigprobs,bigprob_95.tlsf.unrealizability.sas,16.326000,U,-
bigprobs,bigprob_55.compact.tlsf.unrealizability.sas,0.894000,U,-
bigprobs,bigprob_59.tlsf.unrealizability.sas,-1,-1,T
bigprobs,bigprob_58.compact.tlsf.unrealizability.sas,0.804000,U,-
bigprobs,bigprob_90.tlsf.unrealizability.sas,1.452000,U,-
bigprobs,bigprob_61.compact.tlsf.unrealizability.sas,1.074000,U,-
bigprobs,bigprob_76.compact.tlsf.unrealizability.sas,1.330000,U,-
bigprobs,bigprob_4.tlsf.unrealizability.sas,163.659000,U,-
bigprobs,bigprob_68.compact.tlsf.unrealizability.sas,1.784000,R,-
bigprobs,bigprob_5.tlsf.unrealizability.sas,33.257000,U,-
bigprobs,bigprob_51.compact.tlsf.unrealizability.sas,0.960000,U,-
bigprobs,bigprob_91.tlsf.unrealizability.sas,1.336000,U,-
bigprobs,bigprob_46.compact.tlsf.unrealizability.sas,1.021000,U,-
bigprobs,bigprob_38.compact.tlsf.unrealizability.sas,1.395000,U,-
bigprobs,bigprob_7.tlsf.unrealizability.sas,0.345000,U,-
bigprobs,bigprob_16.compact.tlsf.unrealizability.sas,1.468000,U,-
bigprobs,bigprob_9.compact.tlsf.unrealizability.sas,1.045000,U,-
bigprobs,bigprob_93.tlsf.unrealizability.sas,9.800000,U,-
bigprobs,bigprob_39.tlsf.unrealizability.sas,1.329000,U,-
bigprobs,bigprob_0.compact.tlsf.unrealizability.sas,0.857000,U,-
bigprobs,bigprob_82.compact.tlsf.unrealizability.sas,0.917000,U,-
bigprobs,bigprob_92.tlsf.unrealizability.sas,1.260000,U,-
bigprobs,bigprob_38.tlsf.unrealizability.sas,79.864000,U,-
bigprobs,bigprob_95.compact.tlsf.unrealizability.sas,1.300000,U,-
bigprobs,bigprob_26.compact.tlsf.unrealizability.sas,0.972000,U,-
bigprobs,bigprob_31.compact.tlsf.unrealizability.sas,0.950000,R,-
bigprobs,bigprob_6.tlsf.unrealizability.sas,2.670000,U,-
bigprobs,bigprob_69.compact.tlsf.unrealizability.sas,2.240000,U,-
bigprobs,bigprob_67.tlsf.unrealizability.sas,1.298000,U,-
bigprobs,bigprob_54.tlsf.unrealizability.sas,2.011000,R,-
bigprobs,bigprob_32.tlsf.unrealizability.sas,15.177000,U,-
bigprobs,bigprob_98.tlsf.unrealizability.sas,0.982000,U,-
bigprobs,bigprob_50.compact.tlsf.unrealizability.sas,0.728000,U,-
bigprobs,bigprob_47.compact.tlsf.unrealizability.sas,3.572000,U,-
bigprobs,bigprob_59.compact.tlsf.unrealizability.sas,1.082000,R,-
bigprobs,bigprob_60.compact.tlsf.unrealizability.sas,0.204000,U,-
bigprobs,bigprob_66.tlsf.unrealizability.sas,2.569000,U,-
bigprobs,bigprob_55.tlsf.unrealizability.sas,16.644000,U,-
bigprobs,bigprob_33.tlsf.unrealizability.sas,10.516000,U,-
bigprobs,bigprob_77.compact.tlsf.unrealizability.sas,0.154000,R,-
bigprobs,bigprob_99.tlsf.unrealizability.sas,0.814000,U,-
bigprobs,bigprob_1.compact.tlsf.unrealizability.sas,0.908000,U,-
bigprobs,bigprob_83.compact.tlsf.unrealizability.sas,0.473000,U,-
bigprobs,bigprob_94.compact.tlsf.unrealizability.sas,0.931000,U,-
bigprobs,bigprob_27.compact.tlsf.unrealizability.sas,-1.000000,E,-
bigprobs,bigprob_57.tlsf.unrealizability.sas,137.670000,U,-
bigprobs,bigprob_30.compact.tlsf.unrealizability.sas,1.484000,U,-
bigprobs,bigprob_64.tlsf.unrealizability.sas,-1,-1,T
bigprobs,bigprob_31.tlsf.unrealizability.sas,38.865000,R,-
bigprobs,bigprob_39.compact.tlsf.unrealizability.sas,1.330000,U,-
bigprobs,bigprob_56.tlsf.unrealizability.sas,1.689000,U,-
bigprobs,bigprob_65.tlsf.unrealizability.sas,-1,-1,T
bigprobs,bigprob_30.tlsf.unrealizability.sas,1.611000,U,-
bigprobs,bigprob_17.compact.tlsf.unrealizability.sas,0.806000,U,-
bigprobs,bigprob_8.compact.tlsf.unrealizability.sas,0.858000,U,-
bigprobs,bigprob_90.compact.tlsf.unrealizability.sas,1.010000,U,-
bigprobs,bigprob_5.compact.tlsf.unrealizability.sas,0.658000,U,-
bigprobs,bigprob_87.compact.tlsf.unrealizability.sas,0.578000,U,-
bigprobs,bigprob_34.compact.tlsf.unrealizability.sas,0.730000,U,-
bigprobs,bigprob_35.tlsf.unrealizability.sas,2.067000,U,-
bigprobs,bigprob_60.tlsf.unrealizability.sas,0.234000,U,-
bigprobs,bigprob_53.tlsf.unrealizability.sas,3.670000,U,-
bigprobs,bigprob_23.compact.tlsf.unrealizability.sas,0.846000,U,-
bigprobs,bigprob_34.tlsf.unrealizability.sas,3.904000,U,-
bigprobs,bigprob_61.tlsf.unrealizability.sas,1.343000,U,-
bigprobs,bigprob_52.tlsf.unrealizability.sas,49.509000,U,-
bigprobs,bigprob_99.compact.tlsf.unrealizability.sas,0.531000,U,-
bigprobs,bigprob_13.compact.tlsf.unrealizability.sas,1.468000,U,-
bigprobs,bigprob_36.tlsf.unrealizability.sas,298.449000,U,-
bigprobs,bigprob_50.tlsf.unrealizability.sas,1.132000,U,-
bigprobs,bigprob_63.tlsf.unrealizability.sas,74.514000,U,-
bigprobs,bigprob_43.compact.tlsf.unrealizability.sas,0.508000,U,-
bigprobs,bigprob_54.compact.tlsf.unrealizability.sas,0.521000,R,-
bigprobs,bigprob_8.tlsf.unrealizability.sas,1.019000,U,-
bigprobs,bigprob_9.tlsf.unrealizability.sas,382.205000,U,-
bigprobs,bigprob_73.compact.tlsf.unrealizability.sas,1.105000,U,-
bigprobs,bigprob_37.tlsf.unrealizability.sas,135.280000,U,-
bigprobs,bigprob_51.tlsf.unrealizability.sas,1.344000,U,-
bigprobs,bigprob_62.tlsf.unrealizability.sas,1.224000,R,-
bigprobs,bigprob_64.compact.tlsf.unrealizability.sas,1.319000,U,-
bigprobs,bigprob_81.compact.tlsf.unrealizability.sas,0.899000,U,-
bigprobs,bigprob_3.compact.tlsf.unrealizability.sas,1.139000,U,-
bigprobs,bigprob_96.compact.tlsf.unrealizability.sas,0.290000,U,-
bigprobs,bigprob_87.tlsf.unrealizability.sas,7.025000,U,-
bigprobs,bigprob_25.compact.tlsf.unrealizability.sas,0.888000,U,-
bigprobs,bigprob_78.tlsf.unrealizability.sas,3.456000,R,-
bigprobs,bigprob_32.compact.tlsf.unrealizability.sas,0.642000,U,-
bigprobs,bigprob_86.tlsf.unrealizability.sas,0.959000,U,-
bigprobs,bigprob_79.tlsf.unrealizability.sas,1.833000,U,-
bigprobs,bigprob_15.compact.tlsf.unrealizability.sas,1.024000,U,-
bigprobs,bigprob_88.compact.tlsf.unrealizability.sas,2.549000,U,-
bigprobs,bigprob_84.tlsf.unrealizability.sas,2.448000,R,-
bigprobs,bigprob_48.tlsf.unrealizability.sas,1.067000,U,-
bigprobs,bigprob_52.compact.tlsf.unrealizability.sas,0.441000,U,-
bigprobs,bigprob_45.compact.tlsf.unrealizability.sas,0.283000,U,-
bigprobs,bigprob_85.tlsf.unrealizability.sas,413.800000,U,-
bigprobs,bigprob_49.tlsf.unrealizability.sas,0.532000,U,-
bigprobs,bigprob_62.compact.tlsf.unrealizability.sas,0.119000,R,-
bigprobs,bigprob_75.compact.tlsf.unrealizability.sas,1.009000,U,-
bigprobs,bigprob_80.tlsf.unrealizability.sas,196.673000,U,-
bigprobs,bigprob_78.compact.tlsf.unrealizability.sas,0.203000,R,-
bigprobs,bigprob_19.tlsf.unrealizability.sas,1.878000,R,-
bigprobs,bigprob_41.compact.tlsf.unrealizability.sas,1.281000,U,-
bigprobs,bigprob_56.compact.tlsf.unrealizability.sas,0.401000,U,-
bigprobs,bigprob_48.compact.tlsf.unrealizability.sas,0.756000,U,-
bigprobs,bigprob_81.tlsf.unrealizability.sas,2.228000,U,-
bigprobs,bigprob_71.compact.tlsf.unrealizability.sas,0.528000,U,-
bigprobs,bigprob_18.tlsf.unrealizability.sas,1.304000,U,-
bigprobs,bigprob_66.compact.tlsf.unrealizability.sas,1.633000,U,-
bigprobs,bigprob_92.compact.tlsf.unrealizability.sas,0.799000,U,-
bigprobs,bigprob_18.compact.tlsf.unrealizability.sas,0.823000,U,-
bigprobs,bigprob_85.compact.tlsf.unrealizability.sas,0.790000,U,-
bigprobs,bigprob_7.compact.tlsf.unrealizability.sas,0.304000,U,-
bigprobs,bigprob_36.compact.tlsf.unrealizability.sas,0.640000,U,-
bigprobs,bigprob_83.tlsf.unrealizability.sas,0.611000,U,-
bigprobs,bigprob_29.tlsf.unrealizability.sas,22.512000,U,-
bigprobs,bigprob_21.compact.tlsf.unrealizability.sas,0.433000,R,-
bigprobs,bigprob_82.tlsf.unrealizability.sas,-1,-1,T
bigprobs,bigprob_28.tlsf.unrealizability.sas,21.518000,U,-
bigprobs,bigprob_28.compact.tlsf.unrealizability.sas,1.179000,U,-
bigprobs,bigprob_11.compact.tlsf.unrealizability.sas,0.705000,U,-
bigprobs,bigprob_44.tlsf.unrealizability.sas,1.860000,U,-
bigprobs,bigprob_77.tlsf.unrealizability.sas,2.627000,R,-
bigprobs,bigprob_11.tlsf.unrealizability.sas,28.175000,U,-
bigprobs,bigprob_22.tlsf.unrealizability.sas,6.987000,R,-
bigprobs,bigprob_49.compact.tlsf.unrealizability.sas,0.264000,U,-
bigprobs,bigprob_88.tlsf.unrealizability.sas,3.731000,U,-
bigprobs,bigprob_70.compact.tlsf.unrealizability.sas,0.773000,U,-
bigprobs,bigprob_67.compact.tlsf.unrealizability.sas,0.832000,U,-
bigprobs,bigprob_79.compact.tlsf.unrealizability.sas,1.084000,U,-
bigprobs,bigprob_45.tlsf.unrealizability.sas,2.651000,U,-
bigprobs,bigprob_76.tlsf.unrealizability.sas,69.844000,U,-
bigprobs,bigprob_10.tlsf.unrealizability.sas,18.977000,U,-
bigprobs,bigprob_23.tlsf.unrealizability.sas,1.591000,U,-
bigprobs,bigprob_40.compact.tlsf.unrealizability.sas,0.516000,U,-
bigprobs,bigprob_89.tlsf.unrealizability.sas,38.373000,U,-
bigprobs,bigprob_57.compact.tlsf.unrealizability.sas,0.846000,U,-
bigprobs,bigprob_29.compact.tlsf.unrealizability.sas,2.385000,U,-
bigprobs,bigprob_74.tlsf.unrealizability.sas,1.253000,U,-
bigprobs,bigprob_47.tlsf.unrealizability.sas,221.309000,U,-
bigprobs,bigprob_21.tlsf.unrealizability.sas,6.405000,R,-
bigprobs,bigprob_12.tlsf.unrealizability.sas,17.434000,U,-
bigprobs,bigprob_10.compact.tlsf.unrealizability.sas,0.631000,U,-
bigprobs,bigprob_75.tlsf.unrealizability.sas,55.417000,U,-
bigprobs,bigprob_46.tlsf.unrealizability.sas,3.459000,U,-
bigprobs,bigprob_20.tlsf.unrealizability.sas,1.294000,U,-
bigprobs,bigprob_13.tlsf.unrealizability.sas,557.832000,U,-
bigprobs,bigprob_93.compact.tlsf.unrealizability.sas,1.600000,U,-
bigprobs,bigprob_19.compact.tlsf.unrealizability.sas,0.782000,R,-
bigprobs,bigprob_84.compact.tlsf.unrealizability.sas,1.232000,R,-
bigprobs,bigprob_6.compact.tlsf.unrealizability.sas,1.144000,U,-
bigprobs,bigprob_37.compact.tlsf.unrealizability.sas,0.766000,U,-
bigprobs,bigprob_20.compact.tlsf.unrealizability.sas,1.537000,U,-
bigprobs,bigprob_16.tlsf.unrealizability.sas,39.487000,U,-
bigprobs,bigprob_25.tlsf.unrealizability.sas,1.560000,U,-
bigprobs,bigprob_14.compact.tlsf.unrealizability.sas,1.770000,R,-
bigprobs,bigprob_43.tlsf.unrealizability.sas,129.924000,U,-
bigprobs,bigprob_70.tlsf.unrealizability.sas,4.690000,U,-
bigprobs,bigprob_89.compact.tlsf.unrealizability.sas,0.768000,U,-
bigprobs,bigprob_17.tlsf.unrealizability.sas,1.712000,U,-
bigprobs,bigprob_24.tlsf.unrealizability.sas,5.197000,U,-
bigprobs,bigprob_42.tlsf.unrealizability.sas,2.444000,R,-
bigprobs,bigprob_80.compact.tlsf.unrealizability.sas,0.843000,U,-
bigprobs,bigprob_2.compact.tlsf.unrealizability.sas,0.013000,R,-
bigprobs,bigprob_71.tlsf.unrealizability.sas,28.068000,U,-
bigprobs,bigprob_97.compact.tlsf.unrealizability.sas,2.649000,U,-
bigprobs,bigprob_24.compact.tlsf.unrealizability.sas,1.927000,U,-
bigprobs,bigprob_33.compact.tlsf.unrealizability.sas,1.822000,U,-
bigprobs,bigprob_26.tlsf.unrealizability.sas,378.880000,U,-
bigprobs,bigprob_15.tlsf.unrealizability.sas,2.069000,U,-
bigprobs,bigprob_73.tlsf.unrealizability.sas,1.746000,U,-
bigprobs,bigprob_40.tlsf.unrealizability.sas,6.539000,U,-
bigprobs,bigprob_63.compact.tlsf.unrealizability.sas,0.573000,U,-
bigprobs,bigprob_74.compact.tlsf.unrealizability.sas,0.425000,U,-
bigprobs,bigprob_27.tlsf.unrealizability.sas,14.574000,U,-
bigprobs,bigprob_14.tlsf.unrealizability.sas,3.916000,R,-
bigprobs,bigprob_53.compact.tlsf.unrealizability.sas,0.743000,U,-
bigprobs,bigprob_72.tlsf.unrealizability.sas,6.171000,U,-
bigprobs,bigprob_41.tlsf.unrealizability.sas,3.195000,U,-
bigprobs,bigprob_44.compact.tlsf.unrealizability.sas,1.553000,U,-