domain,sasp_file,search_time,status
bigprobs,bigprob_4.tlsf.unrealizability.sas,-1.000000,E,-
bigprobs,bigprob_61.tlsf.unrealizability.sas,5.440000,U,-
bigprobs,bigprob_52.tlsf.unrealizability.sas,346.453000,U,-
bigprobs,bigprob_34.tlsf.unrealizability.sas,210.475000,U,-
bigprobs,bigprob_48.compact.tlsf.unrealizability.sas,0.543000,U,-
bigprobs,bigprob_66.compact.tlsf.unrealizability.sas,1.391000,U,-
bigprobs,bigprob_2.compact.tlsf.unrealizability.sas,-1.000000,E,-
bigprobs,bigprob_71.compact.tlsf.unrealizability.sas,0.758000,U,-
bigprobs,bigprob_78.compact.tlsf.unrealizability.sas,1.228000,U,-
bigprobs,bigprob_60.tlsf.unrealizability.sas,5.858000,U,-
bigprobs,bigprob_5.tlsf.unrealizability.sas,357.598000,U,-
bigprobs,bigprob_53.tlsf.unrealizability.sas,28.125000,U,-
bigprobs,bigprob_35.tlsf.unrealizability.sas,308.745000,U,-
bigprobs,bigprob_56.compact.tlsf.unrealizability.sas,1.430000,U,-
bigprobs,bigprob_41.compact.tlsf.unrealizability.sas,0.930000,U,-
bigprobs,bigprob_28.compact.tlsf.unrealizability.sas,1.406000,U,-
bigprobs,bigprob_51.tlsf.unrealizability.sas,809.487000,U,-
bigprobs,bigprob_7.tlsf.unrealizability.sas,89.379000,U,-
bigprobs,bigprob_62.tlsf.unrealizability.sas,906.714000,U,-
bigprobs,bigprob_37.tlsf.unrealizability.sas,109.512000,U,-
bigprobs,bigprob_11.compact.tlsf.unrealizability.sas,0.695000,U,-
bigprobs,bigprob_50.tlsf.unrealizability.sas,3.230000,U,-
bigprobs,bigprob_63.tlsf.unrealizability.sas,36.506000,U,-
bigprobs,bigprob_6.tlsf.unrealizability.sas,4.475000,R,-
bigprobs,bigprob_36.tlsf.unrealizability.sas,-1,-1,T
bigprobs,bigprob_18.compact.tlsf.unrealizability.sas,1.120000,U,-
bigprobs,bigprob_85.compact.tlsf.unrealizability.sas,0.304000,R,-
bigprobs,bigprob_92.compact.tlsf.unrealizability.sas,4.192000,U,-
bigprobs,bigprob_21.compact.tlsf.unrealizability.sas,1.740000,U,-
bigprobs,bigprob_36.compact.tlsf.unrealizability.sas,3.129000,U,-
bigprobs,bigprob_33.tlsf.unrealizability.sas,8.038000,U,-
bigprobs,bigprob_66.tlsf.unrealizability.sas,1.396000,U,-
bigprobs,bigprob_3.tlsf.unrealizability.sas,12.311000,U,-
bigprobs,bigprob_55.tlsf.unrealizability.sas,-1,-1,T
bigprobs,bigprob_99.tlsf.unrealizability.sas,7.364000,U,-
bigprobs,bigprob_15.compact.tlsf.unrealizability.sas,1.914000,U,-
bigprobs,bigprob_88.compact.tlsf.unrealizability.sas,2.491000,U,-
bigprobs,bigprob_32.tlsf.unrealizability.sas,593.862000,U,-
bigprobs,bigprob_2.tlsf.unrealizability.sas,362.236000,U,-
bigprobs,bigprob_67.tlsf.unrealizability.sas,2.405000,U,-
bigprobs,bigprob_96.compact.tlsf.unrealizability.sas,1.884000,U,-
bigprobs,bigprob_54.tlsf.unrealizability.sas,-1,-1,T
bigprobs,bigprob_98.tlsf.unrealizability.sas,8.873000,U,-
bigprobs,bigprob_81.compact.tlsf.unrealizability.sas,0.968000,U,-
bigprobs,bigprob_32.compact.tlsf.unrealizability.sas,4.928000,U,-
bigprobs,bigprob_25.compact.tlsf.unrealizability.sas,-1.000000,E,-
bigprobs,bigprob_30.tlsf.unrealizability.sas,4.703000,U,-
bigprobs,bigprob_56.tlsf.unrealizability.sas,18.794000,U,-
bigprobs,bigprob_65.tlsf.unrealizability.sas,139.715000,U,-
bigprobs,bigprob_0.tlsf.unrealizability.sas,1.399000,U,-
bigprobs,bigprob_75.compact.tlsf.unrealizability.sas,0.883000,U,-
bigprobs,bigprob_62.compact.tlsf.unrealizability.sas,1.005000,U,-
bigprobs,bigprob_6.compact.tlsf.unrealizability.sas,1.243000,R,-
bigprobs,bigprob_31.tlsf.unrealizability.sas,195.523000,U,-
bigprobs,bigprob_57.tlsf.unrealizability.sas,1132.412000,U,-
bigprobs,bigprob_1.tlsf.unrealizability.sas,1.674000,U,-
bigprobs,bigprob_64.tlsf.unrealizability.sas,69.677000,U,-
bigprobs,bigprob_45.compact.tlsf.unrealizability.sas,0.940000,U,-
bigprobs,bigprob_52.compact.tlsf.unrealizability.sas,1.538000,U,-
bigprobs,bigprob_97.compact.tlsf.unrealizability.sas,0.496000,U,-
bigprobs,bigprob_80.compact.tlsf.unrealizability.sas,0.430000,U,-
bigprobs,bigprob_91.tlsf.unrealizability.sas,-1,-1,T
bigprobs,bigprob_33.compact.tlsf.unrealizability.sas,0.728000,U,-
bigprobs,bigprob_24.compact.tlsf.unrealizability.sas,4.275000,U,-
bigprobs,bigprob_90.tlsf.unrealizability.sas,1147.310000,U,-
bigprobs,bigprob_14.compact.tlsf.unrealizability.sas,0.942000,U,-
bigprobs,bigprob_89.compact.tlsf.unrealizability.sas,0.445000,U,-
bigprobs,bigprob_92.tlsf.unrealizability.sas,31.393000,U,-
bigprobs,bigprob_8.tlsf.unrealizability.sas,4.533000,U,-
bigprobs,bigprob_38.tlsf.unrealizability.sas,0.597000,U,-
bigprobs,bigprob_44.compact.tlsf.unrealizability.sas,1.809000,U,-
bigprobs,bigprob_53.compact.tlsf.unrealizability.sas,1.899000,U,-
bigprobs,bigprob_93.tlsf.unrealizability.sas,4.408000,U,-
bigprobs,bigprob_9.tlsf.unrealizability.sas,1.114000,U,-
bigprobs,bigprob_74.compact.tlsf.unrealizability.sas,1.134000,U,-
bigprobs,bigprob_39.tlsf.unrealizability.sas,-1,-1,T
bigprobs,bigprob_63.compact.tlsf.unrealizability.sas,0.617000,U,-
bigprobs,bigprob_7.compact.tlsf.unrealizability.sas,0.649000,U,-
bigprobs,bigprob_96.tlsf.unrealizability.sas,1.581000,U,-
bigprobs,bigprob_69.tlsf.unrealizability.sas,-1,-1,T
bigprobs,bigprob_79.compact.tlsf.unrealizability.sas,2.248000,U,-
bigprobs,bigprob_57.compact.tlsf.unrealizability.sas,0.678000,U,-
bigprobs,bigprob_40.compact.tlsf.unrealizability.sas,1.840000,U,-
bigprobs,bigprob_49.compact.tlsf.unrealizability.sas,1.823000,U,-
bigprobs,bigprob_97.tlsf.unrealizability.sas,1.456000,U,-
bigprobs,bigprob_67.compact.tlsf.unrealizability.sas,1.208000,U,-
bigprobs,bigprob_3.compact.tlsf.unrealizability.sas,1.685000,U,-
bigprobs,bigprob_68.tlsf.unrealizability.sas,-1,-1,T
bigprobs,bigprob_70.compact.tlsf.unrealizability.sas,0.847000,U,-
bigprobs,bigprob_19.compact.tlsf.unrealizability.sas,1.484000,U,-
bigprobs,bigprob_84.compact.tlsf.unrealizability.sas,1.413000,U,-
bigprobs,bigprob_93.compact.tlsf.unrealizability.sas,0.707000,U,-
bigprobs,bigprob_95.tlsf.unrealizability.sas,28.835000,U,-
bigprobs,bigprob_20.compact.tlsf.unrealizability.sas,0.927000,U,-
bigprobs,bigprob_59.tlsf.unrealizability.sas,12.423000,U,-
bigprobs,bigprob_37.compact.tlsf.unrealizability.sas,2.053000,U,-
bigprobs,bigprob_94.tlsf.unrealizability.sas,1.549000,U,-
bigprobs,bigprob_29.compact.tlsf.unrealizability.sas,2.287000,U,-
bigprobs,bigprob_58.tlsf.unrealizability.sas,-1,-1,T
bigprobs,bigprob_10.compact.tlsf.unrealizability.sas,0.816000,U,-
bigprobs,bigprob_42.tlsf.unrealizability.sas,-1,-1,T
bigprobs,bigprob_71.tlsf.unrealizability.sas,-1,-1,T
bigprobs,bigprob_68.compact.tlsf.unrealizability.sas,1.831000,U,-
bigprobs,bigprob_17.tlsf.unrealizability.sas,1.750000,U,-
bigprobs,bigprob_24.tlsf.unrealizability.sas,-1,-1,T
bigprobs,bigprob_46.compact.tlsf.unrealizability.sas,11.384000,U,-
bigprobs,bigprob_51.compact.tlsf.unrealizability.sas,-1.000000,E,-
bigprobs,bigprob_58.compact.tlsf.unrealizability.sas,3.043000,U,-
bigprobs,bigprob_76.compact.tlsf.unrealizability.sas,-1.000000,E,-
bigprobs,bigprob_43.tlsf.unrealizability.sas,2.156000,U,-
bigprobs,bigprob_70.tlsf.unrealizability.sas,1368.137000,U,-
bigprobs,bigprob_16.tlsf.unrealizability.sas,864.410000,U,-
bigprobs,bigprob_5.compact.tlsf.unrealizability.sas,-1.000000,E,-
bigprobs,bigprob_61.compact.tlsf.unrealizability.sas,0.877000,U,-
bigprobs,bigprob_25.tlsf.unrealizability.sas,-1,-1,T
bigprobs,bigprob_95.compact.tlsf.unrealizability.sas,2.263000,U,-
bigprobs,bigprob_82.compact.tlsf.unrealizability.sas,1.268000,U,-
bigprobs,bigprob_31.compact.tlsf.unrealizability.sas,3.242000,U,-
bigprobs,bigprob_72.tlsf.unrealizability.sas,187.362000,U,-
bigprobs,bigprob_26.compact.tlsf.unrealizability.sas,1.045000,U,-
bigprobs,bigprob_41.tlsf.unrealizability.sas,0.716000,U,-
bigprobs,bigprob_27.tlsf.unrealizability.sas,1.449000,U,-
bigprobs,bigprob_14.tlsf.unrealizability.sas,0.822000,U,-
bigprobs,bigprob_38.compact.tlsf.unrealizability.sas,0.582000,U,-
bigprobs,bigprob_73.tlsf.unrealizability.sas,1101.844000,U,-
bigprobs,bigprob_40.tlsf.unrealizability.sas,-1,-1,T
bigprobs,bigprob_26.tlsf.unrealizability.sas,7.136000,U,-
bigprobs,bigprob_15.tlsf.unrealizability.sas,19.055000,U,-
bigprobs,bigprob_16.compact.tlsf.unrealizability.sas,2.390000,U,-
bigprobs,bigprob_86.compact.tlsf.unrealizability.sas,0.944000,U,-
bigprobs,bigprob_91.compact.tlsf.unrealizability.sas,1.274000,U,-
bigprobs,bigprob_22.compact.tlsf.unrealizability.sas,0.729000,U,-
bigprobs,bigprob_10.tlsf.unrealizability.sas,-1,-1,T
bigprobs,bigprob_23.tlsf.unrealizability.sas,4.099000,U,-
bigprobs,bigprob_45.tlsf.unrealizability.sas,3.088000,U,-
bigprobs,bigprob_76.tlsf.unrealizability.sas,-1,-1,T
bigprobs,bigprob_35.compact.tlsf.unrealizability.sas,1.731000,U,-
bigprobs,bigprob_89.tlsf.unrealizability.sas,0.907000,U,-
bigprobs,bigprob_11.tlsf.unrealizability.sas,-1,-1,T
bigprobs,bigprob_22.tlsf.unrealizability.sas,2.238000,U,-
bigprobs,bigprob_44.tlsf.unrealizability.sas,1168.744000,U,-
bigprobs,bigprob_77.tlsf.unrealizability.sas,7.422000,U,-
bigprobs,bigprob_88.tlsf.unrealizability.sas,-1,-1,T
bigprobs,bigprob_12.compact.tlsf.unrealizability.sas,0.669000,U,-
bigprobs,bigprob_98.compact.tlsf.unrealizability.sas,3.775000,U,-
bigprobs,bigprob_8.compact.tlsf.unrealizability.sas,1.307000,U,-
bigprobs,bigprob_20.tlsf.unrealizability.sas,6.908000,U,-
bigprobs,bigprob_13.tlsf.unrealizability.sas,2.630000,U,-
bigprobs,bigprob_75.tlsf.unrealizability.sas,-1,-1,T
bigprobs,bigprob_46.tlsf.unrealizability.sas,341.420000,U,-
bigprobs,bigprob_55.compact.tlsf.unrealizability.sas,2.741000,U,-
bigprobs,bigprob_42.compact.tlsf.unrealizability.sas,3.499000,U,-
bigprobs,bigprob_1.compact.tlsf.unrealizability.sas,1.336000,U,-
bigprobs,bigprob_65.compact.tlsf.unrealizability.sas,2.065000,U,-
bigprobs,bigprob_21.tlsf.unrealizability.sas,2.110000,U,-
bigprobs,bigprob_12.tlsf.unrealizability.sas,3.260000,U,-
bigprobs,bigprob_74.tlsf.unrealizability.sas,3.279000,U,-
bigprobs,bigprob_47.tlsf.unrealizability.sas,51.575000,U,-
bigprobs,bigprob_72.compact.tlsf.unrealizability.sas,1.338000,U,-
bigprobs,bigprob_13.compact.tlsf.unrealizability.sas,1.127000,U,-
bigprobs,bigprob_81.tlsf.unrealizability.sas,20.916000,U,-
bigprobs,bigprob_99.compact.tlsf.unrealizability.sas,3.448000,U,-
bigprobs,bigprob_18.tlsf.unrealizability.sas,1.995000,U,-
bigprobs,bigprob_87.compact.tlsf.unrealizability.sas,1.490000,U,-
bigprobs,bigprob_90.compact.tlsf.unrealizability.sas,1.726000,U,-
bigprobs,bigprob_80.tlsf.unrealizability.sas,9.060000,U,-
bigprobs,bigprob_19.tlsf.unrealizability.sas,-1,-1,T
bigprobs,bigprob_23.compact.tlsf.unrealizability.sas,1.099000,U,-
bigprobs,bigprob_34.compact.tlsf.unrealizability.sas,1.529000,U,-
bigprobs,bigprob_82.tlsf.unrealizability.sas,1.693000,U,-
bigprobs,bigprob_28.tlsf.unrealizability.sas,1.405000,U,-
bigprobs,bigprob_0.compact.tlsf.unrealizability.sas,1.438000,U,-
bigprobs,bigprob_64.compact.tlsf.unrealizability.sas,4.838000,U,-
bigprobs,bigprob_73.compact.tlsf.unrealizability.sas,2.812000,U,-
bigprobs,bigprob_9.compact.tlsf.unrealizability.sas,2.277000,U,-
bigprobs,bigprob_54.compact.tlsf.unrealizability.sas,6.154000,U,-
bigprobs,bigprob_43.compact.tlsf.unrealizability.sas,1.940000,U,-
bigprobs,bigprob_83.tlsf.unrealizability.sas,-1,-1,T
bigprobs,bigprob_29.tlsf.unrealizability.sas,48.724000,U,-
bigprobs,bigprob_86.tlsf.unrealizability.sas,3.288000,U,-
bigprobs,bigprob_79.tlsf.unrealizability.sas,-1,-1,T
bigprobs,bigprob_59.compact.tlsf.unrealizability.sas,1.422000,U,-
bigprobs,bigprob_77.compact.tlsf.unrealizability.sas,4.076000,U,-
bigprobs,bigprob_4.compact.tlsf.unrealizability.sas,3.220000,U,-
bigprobs,bigprob_60.compact.tlsf.unrealizability.sas,0.975000,U,-
bigprobs,bigprob_69.compact.tlsf.unrealizability.sas,1.997000,R,-
bigprobs,bigprob_47.compact.tlsf.unrealizability.sas,2.219000,U,-
bigprobs,bigprob_87.tlsf.unrealizability.sas,79.893000,U,-
bigprobs,bigprob_78.tlsf.unrealizability.sas,9.515000,U,-
bigprobs,bigprob_50.compact.tlsf.unrealizability.sas,2.607000,U,-
bigprobs,bigprob_39.compact.tlsf.unrealizability.sas,3.028000,U,-
bigprobs,bigprob_85.tlsf.unrealizability.sas,-1,-1,T
bigprobs,bigprob_17.compact.tlsf.unrealizability.sas,1.006000,U,-
bigprobs,bigprob_49.tlsf.unrealizability.sas,361.323000,U,-
bigprobs,bigprob_94.compact.tlsf.unrealizability.sas,2.069000,U,-
bigprobs,bigprob_84.tlsf.unrealizability.sas,572.504000,U,-
bigprobs,bigprob_83.compact.tlsf.unrealizability.sas,4.224000,U,-
bigprobs,bigprob_48.tlsf.unrealizability.sas,2.298000,U,-
bigprobs,bigprob_30.compact.tlsf.unrealizability.sas,1.785000,U,-
bigprobs,bigprob_27.compact.tlsf.unrealizability.sas,2.429000,U,-