domain,sasp_file,search_time,status
bigprobs,bigprob_17.compact.tlsf.unrealizability.sas,457.957000,U,-
bigprobs,bigprob_58.tlsf.unrealizability.sas,-1.000000,E,-
bigprobs,bigprob_94.tlsf.unrealizability.sas,1532.983000,U,-
bigprobs,bigprob_0.compact.tlsf.unrealizability.sas,75.009000,U,-
bigprobs,bigprob_39.compact.tlsf.unrealizability.sas,6.994000,U,-
bigprobs,bigprob_59.tlsf.unrealizability.sas,-1.000000,E,-
bigprobs,bigprob_27.compact.tlsf.unrealizability.sas,-1.000000,E,-
bigprobs,bigprob_95.tlsf.unrealizability.sas,803.424000,U,-
bigprobs,bigprob_9.compact.tlsf.unrealizability.sas,4.150000,U,-
bigprobs,bigprob_30.compact.tlsf.unrealizability.sas,4.383000,U,-
bigprobs,bigprob_83.compact.tlsf.unrealizability.sas,110.232000,U,-
bigprobs,bigprob_94.compact.tlsf.unrealizability.sas,38.564000,U,-
bigprobs,bigprob_60.compact.tlsf.unrealizability.sas,-1.000000,E,-
bigprobs,bigprob_68.tlsf.unrealizability.sas,-1,-1,T
bigprobs,bigprob_97.tlsf.unrealizability.sas,-1,-1,T
bigprobs,bigprob_77.compact.tlsf.unrealizability.sas,8.055000,U,-
bigprobs,bigprob_59.compact.tlsf.unrealizability.sas,297.126000,U,-
bigprobs,bigprob_50.compact.tlsf.unrealizability.sas,50.162000,U,-
bigprobs,bigprob_47.compact.tlsf.unrealizability.sas,45.563000,U,-
bigprobs,bigprob_69.compact.tlsf.unrealizability.sas,-1.000000,E,-
bigprobs,bigprob_69.tlsf.unrealizability.sas,-1.000000,E,-
bigprobs,bigprob_96.tlsf.unrealizability.sas,-1.000000,E,-
bigprobs,bigprob_39.tlsf.unrealizability.sas,-1,-1,T
bigprobs,bigprob_73.compact.tlsf.unrealizability.sas,-1,-1,T
bigprobs,bigprob_93.tlsf.unrealizability.sas,95.886000,U,-
bigprobs,bigprob_64.compact.tlsf.unrealizability.sas,-1.000000,E,-
bigprobs,bigprob_43.compact.tlsf.unrealizability.sas,3.786000,U,-
bigprobs,bigprob_54.compact.tlsf.unrealizability.sas,21.602000,U,-
bigprobs,bigprob_38.tlsf.unrealizability.sas,-1,-1,T
bigprobs,bigprob_92.tlsf.unrealizability.sas,-1,-1,T
bigprobs,bigprob_99.compact.tlsf.unrealizability.sas,32.922000,U,-
bigprobs,bigprob_13.compact.tlsf.unrealizability.sas,-1.000000,E,-
bigprobs,bigprob_4.compact.tlsf.unrealizability.sas,-1.000000,E,-
bigprobs,bigprob_90.tlsf.unrealizability.sas,-1,-1,T
bigprobs,bigprob_91.tlsf.unrealizability.sas,-1,-1,T
bigprobs,bigprob_34.compact.tlsf.unrealizability.sas,-1.000000,E,-
bigprobs,bigprob_23.compact.tlsf.unrealizability.sas,-1.000000,E,-
bigprobs,bigprob_90.compact.tlsf.unrealizability.sas,-1.000000,E,-
bigprobs,bigprob_87.compact.tlsf.unrealizability.sas,32.295000,U,-
bigprobs,bigprob_42.compact.tlsf.unrealizability.sas,37.958000,U,-
bigprobs,bigprob_31.tlsf.unrealizability.sas,-1,-1,T
bigprobs,bigprob_57.tlsf.unrealizability.sas,-1.000000,E,-
bigprobs,bigprob_64.tlsf.unrealizability.sas,1300.763000,U,-
bigprobs,bigprob_55.compact.tlsf.unrealizability.sas,-1,-1,T
bigprobs,bigprob_72.compact.tlsf.unrealizability.sas,-1.000000,E,-
bigprobs,bigprob_65.compact.tlsf.unrealizability.sas,-1.000000,E,-
bigprobs,bigprob_30.tlsf.unrealizability.sas,12.368000,U,-
bigprobs,bigprob_56.tlsf.unrealizability.sas,487.745000,U,-
bigprobs,bigprob_65.tlsf.unrealizability.sas,-1,-1,T
bigprobs,bigprob_35.compact.tlsf.unrealizability.sas,179.503000,U,-
bigprobs,bigprob_22.compact.tlsf.unrealizability.sas,-1,-1,T
bigprobs,bigprob_98.tlsf.unrealizability.sas,-1.000000,E,-
bigprobs,bigprob_91.compact.tlsf.unrealizability.sas,-1.000000,E,-
bigprobs,bigprob_32.tlsf.unrealizability.sas,-1,-1,T
bigprobs,bigprob_67.tlsf.unrealizability.sas,-1,-1,T
bigprobs,bigprob_54.tlsf.unrealizability.sas,65.294000,U,-
bigprobs,bigprob_86.compact.tlsf.unrealizability.sas,-1.000000,E,-
bigprobs,bigprob_98.compact.tlsf.unrealizability.sas,26.987000,U,-
bigprobs,bigprob_99.tlsf.unrealizability.sas,-1,-1,T
bigprobs,bigprob_33.tlsf.unrealizability.sas,-1,-1,T
bigprobs,bigprob_66.tlsf.unrealizability.sas,32.885000,U,-
bigprobs,bigprob_55.tlsf.unrealizability.sas,-1.000000,E,-
bigprobs,bigprob_12.compact.tlsf.unrealizability.sas,100.211000,U,-
bigprobs,bigprob_5.compact.tlsf.unrealizability.sas,6.388000,U,-
bigprobs,bigprob_26.compact.tlsf.unrealizability.sas,737.329000,U,-
bigprobs,bigprob_8.compact.tlsf.unrealizability.sas,194.093000,U,-
bigprobs,bigprob_31.compact.tlsf.unrealizability.sas,-1.000000,E,-
bigprobs,bigprob_50.tlsf.unrealizability.sas,-1,-1,T
bigprobs,bigprob_63.tlsf.unrealizability.sas,174.060000,U,-
bigprobs,bigprob_82.compact.tlsf.unrealizability.sas,103.958000,U,-
bigprobs,bigprob_36.tlsf.unrealizability.sas,-1,-1,T
bigprobs,bigprob_95.compact.tlsf.unrealizability.sas,5.732000,U,-
bigprobs,bigprob_51.tlsf.unrealizability.sas,32.824000,U,-
bigprobs,bigprob_62.tlsf.unrealizability.sas,391.691000,U,-
bigprobs,bigprob_16.compact.tlsf.unrealizability.sas,12.912000,U,-
bigprobs,bigprob_37.tlsf.unrealizability.sas,-1,-1,T
bigprobs,bigprob_1.compact.tlsf.unrealizability.sas,308.669000,U,-
bigprobs,bigprob_38.compact.tlsf.unrealizability.sas,-1,-1,T
bigprobs,bigprob_60.tlsf.unrealizability.sas,104.892000,U,-
bigprobs,bigprob_51.compact.tlsf.unrealizability.sas,22.287000,U,-
bigprobs,bigprob_53.tlsf.unrealizability.sas,39.184000,U,-
bigprobs,bigprob_35.tlsf.unrealizability.sas,-1.000000,E,-
bigprobs,bigprob_46.compact.tlsf.unrealizability.sas,-1.000000,E,-
bigprobs,bigprob_68.compact.tlsf.unrealizability.sas,-1,-1,T
bigprobs,bigprob_61.compact.tlsf.unrealizability.sas,2.132000,U,-
bigprobs,bigprob_76.compact.tlsf.unrealizability.sas,33.676000,U,-
bigprobs,bigprob_61.tlsf.unrealizability.sas,3.207000,U,-
bigprobs,bigprob_58.compact.tlsf.unrealizability.sas,32.674000,U,-
bigprobs,bigprob_52.tlsf.unrealizability.sas,-1,-1,T
bigprobs,bigprob_34.tlsf.unrealizability.sas,-1,-1,T
bigprobs,bigprob_37.compact.tlsf.unrealizability.sas,-1.000000,E,-
bigprobs,bigprob_20.compact.tlsf.unrealizability.sas,4.143000,U,-
bigprobs,bigprob_7.tlsf.unrealizability.sas,70.182000,U,-
bigprobs,bigprob_93.compact.tlsf.unrealizability.sas,15.938000,U,-
bigprobs,bigprob_48.tlsf.unrealizability.sas,72.967000,U,-
bigprobs,bigprob_84.compact.tlsf.unrealizability.sas,-1.000000,E,-
bigprobs,bigprob_84.tlsf.unrealizability.sas,-1,-1,T
bigprobs,bigprob_19.compact.tlsf.unrealizability.sas,9.090000,U,-
bigprobs,bigprob_49.tlsf.unrealizability.sas,92.620000,U,-
bigprobs,bigprob_85.tlsf.unrealizability.sas,395.902000,U,-
bigprobs,bigprob_10.compact.tlsf.unrealizability.sas,-1,-1,T
bigprobs,bigprob_7.compact.tlsf.unrealizability.sas,26.349000,U,-
bigprobs,bigprob_29.compact.tlsf.unrealizability.sas,4.553000,U,-
bigprobs,bigprob_6.tlsf.unrealizability.sas,185.160000,U,-
bigprobs,bigprob_40.compact.tlsf.unrealizability.sas,22.235000,U,-
bigprobs,bigprob_78.tlsf.unrealizability.sas,-1,-1,T
bigprobs,bigprob_87.tlsf.unrealizability.sas,-1,-1,T
bigprobs,bigprob_57.compact.tlsf.unrealizability.sas,-1,-1,T
bigprobs,bigprob_79.compact.tlsf.unrealizability.sas,-1.000000,E,-
bigprobs,bigprob_4.tlsf.unrealizability.sas,-1,-1,T
bigprobs,bigprob_70.compact.tlsf.unrealizability.sas,33.396000,U,-
bigprobs,bigprob_67.compact.tlsf.unrealizability.sas,31.576000,U,-
bigprobs,bigprob_5.tlsf.unrealizability.sas,-1,-1,T
bigprobs,bigprob_49.compact.tlsf.unrealizability.sas,30.030000,U,-
bigprobs,bigprob_79.tlsf.unrealizability.sas,-1.000000,E,-
bigprobs,bigprob_86.tlsf.unrealizability.sas,-1,-1,T
bigprobs,bigprob_53.compact.tlsf.unrealizability.sas,5.848000,U,-
bigprobs,bigprob_44.compact.tlsf.unrealizability.sas,-1,-1,T
bigprobs,bigprob_29.tlsf.unrealizability.sas,-1,-1,T
bigprobs,bigprob_83.tlsf.unrealizability.sas,-1.000000,E,-
bigprobs,bigprob_0.tlsf.unrealizability.sas,-1.000000,E,-
bigprobs,bigprob_63.compact.tlsf.unrealizability.sas,-1.000000,E,-
bigprobs,bigprob_74.compact.tlsf.unrealizability.sas,-1.000000,E,-
bigprobs,bigprob_1.tlsf.unrealizability.sas,-1,-1,T
bigprobs,bigprob_28.tlsf.unrealizability.sas,-1,-1,T
bigprobs,bigprob_82.tlsf.unrealizability.sas,895.525000,U,-
bigprobs,bigprob_24.compact.tlsf.unrealizability.sas,-1.000000,E,-
bigprobs,bigprob_33.compact.tlsf.unrealizability.sas,12.179000,U,-
bigprobs,bigprob_3.tlsf.unrealizability.sas,1203.392000,U,-
bigprobs,bigprob_80.compact.tlsf.unrealizability.sas,12.508000,U,-
bigprobs,bigprob_97.compact.tlsf.unrealizability.sas,17.842000,U,-
bigprobs,bigprob_19.tlsf.unrealizability.sas,-1,-1,T
bigprobs,bigprob_80.tlsf.unrealizability.sas,-1,-1,T
bigprobs,bigprob_89.compact.tlsf.unrealizability.sas,6.936000,U,-
bigprobs,bigprob_14.compact.tlsf.unrealizability.sas,19.065000,U,-
bigprobs,bigprob_18.tlsf.unrealizability.sas,-1.000000,E,-
bigprobs,bigprob_81.tlsf.unrealizability.sas,-1,-1,T
bigprobs,bigprob_3.compact.tlsf.unrealizability.sas,306.461000,U,-
bigprobs,bigprob_2.tlsf.unrealizability.sas,-1,-1,T
bigprobs,bigprob_62.compact.tlsf.unrealizability.sas,16.991000,U,-
bigprobs,bigprob_21.tlsf.unrealizability.sas,-1.000000,E,-
bigprobs,bigprob_75.compact.tlsf.unrealizability.sas,16.662000,U,-
bigprobs,bigprob_12.tlsf.unrealizability.sas,-1,-1,T
bigprobs,bigprob_74.tlsf.unrealizability.sas,-1,-1,T
bigprobs,bigprob_47.tlsf.unrealizability.sas,-1,-1,T
bigprobs,bigprob_8.tlsf.unrealizability.sas,-1,-1,M
bigprobs,bigprob_52.compact.tlsf.unrealizability.sas,10.738000,U,-
bigprobs,bigprob_45.compact.tlsf.unrealizability.sas,-1.000000,E,-
bigprobs,bigprob_9.tlsf.unrealizability.sas,14.355000,U,-
bigprobs,bigprob_20.tlsf.unrealizability.sas,-1,-1,T
bigprobs,bigprob_13.tlsf.unrealizability.sas,206.015000,U,-
bigprobs,bigprob_75.tlsf.unrealizability.sas,32.687000,U,-
bigprobs,bigprob_46.tlsf.unrealizability.sas,-1,-1,T
bigprobs,bigprob_88.compact.tlsf.unrealizability.sas,-1.000000,E,-
bigprobs,bigprob_15.compact.tlsf.unrealizability.sas,231.720000,U,-
bigprobs,bigprob_88.tlsf.unrealizability.sas,-1,-1,T
bigprobs,bigprob_11.tlsf.unrealizability.sas,380.179000,U,-
bigprobs,bigprob_2.compact.tlsf.unrealizability.sas,-1.000000,E,-
bigprobs,bigprob_22.tlsf.unrealizability.sas,-1,-1,T
bigprobs,bigprob_44.tlsf.unrealizability.sas,-1.000000,E,-
bigprobs,bigprob_77.tlsf.unrealizability.sas,33.011000,U,-
bigprobs,bigprob_25.compact.tlsf.unrealizability.sas,-1.000000,E,-
bigprobs,bigprob_89.tlsf.unrealizability.sas,56.215000,U,-
bigprobs,bigprob_10.tlsf.unrealizability.sas,-1.000000,E,-
bigprobs,bigprob_23.tlsf.unrealizability.sas,38.937000,U,-
bigprobs,bigprob_32.compact.tlsf.unrealizability.sas,-1.000000,E,-
bigprobs,bigprob_45.tlsf.unrealizability.sas,571.174000,U,-
bigprobs,bigprob_76.tlsf.unrealizability.sas,-1,-1,T
bigprobs,bigprob_81.compact.tlsf.unrealizability.sas,-1.000000,E,-
bigprobs,bigprob_96.compact.tlsf.unrealizability.sas,-1,-1,T
bigprobs,bigprob_11.compact.tlsf.unrealizability.sas,-1.000000,E,-
bigprobs,bigprob_6.compact.tlsf.unrealizability.sas,9.788000,U,-
bigprobs,bigprob_28.compact.tlsf.unrealizability.sas,4.755000,U,-
bigprobs,bigprob_73.tlsf.unrealizability.sas,-1,-1,T
bigprobs,bigprob_40.tlsf.unrealizability.sas,76.871000,U,-
bigprobs,bigprob_26.tlsf.unrealizability.sas,-1.000000,E,-
bigprobs,bigprob_15.tlsf.unrealizability.sas,-1.000000,E,-
bigprobs,bigprob_36.compact.tlsf.unrealizability.sas,422.954000,U,-
bigprobs,bigprob_21.compact.tlsf.unrealizability.sas,-1.000000,E,-
bigprobs,bigprob_72.tlsf.unrealizability.sas,-1,-1,T
bigprobs,bigprob_41.tlsf.unrealizability.sas,-1,-1,T
bigprobs,bigprob_27.tlsf.unrealizability.sas,-1.000000,E,-
bigprobs,bigprob_14.tlsf.unrealizability.sas,-1,-1,T
bigprobs,bigprob_92.compact.tlsf.unrealizability.sas,12.784000,U,-
bigprobs,bigprob_85.compact.tlsf.unrealizability.sas,-1.000000,E,-
bigprobs,bigprob_18.compact.tlsf.unrealizability.sas,-1,-1,T
bigprobs,bigprob_71.compact.tlsf.unrealizability.sas,-1.000000,E,-
bigprobs,bigprob_66.compact.tlsf.unrealizability.sas,29.503000,U,-
bigprobs,bigprob_43.tlsf.unrealizability.sas,1545.539000,U,-
bigprobs,bigprob_70.tlsf.unrealizability.sas,-1,-1,T
bigprobs,bigprob_16.tlsf.unrealizability.sas,202.915000,U,-
bigprobs,bigprob_25.tlsf.unrealizability.sas,569.072000,U,-
bigprobs,bigprob_48.compact.tlsf.unrealizability.sas,-1.000000,E,-
bigprobs,bigprob_41.compact.tlsf.unrealizability.sas,-1.000000,E,-
bigprobs,bigprob_56.compact.tlsf.unrealizability.sas,257.521000,U,-
bigprobs,bigprob_78.compact.tlsf.unrealizability.sas,-1.000000,E,-
bigprobs,bigprob_42.tlsf.unrealizability.sas,-1,-1,T
bigprobs,bigprob_71.tlsf.unrealizability.sas,-1,-1,T
bigprobs,bigprob_17.tlsf.unrealizability.sas,-1.000000,E,-
bigprobs,bigprob_24.tlsf.unrealizability.sas,255.972000,U,-