/h/167/acamacho/Experiments-ICAPS18-SynKit/L6/bigprob_52.compact.tlsf.unrealizability.sas parsed.
Heuristic: FF-heuristic.
Algorithm: LAO*-search
INITIAL IS PROVEN!

Result: Strong cyclic plan found.

Time needed for preprocess (Parsing, PDBs, ...):    0.743 seconds.
Time needed for search:                             10.738 seconds.
Time needed:                                        11.481 seconds.
Total Garbage Collections: 3
Total Garbage Collection Time: 0 seconds.

Out of 1709 nodes, 603 are proven
Number of node expansions: 832
Policy entries: 592
Number of sensing applications in policy: 0
