/h/167/acamacho/Experiments-ICAPS18-SynKit/L6/bigprob_40.tlsf.unrealizability.sas parsed.
Heuristic: FF-heuristic.
Algorithm: LAO*-search
INITIAL IS PROVEN!

Result: Strong cyclic plan found.

Time needed for preprocess (Parsing, PDBs, ...):    1.238 seconds.
Time needed for search:                             76.871 seconds.
Time needed:                                        78.109 seconds.
Total Garbage Collections: 7
Total Garbage Collection Time: 1 seconds.

Out of 4195 nodes, 681 are proven
Number of node expansions: 1063
Policy entries: 634
Number of sensing applications in policy: 0
