/h/167/acamacho/Experiments-ICAPS18-SynKit/L6/bigprob_30.compact.tlsf.unrealizability.sas parsed.
Heuristic: FF-heuristic.
Algorithm: LAO*-search
INITIAL IS PROVEN!

Result: Strong cyclic plan found.

Time needed for preprocess (Parsing, PDBs, ...):    1.142 seconds.
Time needed for search:                             4.383 seconds.
Time needed:                                        5.525 seconds.
Total Garbage Collections: 2
Total Garbage Collection Time: 0 seconds.

Out of 422 nodes, 155 are proven
Number of node expansions: 153
Policy entries: 153
Number of sensing applications in policy: 0
