/h/167/acamacho/Experiments-ICAPS18-SynKit/L6/bigprob_93.compact.tlsf.unrealizability.sas parsed.
Heuristic: FF-heuristic.
Algorithm: LAO*-search
INITIAL IS PROVEN!

Result: Strong cyclic plan found.

Time needed for preprocess (Parsing, PDBs, ...):    1.715 seconds.
Time needed for search:                             15.938 seconds.
Time needed:                                        17.653 seconds.
Total Garbage Collections: 3
Total Garbage Collection Time: 0 seconds.

Out of 763 nodes, 239 are proven
Number of node expansions: 281
Policy entries: 229
Number of sensing applications in policy: 0
