/h/167/acamacho/Experiments-ICAPS18-SynKit/L6/bigprob_33.compact.tlsf.unrealizability.sas parsed.
Heuristic: FF-heuristic.
Algorithm: LAO*-search
INITIAL IS PROVEN!

Result: Strong cyclic plan found.

Time needed for preprocess (Parsing, PDBs, ...):    0.943 seconds.
Time needed for search:                             12.179 seconds.
Time needed:                                        13.122 seconds.
Total Garbage Collections: 4
Total Garbage Collection Time: 0 seconds.

Out of 3801 nodes, 1083 are proven
Number of node expansions: 1079
Policy entries: 1079
Number of sensing applications in policy: 0
