/h/167/acamacho/Experiments-ICAPS18-SynKit/L6/bigprob_70.compact.tlsf.unrealizability.sas parsed.
Heuristic: FF-heuristic.
Algorithm: LAO*-search
INITIAL IS PROVEN!

Result: Strong cyclic plan found.

Time needed for preprocess (Parsing, PDBs, ...):    0.664 seconds.
Time needed for search:                             33.396 seconds.
Time needed:                                        34.06 seconds.
Total Garbage Collections: 6
Total Garbage Collection Time: 0 seconds.

Out of 2636 nodes, 521 are proven
Number of node expansions: 1891
Policy entries: 506
Number of sensing applications in policy: 0
