/h/167/acamacho/Experiments-ICAPS18-SynKit/L6/bigprob_42.compact.tlsf.unrealizability.sas parsed.
Heuristic: FF-heuristic.
Algorithm: LAO*-search
INITIAL IS PROVEN!

Result: Strong cyclic plan found.

Time needed for preprocess (Parsing, PDBs, ...):    1.638 seconds.
Time needed for search:                             37.958 seconds.
Time needed:                                        39.596 seconds.
Total Garbage Collections: 5
Total Garbage Collection Time: 1 seconds.

Out of 2183 nodes, 713 are proven
Number of node expansions: 707
Policy entries: 707
Number of sensing applications in policy: 0
