/h/167/acamacho/Experiments-ICAPS18-SynKit/L6/bigprob_20.compact.tlsf.unrealizability.sas parsed.
Heuristic: FF-heuristic.
Algorithm: LAO*-search
INITIAL IS PROVEN!

Result: Strong cyclic plan found.

Time needed for preprocess (Parsing, PDBs, ...):    1.075 seconds.
Time needed for search:                             4.143 seconds.
Time needed:                                        5.218 seconds.
Total Garbage Collections: 2
Total Garbage Collection Time: 0 seconds.

Out of 413 nodes, 206 are proven
Number of node expansions: 202
Policy entries: 202
Number of sensing applications in policy: 0
