/h/167/acamacho/Experiments-ICAPS18-SynKit/L6/bigprob_92.compact.tlsf.unrealizability.sas parsed.
Heuristic: FF-heuristic.
Algorithm: LAO*-search
INITIAL IS PROVEN!

Result: Strong cyclic plan found.

Time needed for preprocess (Parsing, PDBs, ...):    1.67 seconds.
Time needed for search:                             12.784 seconds.
Time needed:                                        14.454 seconds.
Total Garbage Collections: 3
Total Garbage Collection Time: 0 seconds.

Out of 928 nodes, 299 are proven
Number of node expansions: 296
Policy entries: 296
Number of sensing applications in policy: 0
