/h/167/acamacho/Experiments-ICAPS18-SynKit/L6/bigprob_16.tlsf.unrealizability.sas parsed.
Heuristic: FF-heuristic.
Algorithm: LAO*-search
INITIAL IS PROVEN!

Result: Strong cyclic plan found.

Time needed for preprocess (Parsing, PDBs, ...):    1.139 seconds.
Time needed for search:                             202.915 seconds.
Time needed:                                        204.054 seconds.
Total Garbage Collections: 8
Total Garbage Collection Time: 1 seconds.

Out of 8724 nodes, 910 are proven
Number of node expansions: 905
Policy entries: 905
Number of sensing applications in policy: 0
