/h/167/acamacho/Experiments-ICAPS18-SynKit/L6/bigprob_47.compact.tlsf.unrealizability.sas parsed.
Heuristic: FF-heuristic.
Algorithm: LAO*-search
INITIAL IS PROVEN!

Result: Strong cyclic plan found.

Time needed for preprocess (Parsing, PDBs, ...):    1.27 seconds.
Time needed for search:                             45.563 seconds.
Time needed:                                        46.833 seconds.
Total Garbage Collections: 5
Total Garbage Collection Time: 0 seconds.

Out of 2820 nodes, 872 are proven
Number of node expansions: 866
Policy entries: 866
Number of sensing applications in policy: 0
