/h/167/acamacho/Experiments-ICAPS18-SynKit/L6/bigprob_39.compact.tlsf.unrealizability.sas parsed.
Heuristic: FF-heuristic.
Algorithm: LAO*-search
INITIAL IS PROVEN!

Result: Strong cyclic plan found.

Time needed for preprocess (Parsing, PDBs, ...):    1.121 seconds.
Time needed for search:                             6.994 seconds.
Time needed:                                        8.115 seconds.
Total Garbage Collections: 2
Total Garbage Collection Time: 0 seconds.

Out of 579 nodes, 372 are proven
Number of node expansions: 366
Policy entries: 366
Number of sensing applications in policy: 0
