/h/167/acamacho/Experiments-ICAPS18-SynKit/L6/bigprob_94.tlsf.unrealizability.sas parsed.
Heuristic: FF-heuristic.
Algorithm: LAO*-search
INITIAL IS PROVEN!

Result: Strong cyclic plan found.

Time needed for preprocess (Parsing, PDBs, ...):    0.818 seconds.
Time needed for search:                             1532.983 seconds.
Time needed:                                        1533.801 seconds.
Total Garbage Collections: 25
Total Garbage Collection Time: 9 seconds.

Out of 24453 nodes, 927 are proven
Number of node expansions: 3137
Policy entries: 799
Number of sensing applications in policy: 0
