/h/167/acamacho/Experiments-ICAPS18-SynKit/L6/bigprob_25.tlsf.unrealizability.sas parsed.
Heuristic: FF-heuristic.
Algorithm: LAO*-search
INITIAL IS PROVEN!

Result: Strong cyclic plan found.

Time needed for preprocess (Parsing, PDBs, ...):    4.67 seconds.
Time needed for search:                             569.072 seconds.
Time needed:                                        573.742 seconds.
Total Garbage Collections: 8
Total Garbage Collection Time: 6 seconds.

Out of 7145 nodes, 904 are proven
Number of node expansions: 899
Policy entries: 899
Number of sensing applications in policy: 0
