/h/167/acamacho/Experiments-ICAPS18-SynKit/L6/bigprob_17.compact.tlsf.unrealizability.sas parsed.
Heuristic: FF-heuristic.
Algorithm: LAO*-search
INITIAL IS PROVEN!

Result: Strong cyclic plan found.

Time needed for preprocess (Parsing, PDBs, ...):    0.924 seconds.
Time needed for search:                             457.957 seconds.
Time needed:                                        458.881 seconds.
Total Garbage Collections: 17
Total Garbage Collection Time: 10 seconds.

Out of 22792 nodes, 6632 are proven
Number of node expansions: 6626
Policy entries: 6626
Number of sensing applications in policy: 0
