/h/167/acamacho/Experiments-ICAPS18-SynKit/L6/bigprob_66.compact.tlsf.unrealizability.sas parsed.
Heuristic: FF-heuristic.
Algorithm: LAO*-search
INITIAL IS PROVEN!

Result: Strong cyclic plan found.

Time needed for preprocess (Parsing, PDBs, ...):    0.972 seconds.
Time needed for search:                             29.503 seconds.
Time needed:                                        30.475 seconds.
Total Garbage Collections: 5
Total Garbage Collection Time: 0 seconds.

Out of 2464 nodes, 764 are proven
Number of node expansions: 758
Policy entries: 758
Number of sensing applications in policy: 0
