/h/167/acamacho/Experiments-ICAPS18-SynKit/L6/bigprob_30.tlsf.unrealizability.sas parsed.
Heuristic: FF-heuristic.
Algorithm: LAO*-search
INITIAL IS PROVEN!

Result: Strong cyclic plan found.

Time needed for preprocess (Parsing, PDBs, ...):    0.715 seconds.
Time needed for search:                             12.368 seconds.
Time needed:                                        13.083 seconds.
Total Garbage Collections: 4
Total Garbage Collection Time: 0 seconds.

Out of 1591 nodes, 239 are proven
Number of node expansions: 236
Policy entries: 236
Number of sensing applications in policy: 0
