/h/167/acamacho/Experiments-ICAPS18-SynKit/L6/bigprob_28.compact.tlsf.unrealizability.sas parsed.
Heuristic: FF-heuristic.
Algorithm: LAO*-search
INITIAL IS PROVEN!

Result: Strong cyclic plan found.

Time needed for preprocess (Parsing, PDBs, ...):    1.552 seconds.
Time needed for search:                             4.755 seconds.
Time needed:                                        6.307 seconds.
Total Garbage Collections: 2
Total Garbage Collection Time: 0 seconds.

Out of 384 nodes, 158 are proven
Number of node expansions: 155
Policy entries: 155
Number of sensing applications in policy: 0
