/h/167/acamacho/Experiments-ICAPS18-SynKit/L6/bigprob_83.compact.tlsf.unrealizability.sas parsed.
Heuristic: FF-heuristic.
Algorithm: LAO*-search
INITIAL IS PROVEN!

Result: Strong cyclic plan found.

Time needed for preprocess (Parsing, PDBs, ...):    0.976 seconds.
Time needed for search:                             110.232 seconds.
Time needed:                                        111.208 seconds.
Total Garbage Collections: 8
Total Garbage Collection Time: 1 seconds.

Out of 8624 nodes, 3989 are proven
Number of node expansions: 3987
Policy entries: 3987
Number of sensing applications in policy: 0
