/h/167/acamacho/Experiments-ICAPS18-SynKit/L6/bigprob_23.tlsf.unrealizability.sas parsed.
Heuristic: FF-heuristic.
Algorithm: LAO*-search
INITIAL IS PROVEN!

Result: Strong cyclic plan found.

Time needed for preprocess (Parsing, PDBs, ...):    9.975 seconds.
Time needed for search:                             38.937 seconds.
Time needed:                                        48.912 seconds.
Total Garbage Collections: 5
Total Garbage Collection Time: 7 seconds.

Out of 846 nodes, 223 are proven
Number of node expansions: 218
Policy entries: 218
Number of sensing applications in policy: 0
