/h/167/acamacho/Experiments-ICAPS18-SynKit/L6/bigprob_6.compact.tlsf.unrealizability.sas parsed.
Heuristic: FF-heuristic.
Algorithm: LAO*-search
INITIAL IS PROVEN!

Result: Strong cyclic plan found.

Time needed for preprocess (Parsing, PDBs, ...):    2.274 seconds.
Time needed for search:                             9.788 seconds.
Time needed:                                        12.062 seconds.
Total Garbage Collections: 2
Total Garbage Collection Time: 0 seconds.

Out of 390 nodes, 168 are proven
Number of node expansions: 234
Policy entries: 157
Number of sensing applications in policy: 0
